<?xml version="1.0" standalone="no"?>
<!DOCTYPE svg PUBLIC "-//W3C//DTD SVG 1.1//EN" "http://www.w3.org/Graphics/SVG/1.1/DTD/svg11.dtd" >
<svg xmlns="http://www.w3.org/2000/svg">
<metadata></metadata>
<defs>
<font id="open_sansbold" horiz-adv-x="1169" >
<font-face units-per-em="2048" ascent="1638" descent="-410" />
<missing-glyph horiz-adv-x="532" />
<glyph unicode="&#xd;" horiz-adv-x="682" />
<glyph unicode=" "  horiz-adv-x="532" />
<glyph unicode="&#x09;" horiz-adv-x="532" />
<glyph unicode="&#xa0;" horiz-adv-x="532" />
<glyph unicode="!" horiz-adv-x="586" d="M117 143q0 84 45 127t131 43q83 0 128.5 -44t45.5 -126q0 -79 -46 -124.5t-128 -45.5q-84 0 -130 44.5t-46 125.5zM121 1462h346l-51 -977h-244z" />
<glyph unicode="&#x22;" horiz-adv-x="967" d="M133 1462h279l-41 -528h-197zM555 1462h279l-41 -528h-197z" />
<glyph unicode="#" horiz-adv-x="1323" d="M45 406v206h277l47 232h-252v209h289l77 407h219l-77 -407h198l78 407h215l-78 -407h240v-209h-279l-47 -232h258v-206h-297l-77 -406h-220l78 406h-194l-76 -406h-215l74 406h-238zM539 612h196l47 232h-196z" />
<glyph unicode="$" d="M88 1049q0 145 113.5 238.5t316.5 113.5v153h137v-149q229 -10 414 -92l-94 -234q-156 64 -320 78v-295q195 -75 277.5 -130t121 -121t38.5 -154q0 -159 -115 -255.5t-322 -115.5v-205h-137v201q-244 5 -428 86v264q87 -43 209.5 -76t218.5 -39v310l-67 26 q-198 78 -280.5 169.5t-82.5 226.5zM389 1049q0 -44 30.5 -72.5t98.5 -58.5v235q-129 -19 -129 -104zM655 324q136 23 136 118q0 42 -34 71t-102 60v-249z" />
<glyph unicode="%" horiz-adv-x="1845" d="M63 1026q0 457 345 457q169 0 259.5 -118.5t90.5 -338.5q0 -230 -89 -345.5t-261 -115.5q-165 0 -255 118.5t-90 342.5zM315 1024q0 -127 22.5 -189.5t72.5 -62.5q96 0 96 252q0 250 -96 250q-50 0 -72.5 -61.5t-22.5 -188.5zM395 0l811 1462h240l-811 -1462h-240z M1087 442q0 457 345 457q169 0 259.5 -118.5t90.5 -338.5q0 -229 -89 -344.5t-261 -115.5q-165 0 -255 118.5t-90 341.5zM1339 440q0 -127 22.5 -189.5t72.5 -62.5q96 0 96 252q0 250 -96 250q-50 0 -72.5 -61.5t-22.5 -188.5z" />
<glyph unicode="&#x26;" horiz-adv-x="1536" d="M82 395q0 137 60.5 233.5t207.5 180.5q-75 86 -109 164.5t-34 171.5q0 152 116.5 245t311.5 93q186 0 297.5 -86.5t111.5 -231.5q0 -119 -69 -217.5t-223 -187.5l284 -277q71 117 123 301h318q-36 -135 -99 -263.5t-143 -227.5l301 -293h-377l-115 113 q-191 -133 -432 -133q-244 0 -387 112t-143 303zM403 424q0 -86 64.5 -137t165.5 -51q126 0 227 61l-332 330q-58 -44 -91.5 -92t-33.5 -111zM489 1124q0 -88 95 -194q86 48 132 94.5t46 108.5q0 53 -36 83.5t-93 30.5q-67 0 -105.5 -32t-38.5 -91z" />
<glyph unicode="'" horiz-adv-x="545" d="M133 1462h279l-41 -528h-197z" />
<glyph unicode="(" horiz-adv-x="694" d="M82 561q0 265 77.5 496t223.5 405h250q-141 -193 -213 -424t-72 -475q0 -245 73.5 -473.5t209.5 -413.5h-248q-147 170 -224 397t-77 488z" />
<glyph unicode=")" horiz-adv-x="694" d="M61 1462h250q147 -175 224 -406.5t77 -494.5t-77.5 -490t-223.5 -395h-248q135 184 209 412.5t74 474.5q0 244 -72 475t-213 424z" />
<glyph unicode="*" horiz-adv-x="1116" d="M63 1042l39 250l365 -104l-41 368h262l-41 -368l373 104l33 -252l-340 -24l223 -297l-227 -121l-156 313l-137 -311l-236 119l221 297z" />
<glyph unicode="+" d="M88 612v219h387v390h219v-390h387v-219h-387v-385h-219v385h-387z" />
<glyph unicode="," horiz-adv-x="594" d="M63 -264q65 266 101 502h280l15 -23q-52 -202 -176 -479h-220z" />
<glyph unicode="-" horiz-adv-x="659" d="M61 424v250h537v-250h-537z" />
<glyph unicode="." horiz-adv-x="584" d="M117 143q0 84 45 127t131 43q83 0 128.5 -44t45.5 -126q0 -79 -46 -124.5t-128 -45.5q-84 0 -130 44.5t-46 125.5z" />
<glyph unicode="/" horiz-adv-x="846" d="M14 0l545 1462h277l-545 -1462h-277z" />
<glyph unicode="0" d="M74 731q0 387 125 570.5t385 183.5q253 0 382.5 -192t129.5 -562q0 -383 -125.5 -567t-386.5 -184q-253 0 -381.5 190t-128.5 561zM381 731q0 -269 46.5 -385.5t156.5 -116.5q108 0 156 118t48 384q0 269 -48.5 386.5t-155.5 117.5q-109 0 -156 -117.5t-47 -386.5z" />
<glyph unicode="1" d="M121 1087l471 375h254v-1462h-309v846l3 139l5 152q-77 -77 -107 -101l-168 -135z" />
<glyph unicode="2" d="M78 1274q108 92 179 130t155 58.5t188 20.5q137 0 242 -50t163 -140t58 -206q0 -101 -35.5 -189.5t-110 -181.5t-262.5 -265l-188 -177v-14h637v-260h-1022v215l367 371q163 167 213 231.5t72 119.5t22 114q0 88 -48.5 131t-129.5 43q-85 0 -165 -39t-167 -111z" />
<glyph unicode="3" d="M78 59v263q85 -43 187 -70t202 -27q153 0 226 52t73 167q0 103 -84 146t-268 43h-111v237h113q170 0 248.5 44.5t78.5 152.5q0 166 -208 166q-72 0 -146.5 -24t-165.5 -83l-143 213q200 144 477 144q227 0 358.5 -92t131.5 -256q0 -137 -83 -233t-233 -132v-6 q177 -22 268 -107.5t91 -230.5q0 -211 -153 -328.5t-437 -117.5q-238 0 -422 79z" />
<glyph unicode="4" d="M35 303v215l641 944h285v-919h176v-240h-176v-303h-302v303h-624zM307 543h352v248q0 62 5 180t8 137h-8q-37 -82 -89 -160z" />
<glyph unicode="5" d="M100 59v267q79 -42 184 -68.5t199 -26.5q283 0 283 232q0 221 -293 221q-53 0 -117 -10.5t-104 -22.5l-123 66l55 745h793v-262h-522l-27 -287l35 7q61 14 151 14q212 0 337.5 -119t125.5 -326q0 -245 -151 -377t-432 -132q-244 0 -394 79z" />
<glyph unicode="6" d="M72 621q0 434 183.5 646t549.5 212q125 0 196 -15v-247q-89 20 -176 20q-159 0 -259.5 -48t-150.5 -142t-59 -267h13q99 170 317 170q196 0 307 -123t111 -340q0 -234 -132 -370.5t-366 -136.5q-162 0 -282.5 75t-186 219t-65.5 347zM379 510q0 -119 62.5 -201t158.5 -82 q99 0 152 66.5t53 189.5q0 107 -49.5 168.5t-149.5 61.5q-94 0 -160.5 -61t-66.5 -142z" />
<glyph unicode="7" d="M55 1200v260h1049v-194l-553 -1266h-324l549 1200h-721z" />
<glyph unicode="8" d="M72 371q0 125 66.5 222t213.5 171q-125 79 -180 169t-55 197q0 157 130 254t339 97q210 0 338.5 -95.5t128.5 -257.5q0 -112 -62 -199.5t-200 -156.5q164 -88 235.5 -183.5t71.5 -209.5q0 -180 -141 -289.5t-371 -109.5q-240 0 -377 102t-137 289zM358 389q0 -86 60 -134 t164 -48q115 0 172 49.5t57 130.5q0 67 -56.5 125.5t-183.5 124.5q-213 -98 -213 -248zM408 1106q0 -60 38.5 -107.5t139.5 -97.5q98 46 137 94t39 111q0 69 -50 109t-128 40q-79 0 -127.5 -40.5t-48.5 -108.5z" />
<glyph unicode="9" d="M66 971q0 235 133.5 371.5t363.5 136.5q162 0 283.5 -76t186.5 -220.5t65 -344.5q0 -432 -182 -645t-551 -213q-130 0 -197 14v248q84 -21 176 -21q155 0 255 45.5t153 143t61 268.5h-12q-58 -94 -134 -132t-190 -38q-191 0 -301 122.5t-110 340.5zM365 975 q0 -106 49 -168t149 -62q94 0 161 61.5t67 141.5q0 119 -62.5 201t-159.5 82q-96 0 -150 -66t-54 -190z" />
<glyph unicode=":" horiz-adv-x="584" d="M117 143q0 84 45 127t131 43q83 0 128.5 -44t45.5 -126q0 -79 -46 -124.5t-128 -45.5q-84 0 -130 44.5t-46 125.5zM117 969q0 84 45 127t131 43q83 0 128.5 -44t45.5 -126q0 -81 -46.5 -125.5t-127.5 -44.5q-84 0 -130 44t-46 126z" />
<glyph unicode=";" horiz-adv-x="594" d="M63 -264q65 266 101 502h280l15 -23q-52 -202 -176 -479h-220zM117 969q0 84 45 127t131 43q83 0 128.5 -44t45.5 -126q0 -81 -46.5 -125.5t-127.5 -44.5q-84 0 -130 44t-46 126z" />
<glyph unicode="&#x3c;" d="M88 641v143l993 496v-240l-684 -317l684 -281v-239z" />
<glyph unicode="=" d="M88 418v219h993v-219h-993zM88 805v219h993v-219h-993z" />
<glyph unicode="&#x3e;" d="M88 203v239l684 281l-684 317v240l993 -496v-143z" />
<glyph unicode="?" horiz-adv-x="977" d="M6 1358q223 125 473 125q206 0 327.5 -99t121.5 -264q0 -110 -50 -190t-190 -180q-96 -71 -121.5 -108t-25.5 -97v-60h-265v74q0 96 41 167t150 151q105 75 138.5 122t33.5 105q0 65 -48 99t-134 34q-150 0 -342 -98zM244 143q0 84 45 127t131 43q83 0 128.5 -44 t45.5 -126q0 -79 -46 -124.5t-128 -45.5q-84 0 -130 44.5t-46 125.5z" />
<glyph unicode="@" horiz-adv-x="1837" d="M102 602q0 247 108.5 448.5t309 316t461.5 114.5q220 0 393 -90t267 -256t94 -383q0 -144 -46 -263.5t-130 -187.5t-195 -68q-74 0 -131 35.5t-82 93.5h-16q-108 -129 -275 -129q-177 0 -279 106.5t-102 291.5q0 211 134 340t350 129q86 0 189.5 -16.5t170.5 -39.5 l-23 -489q0 -139 76 -139q64 0 102 93.5t38 244.5q0 161 -67 284.5t-188.5 188.5t-277.5 65q-202 0 -351 -83t-228.5 -239.5t-79.5 -361.5q0 -276 147.5 -423.5t427.5 -147.5q106 0 233 23.5t250 68.5v-192q-214 -91 -475 -91q-380 0 -592.5 200t-212.5 556zM711 627 q0 -211 172 -211q90 0 137 63.5t57 206.5l13 221q-51 11 -115 11q-125 0 -194.5 -78t-69.5 -213z" />
<glyph unicode="A" horiz-adv-x="1413" d="M0 0l516 1468h379l518 -1468h-334l-106 348h-533l-106 -348h-334zM518 608h381q-147 473 -165.5 535t-26.5 98q-33 -128 -189 -633z" />
<glyph unicode="B" horiz-adv-x="1376" d="M184 0v1462h455q311 0 451.5 -88.5t140.5 -281.5q0 -131 -61.5 -215t-163.5 -101v-10q139 -31 200.5 -116t61.5 -226q0 -200 -144.5 -312t-392.5 -112h-547zM494 256h202q128 0 189 49t61 150q0 182 -260 182h-192v-381zM494 883h180q126 0 182.5 39t56.5 129 q0 84 -61.5 120.5t-194.5 36.5h-163v-325z" />
<glyph unicode="C" horiz-adv-x="1305" d="M119 729q0 228 83 399.5t238.5 263t364.5 91.5q213 0 428 -103l-100 -252q-82 39 -165 68t-163 29q-175 0 -271 -131.5t-96 -366.5q0 -489 367 -489q154 0 373 77v-260q-180 -75 -402 -75q-319 0 -488 193.5t-169 555.5z" />
<glyph unicode="D" horiz-adv-x="1516" d="M184 0v1462h459q358 0 556 -189t198 -528q0 -361 -205.5 -553t-593.5 -192h-414zM494 256h133q448 0 448 481q0 471 -416 471h-165v-952z" />
<glyph unicode="E" horiz-adv-x="1147" d="M184 0v1462h842v-254h-532v-321h495v-254h-495v-377h532v-256h-842z" />
<glyph unicode="F" horiz-adv-x="1124" d="M184 0v1462h838v-254h-533v-377h496v-253h-496v-578h-305z" />
<glyph unicode="G" horiz-adv-x="1483" d="M119 733q0 354 202.5 552t561.5 198q225 0 434 -90l-103 -248q-160 80 -333 80q-201 0 -322 -135t-121 -363q0 -238 97.5 -363.5t283.5 -125.5q97 0 197 20v305h-277v258h580v-758q-141 -46 -265.5 -64.5t-254.5 -18.5q-331 0 -505.5 194.5t-174.5 558.5z" />
<glyph unicode="H" horiz-adv-x="1567" d="M184 0v1462h310v-573h579v573h309v-1462h-309v631h-579v-631h-310z" />
<glyph unicode="I" horiz-adv-x="678" d="M184 0v1462h310v-1462h-310z" />
<glyph unicode="J" horiz-adv-x="678" d="M-152 -150q80 -20 146 -20q102 0 146 63.5t44 198.5v1370h310v-1368q0 -256 -117 -390t-346 -134q-105 0 -183 22v258z" />
<glyph unicode="K" horiz-adv-x="1360" d="M184 0v1462h310v-669l122 172l396 497h344l-510 -647l514 -815h-352l-383 616l-131 -94v-522h-310z" />
<glyph unicode="L" horiz-adv-x="1157" d="M184 0v1462h310v-1206h593v-256h-903z" />
<glyph unicode="M" horiz-adv-x="1931" d="M184 0v1462h422l346 -1118h6l367 1118h422v-1462h-289v692q0 49 1.5 113t13.5 340h-9l-377 -1145h-284l-352 1147h-9q19 -350 19 -467v-680h-277z" />
<glyph unicode="N" horiz-adv-x="1665" d="M184 0v1462h391l635 -1095h7q-15 285 -15 403v692h279v-1462h-394l-636 1106h-9q19 -293 19 -418v-688h-277z" />
<glyph unicode="O" horiz-adv-x="1630" d="M119 735q0 365 180.5 557.5t517.5 192.5t515.5 -194t178.5 -558q0 -363 -180 -558t-516 -195t-516 195t-180 560zM444 733q0 -245 93 -369t278 -124q371 0 371 493q0 494 -369 494q-185 0 -279 -124.5t-94 -369.5z" />
<glyph unicode="P" horiz-adv-x="1286" d="M184 0v1462h467q266 0 404.5 -114.5t138.5 -341.5q0 -236 -147.5 -361t-419.5 -125h-133v-520h-310zM494 774h102q143 0 214 56.5t71 164.5q0 109 -59.5 161t-186.5 52h-141v-434z" />
<glyph unicode="Q" horiz-adv-x="1630" d="M119 735q0 365 180.5 557.5t517.5 192.5t515.5 -194t178.5 -558q0 -258 -91.5 -432.5t-268.5 -255.5l352 -393h-397l-268 328h-23q-336 0 -516 195t-180 560zM444 733q0 -245 93 -369t278 -124q371 0 371 493q0 494 -369 494q-185 0 -279 -124.5t-94 -369.5z" />
<glyph unicode="R" horiz-adv-x="1352" d="M184 0v1462h426q298 0 441 -108.5t143 -329.5q0 -129 -71 -229.5t-201 -157.5q330 -493 430 -637h-344l-349 561h-165v-561h-310zM494 813h100q147 0 217 49t70 154q0 104 -71.5 148t-221.5 44h-94v-395z" />
<glyph unicode="S" horiz-adv-x="1128" d="M94 68v288q148 -66 250.5 -93t187.5 -27q102 0 156.5 39t54.5 116q0 43 -24 76.5t-70.5 64.5t-189.5 99q-134 63 -201 121t-107 135t-40 180q0 194 131.5 305t363.5 111q114 0 217.5 -27t216.5 -76l-100 -241q-117 48 -193.5 67t-150.5 19q-88 0 -135 -41t-47 -107 q0 -41 19 -71.5t60.5 -59t196.5 -102.5q205 -98 281 -196.5t76 -241.5q0 -198 -142.5 -312t-396.5 -114q-234 0 -414 88z" />
<glyph unicode="T" horiz-adv-x="1186" d="M41 1204v258h1104v-258h-397v-1204h-310v1204h-397z" />
<glyph unicode="U" horiz-adv-x="1548" d="M174 520v942h309v-895q0 -169 68 -248t225 -79q152 0 220.5 79.5t68.5 249.5v893h309v-946q0 -162 -72.5 -284t-209.5 -187t-324 -65q-282 0 -438 144.5t-156 395.5z" />
<glyph unicode="V" horiz-adv-x="1331" d="M0 1462h313l275 -870q23 -77 47.5 -179.5t30.5 -142.5q11 92 75 322l277 870h313l-497 -1462h-338z" />
<glyph unicode="W" horiz-adv-x="1980" d="M0 1462h305l187 -798q49 -221 71 -383q6 57 27.5 176.5t40.5 185.5l213 819h293l213 -819q14 -55 35 -168t32 -194q10 78 32 194.5t40 188.5l186 798h305l-372 -1462h-353l-198 768q-11 41 -37.5 169.5t-30.5 172.5q-6 -54 -30 -173.5t-37 -170.5l-197 -766h-352z" />
<glyph unicode="X" horiz-adv-x="1366" d="M0 0l485 754l-454 708h342l315 -526l309 526h334l-459 -725l494 -737h-354l-340 553l-340 -553h-332z" />
<glyph unicode="Y" horiz-adv-x="1278" d="M0 1462h336l303 -602l305 602h334l-485 -893v-569h-308v559z" />
<glyph unicode="Z" horiz-adv-x="1186" d="M49 0v201l701 1005h-682v256h1050v-200l-700 -1006h719v-256h-1088z" />
<glyph unicode="[" horiz-adv-x="678" d="M143 -324v1786h484v-211h-224v-1364h224v-211h-484z" />
<glyph unicode="\" horiz-adv-x="846" d="M12 1462h277l545 -1462h-277z" />
<glyph unicode="]" horiz-adv-x="678" d="M51 -113h223v1364h-223v211h484v-1786h-484v211z" />
<glyph unicode="^" horiz-adv-x="1090" d="M8 520l438 950h144l495 -950h-239l-322 643l-280 -643h-236z" />
<glyph unicode="_" horiz-adv-x="842" d="M-4 -184h850v-140h-850v140z" />
<glyph unicode="`" horiz-adv-x="1243" d="M332 1548v21h342q63 -101 235 -301v-27h-202q-63 44 -185 142.5t-190 164.5z" />
<glyph unicode="a" horiz-adv-x="1237" d="M86 334q0 178 124.5 262.5t375.5 93.5l194 6v49q0 170 -174 170q-134 0 -315 -81l-101 206q193 101 428 101q225 0 345 -98t120 -298v-745h-213l-59 152h-8q-77 -97 -158.5 -134.5t-212.5 -37.5q-161 0 -253.5 92t-92.5 262zM399 332q0 -129 148 -129q106 0 169.5 61 t63.5 162v92l-118 -4q-133 -4 -198 -48t-65 -134z" />
<glyph unicode="b" horiz-adv-x="1296" d="M160 0v1556h305v-362q0 -69 -12 -221h12q107 166 317 166q198 0 310 -154.5t112 -423.5q0 -277 -115.5 -429t-314.5 -152q-197 0 -309 143h-21l-51 -123h-233zM465 563q0 -180 53.5 -258t169.5 -78q94 0 149.5 86.5t55.5 251.5t-56 247.5t-153 82.5q-113 0 -165 -69.5 t-54 -229.5v-33z" />
<glyph unicode="c" horiz-adv-x="1053" d="M92 553q0 285 142 435.5t407 150.5q194 0 348 -76l-90 -236q-72 29 -134 47.5t-124 18.5q-238 0 -238 -338q0 -328 238 -328q88 0 163 23.5t150 73.5v-261q-74 -47 -149.5 -65t-190.5 -18q-522 0 -522 573z" />
<glyph unicode="d" horiz-adv-x="1296" d="M92 557q0 275 114.5 428.5t315.5 153.5q211 0 322 -164h10q-23 125 -23 223v358h306v-1556h-234l-59 145h-13q-104 -165 -317 -165q-197 0 -309.5 153t-112.5 424zM401 553q0 -165 57 -247.5t163 -82.5q117 0 171.5 68t59.5 231v33q0 180 -55.5 258t-180.5 78 q-102 0 -158.5 -86.5t-56.5 -251.5z" />
<glyph unicode="e" horiz-adv-x="1210" d="M92 551q0 281 140.5 434.5t388.5 153.5q237 0 369 -135t132 -373v-148h-721q5 -130 77 -203t202 -73q101 0 191 21t188 67v-236q-80 -40 -171 -59.5t-222 -19.5q-270 0 -422 149t-152 422zM408 686h428q-2 113 -59 174.5t-154 61.5t-152 -61.5t-63 -174.5z" />
<glyph unicode="f" horiz-adv-x="793" d="M41 889v147l168 82v82q0 191 94 279t301 88q158 0 281 -47l-78 -224q-92 29 -170 29q-65 0 -94 -38.5t-29 -98.5v-70h264v-229h-264v-889h-305v889h-168z" />
<glyph unicode="g" horiz-adv-x="1157" d="M6 -182q0 101 63 169t185 97q-47 20 -82 65.5t-35 96.5q0 64 37 106.5t107 83.5q-88 38 -139.5 122t-51.5 198q0 183 119 283t340 100q47 0 111.5 -8.5t82.5 -12.5h390v-155l-175 -45q48 -75 48 -168q0 -180 -125.5 -280.5t-348.5 -100.5l-55 3l-45 5q-47 -36 -47 -80 q0 -66 168 -66h190q184 0 280.5 -79t96.5 -232q0 -196 -163.5 -304t-469.5 -108q-234 0 -357.5 81.5t-123.5 228.5zM270 -158q0 -63 60.5 -99t169.5 -36q164 0 257 45t93 123q0 63 -55 87t-170 24h-158q-84 0 -140.5 -39.5t-56.5 -104.5zM381 752q0 -91 41.5 -144t126.5 -53 q86 0 126 53t40 144q0 202 -166 202q-168 0 -168 -202z" />
<glyph unicode="h" horiz-adv-x="1346" d="M160 0v1556h305v-317q0 -37 -7 -174l-7 -90h16q102 164 324 164q197 0 299 -106t102 -304v-729h-305v653q0 242 -180 242q-128 0 -185 -87t-57 -282v-526h-305z" />
<glyph unicode="i" horiz-adv-x="625" d="M147 1407q0 149 166 149t166 -149q0 -71 -41.5 -110.5t-124.5 -39.5q-166 0 -166 150zM160 0v1118h305v-1118h-305z" />
<glyph unicode="j" horiz-adv-x="625" d="M-131 -227q70 -19 143 -19q77 0 112.5 43t35.5 127v1194h305v-1239q0 -178 -103 -274.5t-292 -96.5q-117 0 -201 25v240zM147 1407q0 149 166 149t166 -149q0 -71 -41.5 -110.5t-124.5 -39.5q-166 0 -166 150z" />
<glyph unicode="k" horiz-adv-x="1270" d="M160 0v1556h305v-694l-16 -254h4l133 170l313 340h344l-444 -485l471 -633h-352l-322 453l-131 -105v-348h-305z" />
<glyph unicode="l" horiz-adv-x="625" d="M160 0v1556h305v-1556h-305z" />
<glyph unicode="m" horiz-adv-x="2011" d="M160 0v1118h233l41 -143h17q45 77 130 120.5t195 43.5q251 0 340 -164h27q45 78 132.5 121t197.5 43q190 0 287.5 -97.5t97.5 -312.5v-729h-306v653q0 121 -40.5 181.5t-127.5 60.5q-112 0 -167.5 -80t-55.5 -254v-561h-305v653q0 121 -40.5 181.5t-127.5 60.5 q-117 0 -170 -86t-53 -283v-526h-305z" />
<glyph unicode="n" horiz-adv-x="1346" d="M160 0v1118h233l41 -143h17q51 81 140.5 122.5t203.5 41.5q195 0 296 -105.5t101 -304.5v-729h-305v653q0 121 -43 181.5t-137 60.5q-128 0 -185 -85.5t-57 -283.5v-526h-305z" />
<glyph unicode="o" horiz-adv-x="1268" d="M92 561q0 274 143 426t402 152q161 0 284 -70t189 -201t66 -307q0 -273 -144 -427t-401 -154q-161 0 -284 70.5t-189 202.5t-66 308zM403 561q0 -166 54.5 -251t177.5 -85q122 0 175.5 84.5t53.5 251.5q0 166 -54 249t-177 83q-122 0 -176 -82.5t-54 -249.5z" />
<glyph unicode="p" horiz-adv-x="1296" d="M160 -492v1610h248l43 -145h14q107 166 317 166q198 0 310 -153t112 -425q0 -179 -52.5 -311t-149.5 -201t-228 -69q-197 0 -309 143h-16q16 -140 16 -162v-453h-305zM465 563q0 -180 53.5 -258t169.5 -78q205 0 205 338q0 165 -50.5 247.5t-158.5 82.5 q-113 0 -165 -69.5t-54 -229.5v-33z" />
<glyph unicode="q" horiz-adv-x="1296" d="M92 557q0 274 114.5 428t313.5 154q106 0 185 -40t139 -124h8l27 143h258v-1610h-306v469q0 61 13 168h-13q-49 -81 -130 -123t-187 -42q-198 0 -310 152.5t-112 424.5zM403 553q0 -168 53.5 -251t166.5 -83q116 0 170 66.5t59 232.5v37q0 180 -55.5 258t-178.5 78 q-215 0 -215 -338z" />
<glyph unicode="r" horiz-adv-x="930" d="M160 0v1118h231l45 -188h15q52 94 140.5 151.5t192.5 57.5q62 0 103 -9l-23 -286q-37 10 -90 10q-146 0 -227.5 -75t-81.5 -210v-569h-305z" />
<glyph unicode="s" horiz-adv-x="1018" d="M92 827q0 149 115.5 230.5t327.5 81.5q202 0 393 -88l-92 -220q-84 36 -157 59t-149 23q-135 0 -135 -73q0 -41 43.5 -71t190.5 -89q131 -53 192 -99t90 -106t29 -143q0 -172 -119.5 -262t-357.5 -90q-122 0 -208 16.5t-161 48.5v252q85 -40 191.5 -67t187.5 -27 q166 0 166 96q0 36 -22 58.5t-76 51t-144 66.5q-129 54 -189.5 100t-88 105.5t-27.5 146.5z" />
<glyph unicode="t" horiz-adv-x="889" d="M47 889v129l168 102l88 236h195v-238h313v-229h-313v-539q0 -65 36.5 -96t96.5 -31q80 0 192 35v-227q-114 -51 -280 -51q-183 0 -266.5 92.5t-83.5 277.5v539h-146z" />
<glyph unicode="u" horiz-adv-x="1346" d="M154 389v729h305v-653q0 -121 43 -181.5t137 -60.5q128 0 185 85.5t57 283.5v526h305v-1118h-234l-41 143h-16q-49 -78 -139 -120.5t-205 -42.5q-197 0 -297 105.5t-100 303.5z" />
<glyph unicode="v" horiz-adv-x="1165" d="M0 1118h319l216 -637q36 -121 45 -229h6q5 96 45 229l215 637h319l-426 -1118h-313z" />
<glyph unicode="w" horiz-adv-x="1753" d="M20 1118h304l129 -495q31 -133 63 -367h6q4 76 35 241l16 85l138 536h336l131 -536q4 -22 12.5 -65t16.5 -91.5t14.5 -95t7.5 -74.5h6q9 72 32 197.5t33 169.5l134 495h299l-322 -1118h-332l-86 391l-116 494h-7l-204 -885h-328z" />
<glyph unicode="x" horiz-adv-x="1184" d="M10 0l379 571l-360 547h346l217 -356l219 356h346l-364 -547l381 -571h-347l-235 383l-236 -383h-346z" />
<glyph unicode="y" horiz-adv-x="1165" d="M0 1118h334l211 -629q27 -82 37 -194h6q11 103 43 194l207 629h327l-473 -1261q-65 -175 -185.5 -262t-281.5 -87q-79 0 -155 17v242q55 -13 120 -13q81 0 141.5 49.5t94.5 149.5l18 55z" />
<glyph unicode="z" horiz-adv-x="999" d="M55 0v180l518 705h-487v233h834v-198l-504 -687h522v-233h-883z" />
<glyph unicode="{" horiz-adv-x="807" d="M31 449v239q126 0 191 44t65 126v8v318q0 153 97 215.5t341 62.5v-225q-99 -3 -136.5 -38t-37.5 -103v-299q-6 -188 -234 -222v-12q234 -35 234 -212v-9v-299q0 -68 37 -103t137 -38v-226q-244 0 -341 62.5t-97 216.5v315q0 87 -65.5 133t-190.5 46z" />
<glyph unicode="|" horiz-adv-x="1128" d="M455 -465v2015h219v-2015h-219z" />
<glyph unicode="}" horiz-adv-x="807" d="M82 -98q99 2 136.5 36t37.5 105v299v11q0 86 59 139.5t174 70.5v12q-227 34 -233 222v299q0 70 -37 104t-137 37v225q167 0 262 -26.5t135.5 -84t40.5 -167.5v-318v-10q0 -84 61.5 -126t194.5 -42v-239q-125 0 -190.5 -41t-65.5 -138v-315q0 -112 -41 -169t-135.5 -83.5 t-261.5 -26.5v226z" />
<glyph unicode="~" d="M88 551v231q103 109 256 109q73 0 137.5 -16t139.5 -48q129 -55 227 -55q53 0 116 32t117 89v-231q-101 -109 -256 -109q-66 0 -126 13t-150 50q-131 56 -227 56q-55 0 -117.5 -33.5t-116.5 -87.5z" />
<glyph unicode="&#xa2;" d="M143 741q0 261 104.5 403t315.5 173v166h178v-158q166 -9 299 -74l-90 -235q-72 29 -134 47t-124 18q-121 0 -179 -83.5t-58 -254.5q0 -327 237 -327q82 0 148 15.5t166 60.5v-254q-127 -61 -265 -70v-188h-178v196q-420 59 -420 565z" />
<glyph unicode="&#xa3;" d="M82 0v248q103 44 141.5 101t38.5 157v145h-178v219h178v195q0 201 114.5 309.5t323.5 108.5q195 0 390 -82l-93 -230q-157 64 -272 64q-78 0 -120 -44.5t-42 -127.5v-193h375v-219h-375v-143q0 -170 -151 -248h718v-260h-1048z" />
<glyph unicode="&#xa5;" d="M6 1462h316l262 -602l264 602h313l-383 -747h195v-178h-246v-138h246v-178h-246v-221h-287v221h-247v178h247v138h-247v178h190z" />
<glyph unicode="&#xa9;" horiz-adv-x="1704" d="M100 731q0 200 100 375t275 276t377 101q200 0 375 -100t276 -275t101 -377q0 -197 -97 -370t-272 -277t-383 -104q-207 0 -382 103.5t-272.5 276.5t-97.5 371zM242 731q0 -164 82 -305.5t224 -223t304 -81.5q164 0 305.5 82t223 224t81.5 304q0 164 -82 305.5t-224 223 t-304 81.5q-164 0 -305.5 -82t-223 -224t-81.5 -304zM461 733q0 220 110.5 342.5t309.5 122.5q149 0 305 -78l-74 -168q-113 58 -217 58q-97 0 -150 -74t-53 -205q0 -280 203 -280q57 0 123 15t123 44v-191q-120 -57 -252 -57q-204 0 -316 125t-112 346z" />
<glyph unicode="&#xad;" horiz-adv-x="659" d="M61 424v250h537v-250h-537z" />
<glyph unicode="&#xae;" horiz-adv-x="1704" d="M100 731q0 200 100 375t275 276t377 101q200 0 375 -100t276 -275t101 -377q0 -197 -97 -370t-272 -277t-383 -104q-207 0 -382 103.5t-272.5 276.5t-97.5 371zM242 731q0 -164 82 -305.5t224 -223t304 -81.5q164 0 305.5 82t223 224t81.5 304q0 164 -82 305.5t-224 223 t-304 81.5q-164 0 -305.5 -82t-223 -224t-81.5 -304zM543 272v916h264q181 0 265.5 -70t84.5 -213q0 -170 -143 -233l237 -400h-254l-178 338h-47v-338h-229zM772 778h31q66 0 94.5 28.5t28.5 94.5q0 65 -28 92t-97 27h-29v-242z" />
<glyph unicode="&#xb4;" horiz-adv-x="1243" d="M332 1241v27q172 200 235 301h342v-21q-52 -52 -177.5 -154.5t-196.5 -152.5h-203z" />
<glyph unicode="&#x2000;" horiz-adv-x="784" />
<glyph unicode="&#x2001;" horiz-adv-x="1569" />
<glyph unicode="&#x2002;" horiz-adv-x="784" />
<glyph unicode="&#x2003;" horiz-adv-x="1569" />
<glyph unicode="&#x2004;" horiz-adv-x="523" />
<glyph unicode="&#x2005;" horiz-adv-x="392" />
<glyph unicode="&#x2006;" horiz-adv-x="261" />
<glyph unicode="&#x2007;" horiz-adv-x="261" />
<glyph unicode="&#x2008;" horiz-adv-x="196" />
<glyph unicode="&#x2009;" horiz-adv-x="313" />
<glyph unicode="&#x200a;" horiz-adv-x="87" />
<glyph unicode="&#x2010;" horiz-adv-x="659" d="M61 424v250h537v-250h-537z" />
<glyph unicode="&#x2011;" horiz-adv-x="659" d="M61 424v250h537v-250h-537z" />
<glyph unicode="&#x2012;" horiz-adv-x="659" d="M61 424v250h537v-250h-537z" />
<glyph unicode="&#x2013;" horiz-adv-x="1024" d="M82 436v230h860v-230h-860z" />
<glyph unicode="&#x2014;" horiz-adv-x="2048" d="M82 436v230h1884v-230h-1884z" />
<glyph unicode="&#x2018;" horiz-adv-x="444" d="M25 983q22 91 72.5 228.5t103.5 250.5h219q-66 -267 -101 -501h-280z" />
<glyph unicode="&#x2019;" horiz-adv-x="444" d="M25 961q69 296 100 501h281l14 -22q-50 -197 -176 -479h-219z" />
<glyph unicode="&#x201c;" horiz-adv-x="911" d="M25 983q22 91 72.5 228.5t103.5 250.5h219q-66 -267 -101 -501h-280zM492 983q22 91 72.5 228.5t103.5 250.5h219q-66 -267 -101 -501h-280z" />
<glyph unicode="&#x201d;" horiz-adv-x="911" d="M25 961q69 296 100 501h281l14 -22q-50 -197 -176 -479h-219zM492 961q69 296 100 501h280l15 -22q-50 -197 -176 -479h-219z" />
<glyph unicode="&#x2022;" horiz-adv-x="770" d="M98 748q0 154 74 235.5t213 81.5q137 0 212 -82t75 -235q0 -152 -75.5 -235t-211.5 -83q-138 0 -212.5 83t-74.5 235z" />
<glyph unicode="&#x2026;" horiz-adv-x="1751" d="M117 143q0 84 45 127t131 43q83 0 128.5 -44t45.5 -126q0 -79 -46 -124.5t-128 -45.5q-84 0 -130 44.5t-46 125.5zM700 143q0 84 45 127t132 43q83 0 128.5 -44t45.5 -126q0 -79 -46 -124.5t-128 -45.5q-85 0 -131 44.5t-46 125.5zM1284 143q0 84 45 127t131 43 q83 0 128.5 -44t45.5 -126q0 -79 -46 -124.5t-128 -45.5q-84 0 -130 44.5t-46 125.5z" />
<glyph unicode="&#x202f;" horiz-adv-x="313" />
<glyph unicode="&#x205f;" horiz-adv-x="392" />
<glyph unicode="&#x20ac;" d="M66 481v178h118q-4 23 -4 62l2 53h-116v176h133q37 242 199 382.5t405 140.5q188 0 352 -82l-98 -232q-69 31 -129 48.5t-125 17.5q-122 0 -201 -70.5t-102 -204.5h403v-176h-418l-2 -35v-47l2 -33h355v-178h-338q51 -243 321 -243q143 0 275 57v-256q-116 -59 -293 -59 q-245 0 -403 133t-199 368h-137z" />
<glyph unicode="&#x2122;" horiz-adv-x="1534" d="M16 1313v149h564v-149h-199v-572h-168v572h-197zM625 741v721h247l160 -510l170 510h240v-721h-168v408l4 121h-6l-174 -529h-142l-165 529h-7l4 -111v-418h-163z" />
<glyph unicode="&#xe000;" horiz-adv-x="1120" d="M0 1120h1120v-1120h-1120v1120z" />
</font>
</defs></svg> 