#Software: Microsoft Internet Information Services 8.5
#Version: 1.0
#Date: 2015-10-29 00:57:15
#Fields: date time s-ip cs-method cs-uri-stem cs-uri-query s-port cs-username c-ip cs(User-Agent) cs(Referer) sc-status sc-substatus sc-win32-status time-taken
2015-10-29 00:57:15 172.31.23.171 GET / - 80 - 180.76.15.25 Mozilla/5.0+(compatible;+Baiduspider/2.0;++http://www.baidu.com/search/spider.html) - 200 0 64 5390
2015-10-29 00:58:18 172.31.23.171 GET / - 80 - 180.76.15.150 Mozilla/5.0+(compatible;+Baiduspider/2.0;++http://www.baidu.com/search/spider.html) - 200 0 64 187
#Software: Microsoft Internet Information Services 8.5
#Version: 1.0
#Date: 2015-10-29 01:56:59
#Fields: date time s-ip cs-method cs-uri-stem cs-uri-query s-port cs-username c-ip cs(User-Agent) cs(Referer) sc-status sc-substatus sc-win32-status time-taken
2015-10-29 01:56:59 172.31.23.171 GET / - 80 - 180.76.15.26 Mozilla/5.0+(compatible;+Baiduspider/2.0;++http://www.baidu.com/search/spider.html) - 200 0 64 5593
2015-10-29 01:58:13 172.31.23.171 GET / - 80 - 180.76.15.147 Mozilla/5.0+(compatible;+Baiduspider/2.0;++http://www.baidu.com/search/spider.html) - 200 0 64 234
#Software: Microsoft Internet Information Services 8.5
#Version: 1.0
#Date: 2015-10-29 02:45:11
#Fields: date time s-ip cs-method cs-uri-stem cs-uri-query s-port cs-username c-ip cs(User-Agent) cs(Referer) sc-status sc-substatus sc-win32-status time-taken
2015-10-29 02:45:11 172.31.23.171 GET / - 80 - 180.76.15.159 Mozilla/5.0+(compatible;+Baiduspider/2.0;++http://www.baidu.com/search/spider.html) - 200 0 64 5515
2015-10-29 02:45:55 172.31.23.171 GET / - 80 - 180.76.15.147 Mozilla/5.0+(compatible;+Baiduspider/2.0;++http://www.baidu.com/search/spider.html) - 200 0 64 187
#Software: Microsoft Internet Information Services 8.5
#Version: 1.0
#Date: 2015-10-29 03:07:14
#Fields: date time s-ip cs-method cs-uri-stem cs-uri-query s-port cs-username c-ip cs(User-Agent) cs(Referer) sc-status sc-substatus sc-win32-status time-taken
2015-10-29 03:07:14 172.31.23.171 GET /manager/html - 80 - 202.109.143.18 Mozilla/3.0+(compatible;+Indy+Library) - 404 0 0 828
#Software: Microsoft Internet Information Services 8.5
#Version: 1.0
#Date: 2015-10-29 03:46:12
#Fields: date time s-ip cs-method cs-uri-stem cs-uri-query s-port cs-username c-ip cs(User-Agent) cs(Referer) sc-status sc-substatus sc-win32-status time-taken
2015-10-29 03:46:12 172.31.23.171 GET / - 80 - 107.150.56.166 Mozilla/4.0+(compatible;+MSIE+8.0;+Windows+NT+6.1;+Trident/4.0;+SLCC2;+.NET+CLR+2.0.50727;+.NET+CLR+3.5.30729;+.NET+CLR+3.0.30729;+Media+Center+PC+6.0) - 200 0 64 5281
2015-10-29 03:52:51 172.31.23.171 GET / - 80 - 180.76.15.11 Mozilla/5.0+(compatible;+Baiduspider/2.0;++http://www.baidu.com/search/spider.html) - 200 0 64 218
2015-10-29 03:54:00 172.31.23.171 GET / - 80 - 180.76.15.156 Mozilla/5.0+(compatible;+Baiduspider/2.0;++http://www.baidu.com/search/spider.html) - 200 0 64 187
#Software: Microsoft Internet Information Services 8.5
#Version: 1.0
#Date: 2015-10-29 04:51:32
#Fields: date time s-ip cs-method cs-uri-stem cs-uri-query s-port cs-username c-ip cs(User-Agent) cs(Referer) sc-status sc-substatus sc-win32-status time-taken
2015-10-29 04:51:32 172.31.23.171 GET / - 80 - 180.76.15.136 Mozilla/5.0+(compatible;+Baiduspider/2.0;++http://www.baidu.com/search/spider.html) - 200 0 64 5499
2015-10-29 04:52:31 172.31.23.171 GET / - 80 - 180.76.15.136 Mozilla/5.0+(compatible;+Baiduspider/2.0;++http://www.baidu.com/search/spider.html) - 200 0 64 171
2015-10-29 05:07:39 172.31.23.171 GET / - 80 - 158.69.2.151 Mozilla/5.0+(Macintosh;+Intel+Mac+OS+X+10.6;+rv:25.0)+Gecko/20100101+Firefox/25.0 - 200 0 0 562
#Software: Microsoft Internet Information Services 8.5
#Version: 1.0
#Date: 2015-10-29 06:16:31
#Fields: date time s-ip cs-method cs-uri-stem cs-uri-query s-port cs-username c-ip cs(User-Agent) cs(Referer) sc-status sc-substatus sc-win32-status time-taken
2015-10-29 06:16:31 172.31.23.171 GET / - 80 - 180.76.15.157 Mozilla/5.0+(compatible;+Baiduspider/2.0;++http://www.baidu.com/search/spider.html) - 200 0 64 5578
2015-10-29 06:17:11 172.31.23.171 GET / - 80 - 180.76.15.163 Mozilla/5.0+(compatible;+Baiduspider/2.0;++http://www.baidu.com/search/spider.html) - 200 0 64 171
2015-10-29 06:29:45 172.31.23.171 GET /testproxy.php - 80 - 91.196.50.33 Mozilla/5.0+(Windows+NT+5.1;+rv:32.0)+Gecko/20100101+Firefox/31.0 - 404 0 2 187
#Software: Microsoft Internet Information Services 8.5
#Version: 1.0
#Date: 2015-10-29 06:59:06
#Fields: date time s-ip cs-method cs-uri-stem cs-uri-query s-port cs-username c-ip cs(User-Agent) cs(Referer) sc-status sc-substatus sc-win32-status time-taken
2015-10-29 06:59:06 172.31.23.171 GET / - 80 - 180.76.15.144 Mozilla/5.0+(compatible;+Baiduspider/2.0;++http://www.baidu.com/search/spider.html) - 200 0 64 5515
2015-10-29 06:59:59 172.31.23.171 GET / - 80 - 180.76.15.8 Mozilla/5.0+(compatible;+Baiduspider/2.0;++http://www.baidu.com/search/spider.html) - 200 0 64 187
#Software: Microsoft Internet Information Services 8.5
#Version: 1.0
#Date: 2015-10-29 07:26:14
#Fields: date time s-ip cs-method cs-uri-stem cs-uri-query s-port cs-username c-ip cs(User-Agent) cs(Referer) sc-status sc-substatus sc-win32-status time-taken
2015-10-29 07:26:14 172.31.23.171 GET / - 443 - 74.82.47.2 - - 200 0 0 5578
2015-10-29 07:35:15 172.31.23.171 GET / - 443 - 74.82.47.2 - - 200 0 0 109
#Software: Microsoft Internet Information Services 8.5
#Version: 1.0
#Date: 2015-10-29 08:02:53
#Fields: date time s-ip cs-method cs-uri-stem cs-uri-query s-port cs-username c-ip cs(User-Agent) cs(Referer) sc-status sc-substatus sc-win32-status time-taken
2015-10-29 08:02:53 172.31.23.171 GET / - 80 - 180.76.15.20 Mozilla/5.0+(compatible;+Baiduspider/2.0;++http://www.baidu.com/search/spider.html) - 200 0 64 6874
2015-10-29 08:04:08 172.31.23.171 GET / - 80 - 180.76.15.18 Mozilla/5.0+(compatible;+Baiduspider/2.0;++http://www.baidu.com/search/spider.html) - 200 0 64 172
#Software: Microsoft Internet Information Services 8.5
#Version: 1.0
#Date: 2015-10-29 08:22:33
#Fields: date time s-ip cs-method cs-uri-stem cs-uri-query s-port cs-username c-ip cs(User-Agent) cs(Referer) sc-status sc-substatus sc-win32-status time-taken
2015-10-29 08:22:33 172.31.23.171 GET /Content/Intro/intro.js - 80 - 180.76.15.14 Mozilla/5.0+(compatible;+Baiduspider/2.0;++http://www.baidu.com/search/spider.html) - 200 0 0 343
#Software: Microsoft Internet Information Services 8.5
#Version: 1.0
#Date: 2015-10-29 08:51:17
#Fields: date time s-ip cs-method cs-uri-stem cs-uri-query s-port cs-username c-ip cs(User-Agent) cs(Referer) sc-status sc-substatus sc-win32-status time-taken
2015-10-29 08:51:17 172.31.23.171 GET / - 80 - 180.76.15.149 Mozilla/5.0+(compatible;+Baiduspider/2.0;++http://www.baidu.com/search/spider.html) - 200 0 64 5468
2015-10-29 08:51:48 172.31.23.171 GET / - 80 - 180.76.15.135 Mozilla/5.0+(compatible;+Baiduspider/2.0;++http://www.baidu.com/search/spider.html) - 200 0 64 218
#Software: Microsoft Internet Information Services 8.5
#Version: 1.0
#Date: 2015-10-29 09:59:47
#Fields: date time s-ip cs-method cs-uri-stem cs-uri-query s-port cs-username c-ip cs(User-Agent) cs(Referer) sc-status sc-substatus sc-win32-status time-taken
2015-10-29 09:59:47 172.31.23.171 GET / - 80 - 180.76.15.27 Mozilla/5.0+(compatible;+Baiduspider/2.0;++http://www.baidu.com/search/spider.html) - 200 0 64 6203
2015-10-29 10:01:03 172.31.23.171 GET / - 80 - 180.76.15.28 Mozilla/5.0+(compatible;+Baiduspider/2.0;++http://www.baidu.com/search/spider.html) - 200 0 64 203
#Software: Microsoft Internet Information Services 8.5
#Version: 1.0
#Date: 2015-10-29 11:01:06
#Fields: date time s-ip cs-method cs-uri-stem cs-uri-query s-port cs-username c-ip cs(User-Agent) cs(Referer) sc-status sc-substatus sc-win32-status time-taken
2015-10-29 11:01:06 172.31.23.171 GET / - 80 - 180.76.15.148 Mozilla/5.0+(compatible;+Baiduspider/2.0;++http://www.baidu.com/search/spider.html) - 200 0 64 5734
2015-10-29 11:02:23 172.31.23.171 GET / - 80 - 180.76.15.21 Mozilla/5.0+(compatible;+Baiduspider/2.0;++http://www.baidu.com/search/spider.html) - 200 0 64 218
#Software: Microsoft Internet Information Services 8.5
#Version: 1.0
#Date: 2015-10-29 11:23:49
#Fields: date time s-ip cs-method cs-uri-stem cs-uri-query s-port cs-username c-ip cs(User-Agent) cs(Referer) sc-status sc-substatus sc-win32-status time-taken
2015-10-29 11:23:49 172.31.23.171 GET / - 80 - 137.226.113.7 Scanning+for+research+(researchscan.comsys.rwth-aachen.de) - 200 0 64 6156
2015-10-29 11:23:49 172.31.23.171 GET / - 80 - 137.226.113.7 Scanning+for+research+(researchscan.comsys.rwth-aachen.de) - 200 0 64 812
#Software: Microsoft Internet Information Services 8.5
#Version: 1.0
#Date: 2015-10-29 12:00:31
#Fields: date time s-ip cs-method cs-uri-stem cs-uri-query s-port cs-username c-ip cs(User-Agent) cs(Referer) sc-status sc-substatus sc-win32-status time-taken
2015-10-29 12:00:31 172.31.23.171 GET / - 80 - 180.76.15.159 Mozilla/5.0+(compatible;+Baiduspider/2.0;++http://www.baidu.com/search/spider.html) - 200 0 64 5578
2015-10-29 12:01:51 172.31.23.171 GET / - 80 - 180.76.15.31 Mozilla/5.0+(compatible;+Baiduspider/2.0;++http://www.baidu.com/search/spider.html) - 200 0 64 218
#Software: Microsoft Internet Information Services 8.5
#Version: 1.0
#Date: 2015-10-29 12:54:47
#Fields: date time s-ip cs-method cs-uri-stem cs-uri-query s-port cs-username c-ip cs(User-Agent) cs(Referer) sc-status sc-substatus sc-win32-status time-taken
2015-10-29 12:54:47 172.31.23.171 GET / - 80 - 180.76.15.142 Mozilla/5.0+(compatible;+Baiduspider/2.0;++http://www.baidu.com/search/spider.html) - 200 0 64 5515
2015-10-29 12:55:57 172.31.23.171 GET / - 80 - 180.76.15.142 Mozilla/5.0+(compatible;+Baiduspider/2.0;++http://www.baidu.com/search/spider.html) - 200 0 64 265
#Software: Microsoft Internet Information Services 8.5
#Version: 1.0
#Date: 2015-10-29 13:39:13
#Fields: date time s-ip cs-method cs-uri-stem cs-uri-query s-port cs-username c-ip cs(User-Agent) cs(Referer) sc-status sc-substatus sc-win32-status time-taken
2015-10-29 13:39:13 172.31.23.171 GET /robots.txt - 80 - 66.249.79.213 Mozilla/5.0+(compatible;+Googlebot/2.1;++http://www.google.com/bot.html) - 404 0 2 62
2015-10-29 13:39:19 172.31.23.171 GET / - 80 - 66.249.79.220 Mozilla/5.0+(compatible;+Googlebot/2.1;++http://www.google.com/bot.html) - 200 0 0 5328
#Software: Microsoft Internet Information Services 8.5
#Version: 1.0
#Date: 2015-10-29 13:58:03
#Fields: date time s-ip cs-method cs-uri-stem cs-uri-query s-port cs-username c-ip cs(User-Agent) cs(Referer) sc-status sc-substatus sc-win32-status time-taken
2015-10-29 13:58:03 172.31.23.171 GET / - 80 - 180.76.15.22 Mozilla/5.0+(compatible;+Baiduspider/2.0;++http://www.baidu.com/search/spider.html) - 200 0 64 281
2015-10-29 13:59:25 172.31.23.171 GET / - 80 - 180.76.15.142 Mozilla/5.0+(compatible;+Baiduspider/2.0;++http://www.baidu.com/search/spider.html) - 200 0 64 265
#Software: Microsoft Internet Information Services 8.5
#Version: 1.0
#Date: 2015-10-29 14:45:29
#Fields: date time s-ip cs-method cs-uri-stem cs-uri-query s-port cs-username c-ip cs(User-Agent) cs(Referer) sc-status sc-substatus sc-win32-status time-taken
2015-10-29 14:45:29 172.31.23.171 GET / - 80 - 180.76.15.149 Mozilla/5.0+(compatible;+Baiduspider/2.0;++http://www.baidu.com/search/spider.html) - 200 0 64 5703
2015-10-29 14:46:18 172.31.23.171 GET / - 80 - 180.76.15.34 Mozilla/5.0+(compatible;+Baiduspider/2.0;++http://www.baidu.com/search/spider.html) - 200 0 64 249
#Software: Microsoft Internet Information Services 8.5
#Version: 1.0
#Date: 2015-10-29 16:00:21
#Fields: date time s-ip cs-method cs-uri-stem cs-uri-query s-port cs-username c-ip cs(User-Agent) cs(Referer) sc-status sc-substatus sc-win32-status time-taken
2015-10-29 16:00:21 172.31.23.171 GET / - 80 - 180.76.15.13 Mozilla/5.0+(compatible;+Baiduspider/2.0;++http://www.baidu.com/search/spider.html) - 200 0 64 5640
2015-10-29 16:01:46 172.31.23.171 GET / - 80 - 180.76.15.136 Mozilla/5.0+(compatible;+Baiduspider/2.0;++http://www.baidu.com/search/spider.html) - 200 0 64 234
2015-10-29 16:05:55 172.31.23.171 GET /manager/html - 80 - 61.160.247.231 Mozilla/5.0+(compatible;+MSIE+10.0;+Windows+NT+6.2;+WOW64;+Trident/6.0) - 404 0 0 390
2015-10-29 16:07:01 172.31.23.171 GET /robots.txt - 80 - 66.249.74.85 Mozilla/5.0+(compatible;+Googlebot/2.1;++http://www.google.com/bot.html) - 404 0 2 15
2015-10-29 16:07:01 172.31.23.171 GET / - 80 - 66.249.74.85 Mozilla/5.0+(compatible;+Googlebot/2.1;++http://www.google.com/bot.html) - 200 0 0 78
2015-10-29 16:13:50 172.31.23.171 GET /Content/Intro/Intro.css - 80 - 66.249.79.213 Mozilla/5.0+(compatible;+Googlebot/2.1;++http://www.google.com/bot.html) http://1eztrip.com/ 200 0 0 15
2015-10-29 16:13:51 172.31.23.171 GET /bundles/IndexCss - 80 - 66.249.79.213 Mozilla/5.0+(compatible;+Googlebot/2.1;++http://www.google.com/bot.html) http://1eztrip.com/ 200 0 0 281
#Software: Microsoft Internet Information Services 8.5
#Version: 1.0
#Date: 2015-10-29 16:57:05
#Fields: date time s-ip cs-method cs-uri-stem cs-uri-query s-port cs-username c-ip cs(User-Agent) cs(Referer) sc-status sc-substatus sc-win32-status time-taken
2015-10-29 16:57:05 172.31.23.171 GET / - 80 - 180.76.15.144 Mozilla/5.0+(compatible;+Baiduspider/2.0;++http://www.baidu.com/search/spider.html) - 200 0 64 5593
2015-10-29 16:58:08 172.31.23.171 GET / - 80 - 180.76.15.161 Mozilla/5.0+(compatible;+Baiduspider/2.0;++http://www.baidu.com/search/spider.html) - 200 0 64 234
#Software: Microsoft Internet Information Services 8.5
#Version: 1.0
#Date: 2015-10-29 18:16:43
#Fields: date time s-ip cs-method cs-uri-stem cs-uri-query s-port cs-username c-ip cs(User-Agent) cs(Referer) sc-status sc-substatus sc-win32-status time-taken
2015-10-29 18:16:43 172.31.23.171 GET / - 80 - 189.63.209.116 Mozilla/5.0+(Windows+NT+6.1;+WOW64)+AppleWebKit/537.36+(KHTML,+like+Gecko)+Chrome/32.0.1700.107+Safari/537.36 http://rankings-analytics.com/try.php?u=http://1eztrip.com 200 0 0 5906
2015-10-29 18:16:43 172.31.23.171 GET /bundles/IndexCss - 80 - 189.63.209.116 Mozilla/5.0+(Windows+NT+6.1;+WOW64)+AppleWebKit/537.36+(KHTML,+like+Gecko)+Chrome/32.0.1700.107+Safari/537.36 http://1eztrip.com/ 200 0 0 609
2015-10-29 18:16:43 172.31.23.171 GET /Content/Intro/bootstrap-responsive.min.css - 80 - 189.63.209.116 Mozilla/5.0+(Windows+NT+6.1;+WOW64)+AppleWebKit/537.36+(KHTML,+like+Gecko)+Chrome/32.0.1700.107+Safari/537.36 http://1eztrip.com/ 200 0 0 234
2015-10-29 18:16:43 172.31.23.171 GET /Content/Intro/Intro.css - 80 - 189.63.209.116 Mozilla/5.0+(Windows+NT+6.1;+WOW64)+AppleWebKit/537.36+(KHTML,+like+Gecko)+Chrome/32.0.1700.107+Safari/537.36 http://1eztrip.com/ 200 0 0 421
2015-10-29 18:16:44 172.31.23.171 GET /Content/css/style-1eztrip.css - 80 - 189.63.209.116 Mozilla/5.0+(Windows+NT+6.1;+WOW64)+AppleWebKit/537.36+(KHTML,+like+Gecko)+Chrome/32.0.1700.107+Safari/537.36 http://1eztrip.com/ 200 0 0 843
2015-10-29 18:16:44 172.31.23.171 GET /Scripts/js/Block.ui.js - 80 - 189.63.209.116 Mozilla/5.0+(Windows+NT+6.1;+WOW64)+AppleWebKit/537.36+(KHTML,+like+Gecko)+Chrome/32.0.1700.107+Safari/537.36 http://1eztrip.com/ 200 0 0 593
2015-10-29 18:16:44 172.31.23.171 GET /Scripts/js/Facebook.js - 80 - 189.63.209.116 Mozilla/5.0+(Windows+NT+6.1;+WOW64)+AppleWebKit/537.36+(KHTML,+like+Gecko)+Chrome/32.0.1700.107+Safari/537.36 http://1eztrip.com/ 200 0 0 796
2015-10-29 18:16:44 172.31.23.171 GET /Scripts/jquery-1.8.2.min.js - 80 - 189.63.209.116 Mozilla/5.0+(Windows+NT+6.1;+WOW64)+AppleWebKit/537.36+(KHTML,+like+Gecko)+Chrome/32.0.1700.107+Safari/537.36 http://1eztrip.com/ 200 0 0 1218
2015-10-29 18:16:44 172.31.23.171 GET /bundles/HTMLRespond - 80 - 189.63.209.116 Mozilla/5.0+(Windows+NT+6.1;+WOW64)+AppleWebKit/537.36+(KHTML,+like+Gecko)+Chrome/32.0.1700.107+Safari/537.36 http://1eztrip.com/ 200 0 0 1203
2015-10-29 18:16:44 172.31.23.171 GET /Scripts/Jsfiles/IndexPage.js - 80 - 189.63.209.116 Mozilla/5.0+(Windows+NT+6.1;+WOW64)+AppleWebKit/537.36+(KHTML,+like+Gecko)+Chrome/32.0.1700.107+Safari/537.36 http://1eztrip.com/ 200 0 0 281
2015-10-29 18:16:44 172.31.23.171 GET /Content/images/logo.png - 80 - 189.63.209.116 Mozilla/5.0+(Windows+NT+6.1;+WOW64)+AppleWebKit/537.36+(KHTML,+like+Gecko)+Chrome/32.0.1700.107+Safari/537.36 http://1eztrip.com/ 200 0 0 453
2015-10-29 18:16:44 172.31.23.171 GET /Content/Intro/intro.js - 80 - 189.63.209.116 Mozilla/5.0+(Windows+NT+6.1;+WOW64)+AppleWebKit/537.36+(KHTML,+like+Gecko)+Chrome/32.0.1700.107+Safari/537.36 http://1eztrip.com/ 200 0 0 703
2015-10-29 18:16:45 172.31.23.171 GET /Content/images/restaurant-home-icon.png - 80 - 189.63.209.116 Mozilla/5.0+(Windows+NT+6.1;+WOW64)+AppleWebKit/537.36+(KHTML,+like+Gecko)+Chrome/32.0.1700.107+Safari/537.36 http://1eztrip.com/ 200 0 0 219
2015-10-29 18:16:45 172.31.23.171 GET /Content/images/hotel-home-icon.png - 80 - 189.63.209.116 Mozilla/5.0+(Windows+NT+6.1;+WOW64)+AppleWebKit/537.36+(KHTML,+like+Gecko)+Chrome/32.0.1700.107+Safari/537.36 http://1eztrip.com/ 200 0 0 234
2015-10-29 18:16:45 172.31.23.171 GET /Content/images/activity-home-icon.png - 80 - 189.63.209.116 Mozilla/5.0+(Windows+NT+6.1;+WOW64)+AppleWebKit/537.36+(KHTML,+like+Gecko)+Chrome/32.0.1700.107+Safari/537.36 http://1eztrip.com/ 200 0 0 437
2015-10-29 18:16:45 172.31.23.171 GET /Content/images/banner2.jpg - 80 - 189.63.209.116 Mozilla/5.0+(Windows+NT+6.1;+WOW64)+AppleWebKit/537.36+(KHTML,+like+Gecko)+Chrome/32.0.1700.107+Safari/537.36 http://1eztrip.com/ 200 0 0 1046
2015-10-29 18:16:45 172.31.23.171 GET /Content/images/location-home-icon.png - 80 - 189.63.209.116 Mozilla/5.0+(Windows+NT+6.1;+WOW64)+AppleWebKit/537.36+(KHTML,+like+Gecko)+Chrome/32.0.1700.107+Safari/537.36 http://1eztrip.com/ 200 0 0 218
2015-10-29 18:16:45 172.31.23.171 GET /bundles/JsForIndex - 80 - 189.63.209.116 Mozilla/5.0+(Windows+NT+6.1;+WOW64)+AppleWebKit/537.36+(KHTML,+like+Gecko)+Chrome/32.0.1700.107+Safari/537.36 http://1eztrip.com/ 200 0 0 2140
2015-10-29 18:16:45 172.31.23.171 GET /Content/images/srilanka.jpg - 80 - 189.63.209.116 Mozilla/5.0+(Windows+NT+6.1;+WOW64)+AppleWebKit/537.36+(KHTML,+like+Gecko)+Chrome/32.0.1700.107+Safari/537.36 http://1eztrip.com/ 200 0 0 468
2015-10-29 18:16:45 172.31.23.171 GET /Content/images/beihei.jpg - 80 - 189.63.209.116 Mozilla/5.0+(Windows+NT+6.1;+WOW64)+AppleWebKit/537.36+(KHTML,+like+Gecko)+Chrome/32.0.1700.107+Safari/537.36 http://1eztrip.com/ 200 0 0 234
2015-10-29 18:16:46 172.31.23.171 GET /Content/images/dubai.jpg - 80 - 189.63.209.116 Mozilla/5.0+(Windows+NT+6.1;+WOW64)+AppleWebKit/537.36+(KHTML,+like+Gecko)+Chrome/32.0.1700.107+Safari/537.36 http://1eztrip.com/ 200 0 0 234
2015-10-29 18:16:46 172.31.23.171 GET /Content/images/logo-footer.png - 80 - 189.63.209.116 Mozilla/5.0+(Windows+NT+6.1;+WOW64)+AppleWebKit/537.36+(KHTML,+like+Gecko)+Chrome/32.0.1700.107+Safari/537.36 http://1eztrip.com/ 200 0 0 234
2015-10-29 18:16:46 172.31.23.171 GET /Content/images/singapore.jpg - 80 - 189.63.209.116 Mozilla/5.0+(Windows+NT+6.1;+WOW64)+AppleWebKit/537.36+(KHTML,+like+Gecko)+Chrome/32.0.1700.107+Safari/537.36 http://1eztrip.com/ 200 0 0 703
2015-10-29 18:16:46 172.31.23.171 GET /Content/images/banner.jpg - 80 - 189.63.209.116 Mozilla/5.0+(Windows+NT+6.1;+WOW64)+AppleWebKit/537.36+(KHTML,+like+Gecko)+Chrome/32.0.1700.107+Safari/537.36 http://1eztrip.com/ 200 0 0 2218
2015-10-29 18:16:46 172.31.23.171 GET /Content/images/fb-h.png - 80 - 189.63.209.116 Mozilla/5.0+(Windows+NT+6.1;+WOW64)+AppleWebKit/537.36+(KHTML,+like+Gecko)+Chrome/32.0.1700.107+Safari/537.36 http://1eztrip.com/ 200 0 0 437
2015-10-29 18:16:46 172.31.23.171 GET /Content/images/twit-h.png - 80 - 189.63.209.116 Mozilla/5.0+(Windows+NT+6.1;+WOW64)+AppleWebKit/537.36+(KHTML,+like+Gecko)+Chrome/32.0.1700.107+Safari/537.36 http://1eztrip.com/ 200 0 0 234
2015-10-29 18:16:46 172.31.23.171 GET /Content/images/pin-h.png - 80 - 189.63.209.116 Mozilla/5.0+(Windows+NT+6.1;+WOW64)+AppleWebKit/537.36+(KHTML,+like+Gecko)+Chrome/32.0.1700.107+Safari/537.36 http://1eztrip.com/ 200 0 0 218
2015-10-29 18:16:46 172.31.23.171 GET /Content/css/fonts/opensans-regular-webfont.ttf - 80 - 189.63.209.116 Mozilla/5.0+(Windows+NT+6.1;+WOW64)+AppleWebKit/537.36+(KHTML,+like+Gecko)+Chrome/32.0.1700.107+Safari/537.36 http://1eztrip.com/ 200 0 0 234
2015-10-29 18:16:46 172.31.23.171 GET /Content/images/search-icon.png - 80 - 189.63.209.116 Mozilla/5.0+(Windows+NT+6.1;+WOW64)+AppleWebKit/537.36+(KHTML,+like+Gecko)+Chrome/32.0.1700.107+Safari/537.36 http://1eztrip.com/ 200 0 0 218
2015-10-29 18:16:46 172.31.23.171 GET /Content/images/rss-h.png - 80 - 189.63.209.116 Mozilla/5.0+(Windows+NT+6.1;+WOW64)+AppleWebKit/537.36+(KHTML,+like+Gecko)+Chrome/32.0.1700.107+Safari/537.36 http://1eztrip.com/ 200 0 0 296
2015-10-29 18:16:46 172.31.23.171 GET /Content/images/location.png - 80 - 189.63.209.116 Mozilla/5.0+(Windows+NT+6.1;+WOW64)+AppleWebKit/537.36+(KHTML,+like+Gecko)+Chrome/32.0.1700.107+Safari/537.36 http://1eztrip.com/ 200 0 0 218
2015-10-29 18:16:47 172.31.23.171 GET /Content/images/footer-border-dest-top.png - 80 - 189.63.209.116 Mozilla/5.0+(Windows+NT+6.1;+WOW64)+AppleWebKit/537.36+(KHTML,+like+Gecko)+Chrome/32.0.1700.107+Safari/537.36 http://1eztrip.com/ 200 0 0 234
2015-10-29 18:16:47 172.31.23.171 GET /Content/images/arrow-left.png - 80 - 189.63.209.116 Mozilla/5.0+(Windows+NT+6.1;+WOW64)+AppleWebKit/537.36+(KHTML,+like+Gecko)+Chrome/32.0.1700.107+Safari/537.36 http://1eztrip.com/ 200 0 0 359
2015-10-29 18:16:47 172.31.23.171 GET /Content/images/arrow-btn.png - 80 - 189.63.209.116 Mozilla/5.0+(Windows+NT+6.1;+WOW64)+AppleWebKit/537.36+(KHTML,+like+Gecko)+Chrome/32.0.1700.107+Safari/537.36 http://1eztrip.com/ 200 0 0 406
2015-10-29 18:16:47 172.31.23.171 GET /Content/images/footer-border-dest-bot.png - 80 - 189.63.209.116 Mozilla/5.0+(Windows+NT+6.1;+WOW64)+AppleWebKit/537.36+(KHTML,+like+Gecko)+Chrome/32.0.1700.107+Safari/537.36 http://1eztrip.com/ 200 0 0 249
2015-10-29 18:16:47 172.31.23.171 GET /Content/images/arrow-left-white.png - 80 - 189.63.209.116 Mozilla/5.0+(Windows+NT+6.1;+WOW64)+AppleWebKit/537.36+(KHTML,+like+Gecko)+Chrome/32.0.1700.107+Safari/537.36 http://1eztrip.com/ 200 0 0 249
2015-10-29 18:16:47 172.31.23.171 GET /Content/css/fonts/opensanssemiboldwebfont.ttf - 80 - 189.63.209.116 Mozilla/5.0+(Windows+NT+6.1;+WOW64)+AppleWebKit/537.36+(KHTML,+like+Gecko)+Chrome/32.0.1700.107+Safari/537.36 http://1eztrip.com/ 200 0 0 234
2015-10-29 18:16:47 172.31.23.171 GET /Content/images/services-bg.png - 80 - 189.63.209.116 Mozilla/5.0+(Windows+NT+6.1;+WOW64)+AppleWebKit/537.36+(KHTML,+like+Gecko)+Chrome/32.0.1700.107+Safari/537.36 http://1eztrip.com/ 200 0 0 671
2015-10-29 18:16:47 172.31.23.171 GET /Content/images/footer-border.png - 80 - 189.63.209.116 Mozilla/5.0+(Windows+NT+6.1;+WOW64)+AppleWebKit/537.36+(KHTML,+like+Gecko)+Chrome/32.0.1700.107+Safari/537.36 http://1eztrip.com/ 200 0 0 375
2015-10-29 18:16:47 172.31.23.171 GET /Content/css/fonts/opensans-bold-webfont.ttf - 80 - 189.63.209.116 Mozilla/5.0+(Windows+NT+6.1;+WOW64)+AppleWebKit/537.36+(KHTML,+like+Gecko)+Chrome/32.0.1700.107+Safari/537.36 http://1eztrip.com/ 200 0 0 375
2015-10-29 18:16:48 172.31.23.171 GET /Content/images/arrow-it-left.png - 80 - 189.63.209.116 Mozilla/5.0+(Windows+NT+6.1;+WOW64)+AppleWebKit/537.36+(KHTML,+like+Gecko)+Chrome/32.0.1700.107+Safari/537.36 http://1eztrip.com/ 200 0 0 531
2015-10-29 18:16:48 172.31.23.171 GET /Trip/GetDestinationPlace - 80 - 189.63.209.116 Mozilla/5.0+(Windows+NT+6.1;+WOW64)+AppleWebKit/537.36+(KHTML,+like+Gecko)+Chrome/32.0.1700.107+Safari/537.36 http://1eztrip.com/ 200 0 0 609
2015-10-29 18:16:48 172.31.23.171 GET /Content/images/arrow-it-right.png - 80 - 189.63.209.116 Mozilla/5.0+(Windows+NT+6.1;+WOW64)+AppleWebKit/537.36+(KHTML,+like+Gecko)+Chrome/32.0.1700.107+Safari/537.36 http://1eztrip.com/ 200 0 0 531
2015-10-29 18:16:48 172.31.23.171 GET /Trip/GetAmazingGetDestination - 80 - 189.63.209.116 Mozilla/5.0+(Windows+NT+6.1;+WOW64)+AppleWebKit/537.36+(KHTML,+like+Gecko)+Chrome/32.0.1700.107+Safari/537.36 http://1eztrip.com/ 200 0 0 749
2015-10-29 18:16:48 172.31.23.171 GET /Content/css/fonts/opensans-light-webfont-webfont.ttf - 80 - 189.63.209.116 Mozilla/5.0+(Windows+NT+6.1;+WOW64)+AppleWebKit/537.36+(KHTML,+like+Gecko)+Chrome/32.0.1700.107+Safari/537.36 http://1eztrip.com/ 200 0 0 953
2015-10-29 18:16:48 172.31.23.171 GET /Content/images/CityImages/8d6a-BurkinaFaso.jpg - 80 - 189.63.209.116 Mozilla/5.0+(Windows+NT+6.1;+WOW64)+AppleWebKit/537.36+(KHTML,+like+Gecko)+Chrome/32.0.1700.107+Safari/537.36 http://1eztrip.com/ 200 0 0 234
2015-10-29 18:16:48 172.31.23.171 GET /Content/images/CityImages/0074-Antigua.jpg - 80 - 189.63.209.116 Mozilla/5.0+(Windows+NT+6.1;+WOW64)+AppleWebKit/537.36+(KHTML,+like+Gecko)+Chrome/32.0.1700.107+Safari/537.36 http://1eztrip.com/ 200 0 0 234
2015-10-29 18:16:48 172.31.23.171 GET /Content/images/CityImages/da11-Cyprus.jpg - 80 - 189.63.209.116 Mozilla/5.0+(Windows+NT+6.1;+WOW64)+AppleWebKit/537.36+(KHTML,+like+Gecko)+Chrome/32.0.1700.107+Safari/537.36 http://1eztrip.com/ 200 0 0 312
2015-10-29 18:16:48 172.31.23.171 GET /Content/images/CityImages/7404-Belize.jpg - 80 - 189.63.209.116 Mozilla/5.0+(Windows+NT+6.1;+WOW64)+AppleWebKit/537.36+(KHTML,+like+Gecko)+Chrome/32.0.1700.107+Safari/537.36 http://1eztrip.com/ 200 0 0 250
2015-10-29 18:16:48 172.31.23.171 GET /Content/images/CityImages/ceb2-Bahamas.jpg - 80 - 189.63.209.116 Mozilla/5.0+(Windows+NT+6.1;+WOW64)+AppleWebKit/537.36+(KHTML,+like+Gecko)+Chrome/32.0.1700.107+Safari/537.36 http://1eztrip.com/ 200 0 0 453
2015-10-29 18:16:48 172.31.23.171 GET /Content/images/CityImages/b59e-Borneo.jpg - 80 - 189.63.209.116 Mozilla/5.0+(Windows+NT+6.1;+WOW64)+AppleWebKit/537.36+(KHTML,+like+Gecko)+Chrome/32.0.1700.107+Safari/537.36 http://1eztrip.com/ 200 0 0 250
2015-10-29 18:16:48 172.31.23.171 GET /Content/images/CityImages/cb06-Borneo.jpg - 80 - 189.63.209.116 Mozilla/5.0+(Windows+NT+6.1;+WOW64)+AppleWebKit/537.36+(KHTML,+like+Gecko)+Chrome/32.0.1700.107+Safari/537.36 http://1eztrip.com/ 200 0 0 406
2015-10-29 18:16:49 172.31.23.171 GET /Content/images/CityImages/623d-Bulgaria.jpg - 80 - 189.63.209.116 Mozilla/5.0+(Windows+NT+6.1;+WOW64)+AppleWebKit/537.36+(KHTML,+like+Gecko)+Chrome/32.0.1700.107+Safari/537.36 http://1eztrip.com/ 200 0 0 265
2015-10-29 18:16:49 172.31.23.171 GET /Content/images/CityImages/0970-Botswana.jpg - 80 - 189.63.209.116 Mozilla/5.0+(Windows+NT+6.1;+WOW64)+AppleWebKit/537.36+(KHTML,+like+Gecko)+Chrome/32.0.1700.107+Safari/537.36 http://1eztrip.com/ 200 0 0 968
2015-10-29 18:16:49 172.31.23.171 GET /Content/images/CityImages/6cc2-Belize.jpg - 80 - 189.63.209.116 Mozilla/5.0+(Windows+NT+6.1;+WOW64)+AppleWebKit/537.36+(KHTML,+like+Gecko)+Chrome/32.0.1700.107+Safari/537.36 http://1eztrip.com/ 200 0 0 234
2015-10-29 18:16:49 172.31.23.171 GET /Content/images/CityImages/c182-Albania.jpg - 80 - 189.63.209.116 Mozilla/5.0+(Windows+NT+6.1;+WOW64)+AppleWebKit/537.36+(KHTML,+like+Gecko)+Chrome/32.0.1700.107+Safari/537.36 http://1eztrip.com/ 200 0 0 250
2015-10-29 18:16:49 172.31.23.171 GET /Content/images/CityImages/fba0-Benin.jpg - 80 - 189.63.209.116 Mozilla/5.0+(Windows+NT+6.1;+WOW64)+AppleWebKit/537.36+(KHTML,+like+Gecko)+Chrome/32.0.1700.107+Safari/537.36 http://1eztrip.com/ 200 0 0 1031
2015-10-29 18:16:49 172.31.23.171 GET /Content/images/CityImages/bd27-download.jpg - 80 - 189.63.209.116 Mozilla/5.0+(Windows+NT+6.1;+WOW64)+AppleWebKit/537.36+(KHTML,+like+Gecko)+Chrome/32.0.1700.107+Safari/537.36 http://1eztrip.com/ 200 0 0 218
2015-10-29 18:16:49 172.31.23.171 GET /Content/images/CityImages/6bcb-Armenia.jpg - 80 - 189.63.209.116 Mozilla/5.0+(Windows+NT+6.1;+WOW64)+AppleWebKit/537.36+(KHTML,+like+Gecko)+Chrome/32.0.1700.107+Safari/537.36 http://1eztrip.com/ 200 0 0 515
2015-10-29 18:16:49 172.31.23.171 GET /Content/images/CityImages/cf78-download+(1).jpg - 80 - 189.63.209.116 Mozilla/5.0+(Windows+NT+6.1;+WOW64)+AppleWebKit/537.36+(KHTML,+like+Gecko)+Chrome/32.0.1700.107+Safari/537.36 http://1eztrip.com/ 200 0 0 234
2015-10-29 18:16:49 172.31.23.171 GET /Content/images/CityImages/010a-download+(2).jpg - 80 - 189.63.209.116 Mozilla/5.0+(Windows+NT+6.1;+WOW64)+AppleWebKit/537.36+(KHTML,+like+Gecko)+Chrome/32.0.1700.107+Safari/537.36 http://1eztrip.com/ 200 0 0 234
2015-10-29 18:16:49 172.31.23.171 GET /Content/images/CityImages/b185-download+(5).jpg - 80 - 189.63.209.116 Mozilla/5.0+(Windows+NT+6.1;+WOW64)+AppleWebKit/537.36+(KHTML,+like+Gecko)+Chrome/32.0.1700.107+Safari/537.36 http://1eztrip.com/ 200 0 0 218
2015-10-29 18:16:49 172.31.23.171 GET /Content/images/CityImages/ec63-download+(4).jpg - 80 - 189.63.209.116 Mozilla/5.0+(Windows+NT+6.1;+WOW64)+AppleWebKit/537.36+(KHTML,+like+Gecko)+Chrome/32.0.1700.107+Safari/537.36 http://1eztrip.com/ 200 0 0 218
2015-10-29 18:16:49 172.31.23.171 GET /Content/images/CityImages/1248-download+(3).jpg - 80 - 189.63.209.116 Mozilla/5.0+(Windows+NT+6.1;+WOW64)+AppleWebKit/537.36+(KHTML,+like+Gecko)+Chrome/32.0.1700.107+Safari/537.36 http://1eztrip.com/ 200 0 0 343
2015-10-29 18:16:49 172.31.23.171 GET /Content/images/CityImages/ec43-download+(6).jpg - 80 - 189.63.209.116 Mozilla/5.0+(Windows+NT+6.1;+WOW64)+AppleWebKit/537.36+(KHTML,+like+Gecko)+Chrome/32.0.1700.107+Safari/537.36 http://1eztrip.com/ 200 0 0 218
2015-10-29 18:16:49 172.31.23.171 GET /Content/images/CityImages/ce9e-Austria.jpg - 80 - 189.63.209.116 Mozilla/5.0+(Windows+NT+6.1;+WOW64)+AppleWebKit/537.36+(KHTML,+like+Gecko)+Chrome/32.0.1700.107+Safari/537.36 http://1eztrip.com/ 200 0 0 703
2015-10-29 18:16:49 172.31.23.171 GET /Content/images/CityImages/2549-images+(2).jpg - 80 - 189.63.209.116 Mozilla/5.0+(Windows+NT+6.1;+WOW64)+AppleWebKit/537.36+(KHTML,+like+Gecko)+Chrome/32.0.1700.107+Safari/537.36 http://1eztrip.com/ 200 0 0 218
2015-10-29 18:16:49 172.31.23.171 GET /Content/images/CityImages/b26a-images.jpg - 80 - 189.63.209.116 Mozilla/5.0+(Windows+NT+6.1;+WOW64)+AppleWebKit/537.36+(KHTML,+like+Gecko)+Chrome/32.0.1700.107+Safari/537.36 http://1eztrip.com/ 200 0 0 234
2015-10-29 18:16:49 172.31.23.171 GET /Content/images/CityImages/3a1e-images+(1).jpg - 80 - 189.63.209.116 Mozilla/5.0+(Windows+NT+6.1;+WOW64)+AppleWebKit/537.36+(KHTML,+like+Gecko)+Chrome/32.0.1700.107+Safari/537.36 http://1eztrip.com/ 200 0 0 218
2015-10-29 18:16:49 172.31.23.171 GET /Content/images/CityImages/b91e-download+(7).jpg - 80 - 189.63.209.116 Mozilla/5.0+(Windows+NT+6.1;+WOW64)+AppleWebKit/537.36+(KHTML,+like+Gecko)+Chrome/32.0.1700.107+Safari/537.36 http://1eztrip.com/ 200 0 0 203
2015-10-29 18:16:50 172.31.23.171 GET /Content/images/CityImages/5dca-Brazil.jpg - 80 - 189.63.209.116 Mozilla/5.0+(Windows+NT+6.1;+WOW64)+AppleWebKit/537.36+(KHTML,+like+Gecko)+Chrome/32.0.1700.107+Safari/537.36 http://1eztrip.com/ 200 0 0 218
2015-10-29 18:16:50 172.31.23.171 GET /Content/images/CityImages/b312-Denmark.jpg - 80 - 189.63.209.116 Mozilla/5.0+(Windows+NT+6.1;+WOW64)+AppleWebKit/537.36+(KHTML,+like+Gecko)+Chrome/32.0.1700.107+Safari/537.36 http://1eztrip.com/ 200 0 0 250
2015-10-29 18:16:50 172.31.23.171 GET /Content/images/CityImages/c1fd-Chile.jpg - 80 - 189.63.209.116 Mozilla/5.0+(Windows+NT+6.1;+WOW64)+AppleWebKit/537.36+(KHTML,+like+Gecko)+Chrome/32.0.1700.107+Safari/537.36 http://1eztrip.com/ 200 0 0 453
2015-10-29 18:16:50 172.31.23.171 GET /Content/images/CityImages/0eb3-download+(3).jpg - 80 - 189.63.209.116 Mozilla/5.0+(Windows+NT+6.1;+WOW64)+AppleWebKit/537.36+(KHTML,+like+Gecko)+Chrome/32.0.1700.107+Safari/537.36 http://1eztrip.com/ 200 0 0 328
2015-10-29 18:16:50 172.31.23.171 GET /Content/images/CityImages/bb14-Finland.jpg - 80 - 189.63.209.116 Mozilla/5.0+(Windows+NT+6.1;+WOW64)+AppleWebKit/537.36+(KHTML,+like+Gecko)+Chrome/32.0.1700.107+Safari/537.36 http://1eztrip.com/ 200 0 0 437
2015-10-29 18:16:50 172.31.23.171 GET /Content/images/CityImages/3196-Norway.jpg - 80 - 189.63.209.116 Mozilla/5.0+(Windows+NT+6.1;+WOW64)+AppleWebKit/537.36+(KHTML,+like+Gecko)+Chrome/32.0.1700.107+Safari/537.36 http://1eztrip.com/ 200 0 0 515
2015-10-29 18:16:50 172.31.23.171 GET /Content/images/CityImages/5611-SouthKorea.jpg - 80 - 189.63.209.116 Mozilla/5.0+(Windows+NT+6.1;+WOW64)+AppleWebKit/537.36+(KHTML,+like+Gecko)+Chrome/32.0.1700.107+Safari/537.36 http://1eztrip.com/ 200 0 0 343
2015-10-29 18:16:50 172.31.23.171 GET /Content/images/CityImages/51f0-Ireland.jpg - 80 - 189.63.209.116 Mozilla/5.0+(Windows+NT+6.1;+WOW64)+AppleWebKit/537.36+(KHTML,+like+Gecko)+Chrome/32.0.1700.107+Safari/537.36 http://1eztrip.com/ 200 0 0 312
2015-10-29 18:16:50 172.31.23.171 GET /Content/images/CityImages/ec23-China.jpg - 80 - 189.63.209.116 Mozilla/5.0+(Windows+NT+6.1;+WOW64)+AppleWebKit/537.36+(KHTML,+like+Gecko)+Chrome/32.0.1700.107+Safari/537.36 http://1eztrip.com/ 200 0 0 234
2015-10-29 18:16:50 172.31.23.171 GET /Content/images/CityImages/8607-Guatemala.jpg - 80 - 189.63.209.116 Mozilla/5.0+(Windows+NT+6.1;+WOW64)+AppleWebKit/537.36+(KHTML,+like+Gecko)+Chrome/32.0.1700.107+Safari/537.36 http://1eztrip.com/ 200 0 0 249
2015-10-29 18:16:51 172.31.23.171 GET /Content/images/CityImages/30c543.jpg - 80 - 189.63.209.116 Mozilla/5.0+(Windows+NT+6.1;+WOW64)+AppleWebKit/537.36+(KHTML,+like+Gecko)+Chrome/32.0.1700.107+Safari/537.36 http://1eztrip.com/ 200 0 0 218
2015-10-29 18:16:51 172.31.23.171 GET /Content/images/CityImages/fe9adc.jpg - 80 - 189.63.209.116 Mozilla/5.0+(Windows+NT+6.1;+WOW64)+AppleWebKit/537.36+(KHTML,+like+Gecko)+Chrome/32.0.1700.107+Safari/537.36 http://1eztrip.com/ 200 0 0 281
2015-10-29 18:16:51 172.31.23.171 GET /Content/images/CityImages/5a0629.jpg - 80 - 189.63.209.116 Mozilla/5.0+(Windows+NT+6.1;+WOW64)+AppleWebKit/537.36+(KHTML,+like+Gecko)+Chrome/32.0.1700.107+Safari/537.36 http://1eztrip.com/ 200 0 0 1140
2015-10-29 18:16:51 172.31.23.171 GET /Content/images/CityImages/5cf467.jpg - 80 - 189.63.209.116 Mozilla/5.0+(Windows+NT+6.1;+WOW64)+AppleWebKit/537.36+(KHTML,+like+Gecko)+Chrome/32.0.1700.107+Safari/537.36 http://1eztrip.com/ 200 0 0 437
2015-10-29 18:16:51 172.31.23.171 GET /Content/images/CityImages/c84ce6.jpg - 80 - 189.63.209.116 Mozilla/5.0+(Windows+NT+6.1;+WOW64)+AppleWebKit/537.36+(KHTML,+like+Gecko)+Chrome/32.0.1700.107+Safari/537.36 http://1eztrip.com/ 200 0 0 234
2015-10-29 18:16:51 172.31.23.171 GET /Content/images/CityImages/b8588c.jpg - 80 - 189.63.209.116 Mozilla/5.0+(Windows+NT+6.1;+WOW64)+AppleWebKit/537.36+(KHTML,+like+Gecko)+Chrome/32.0.1700.107+Safari/537.36 http://1eztrip.com/ 200 0 0 265
2015-10-29 18:16:53 172.31.23.171 GET /Content/images/CityImages/7317fb.jpg - 80 - 189.63.209.116 Mozilla/5.0+(Windows+NT+6.1;+WOW64)+AppleWebKit/537.36+(KHTML,+like+Gecko)+Chrome/32.0.1700.107+Safari/537.36 http://1eztrip.com/ 200 0 0 250
2015-10-29 18:16:53 172.31.23.171 GET /Content/images/CityImages/2ec94c.jpg - 80 - 189.63.209.116 Mozilla/5.0+(Windows+NT+6.1;+WOW64)+AppleWebKit/537.36+(KHTML,+like+Gecko)+Chrome/32.0.1700.107+Safari/537.36 http://1eztrip.com/ 200 0 0 250
2015-10-29 18:16:53 172.31.23.171 GET /Content/images/CityImages/9b184d.png - 80 - 189.63.209.116 Mozilla/5.0+(Windows+NT+6.1;+WOW64)+AppleWebKit/537.36+(KHTML,+like+Gecko)+Chrome/32.0.1700.107+Safari/537.36 http://1eztrip.com/ 200 0 0 781
2015-10-29 18:16:53 172.31.23.171 GET /Content/images/CityImages/bf2213.jpg - 80 - 189.63.209.116 Mozilla/5.0+(Windows+NT+6.1;+WOW64)+AppleWebKit/537.36+(KHTML,+like+Gecko)+Chrome/32.0.1700.107+Safari/537.36 http://1eztrip.com/ 200 0 0 281
2015-10-29 18:16:53 172.31.23.171 GET /Content/images/CityImages/43800a.jpg - 80 - 189.63.209.116 Mozilla/5.0+(Windows+NT+6.1;+WOW64)+AppleWebKit/537.36+(KHTML,+like+Gecko)+Chrome/32.0.1700.107+Safari/537.36 http://1eztrip.com/ 200 0 0 250
2015-10-29 18:16:53 172.31.23.171 GET /Content/images/arrow-c-left.png - 80 - 189.63.209.116 Mozilla/5.0+(Windows+NT+6.1;+WOW64)+AppleWebKit/537.36+(KHTML,+like+Gecko)+Chrome/32.0.1700.107+Safari/537.36 http://1eztrip.com/ 200 0 0 296
2015-10-29 18:16:53 172.31.23.171 GET /Content/images/bx_loader.gif - 80 - 189.63.209.116 Mozilla/5.0+(Windows+NT+6.1;+WOW64)+AppleWebKit/537.36+(KHTML,+like+Gecko)+Chrome/32.0.1700.107+Safari/537.36 http://1eztrip.com/ 200 0 0 1234
2015-10-29 18:16:53 172.31.23.171 GET /Content/images/arrow-c-right.png - 80 - 189.63.209.116 Mozilla/5.0+(Windows+NT+6.1;+WOW64)+AppleWebKit/537.36+(KHTML,+like+Gecko)+Chrome/32.0.1700.107+Safari/537.36 http://1eztrip.com/ 200 0 0 437
2015-10-29 18:16:56 172.31.23.171 GET /Content/images/CityImages/23f5a4.jpg - 80 - 189.63.209.116 Mozilla/5.0+(Windows+NT+6.1;+WOW64)+AppleWebKit/537.36+(KHTML,+like+Gecko)+Chrome/32.0.1700.107+Safari/537.36 http://1eztrip.com/ 200 0 0 4906
2015-10-29 18:16:59 172.31.23.171 GET /Content/images/CityImages/f8518a.jpg - 80 - 189.63.209.116 Mozilla/5.0+(Windows+NT+6.1;+WOW64)+AppleWebKit/537.36+(KHTML,+like+Gecko)+Chrome/32.0.1700.107+Safari/537.36 http://1eztrip.com/ 200 0 0 7718
2015-10-29 18:17:02 172.31.23.171 GET /Content/images/banner2.jpg - 80 - 189.63.209.116 Mozilla/5.0+(Windows+NT+6.1;+WOW64)+AppleWebKit/537.36+(KHTML,+like+Gecko)+Chrome/32.0.1700.107+Safari/537.36 http://1eztrip.com/ 200 0 0 3031
2015-10-29 18:17:05 172.31.23.171 GET /Content/images/banner.jpg - 80 - 189.63.209.116 Mozilla/5.0+(Windows+NT+6.1;+WOW64)+AppleWebKit/537.36+(KHTML,+like+Gecko)+Chrome/32.0.1700.107+Safari/537.36 http://1eztrip.com/ 200 0 0 5781
#Software: Microsoft Internet Information Services 8.5
#Version: 1.0
#Date: 2015-10-29 19:02:31
#Fields: date time s-ip cs-method cs-uri-stem cs-uri-query s-port cs-username c-ip cs(User-Agent) cs(Referer) sc-status sc-substatus sc-win32-status time-taken
2015-10-29 19:02:31 172.31.23.171 GET / - 80 - 180.76.15.154 Mozilla/5.0+(compatible;+Baiduspider/2.0;++http://www.baidu.com/search/spider.html) - 200 0 64 5609
2015-10-29 19:03:20 172.31.23.171 GET / - 80 - 180.76.15.9 Mozilla/5.0+(compatible;+Baiduspider/2.0;++http://www.baidu.com/search/spider.html) - 200 0 64 234
#Software: Microsoft Internet Information Services 8.5
#Version: 1.0
#Date: 2015-10-29 20:03:05
#Fields: date time s-ip cs-method cs-uri-stem cs-uri-query s-port cs-username c-ip cs(User-Agent) cs(Referer) sc-status sc-substatus sc-win32-status time-taken
2015-10-29 20:03:05 172.31.23.171 GET /manager/html - 80 - 119.134.251.156 Mozilla/5.0+(compatible;+MSIE+10.0;+Windows+NT+6.2;+WOW64;+Trident/6.0) - 404 0 64 2281
#Software: Microsoft Internet Information Services 8.5
#Version: 1.0
#Date: 2015-10-29 20:25:58
#Fields: date time s-ip cs-method cs-uri-stem cs-uri-query s-port cs-username c-ip cs(User-Agent) cs(Referer) sc-status sc-substatus sc-win32-status time-taken
2015-10-29 20:25:58 172.31.23.171 GET / - 80 - 180.76.15.143 Mozilla/5.0+(compatible;+Baiduspider/2.0;++http://www.baidu.com/search/spider.html) - 200 0 64 5593
2015-10-29 20:27:09 172.31.23.171 GET / - 80 - 180.76.15.155 Mozilla/5.0+(compatible;+Baiduspider/2.0;++http://www.baidu.com/search/spider.html) - 200 0 64 218
#Software: Microsoft Internet Information Services 8.5
#Version: 1.0
#Date: 2015-10-29 21:10:46
#Fields: date time s-ip cs-method cs-uri-stem cs-uri-query s-port cs-username c-ip cs(User-Agent) cs(Referer) sc-status sc-substatus sc-win32-status time-taken
2015-10-29 21:10:46 172.31.23.171 GET / - 80 - 180.76.15.10 Mozilla/5.0+(compatible;+Baiduspider/2.0;++http://www.baidu.com/search/spider.html) - 200 0 64 5937
2015-10-29 21:11:40 172.31.23.171 GET / - 80 - 180.76.15.160 Mozilla/5.0+(compatible;+Baiduspider/2.0;++http://www.baidu.com/search/spider.html) - 200 0 64 218
#Software: Microsoft Internet Information Services 8.5
#Version: 1.0
#Date: 2015-10-29 22:00:55
#Fields: date time s-ip cs-method cs-uri-stem cs-uri-query s-port cs-username c-ip cs(User-Agent) cs(Referer) sc-status sc-substatus sc-win32-status time-taken
2015-10-29 22:00:55 172.31.23.171 GET / - 80 - 180.76.15.152 Mozilla/5.0+(compatible;+Baiduspider/2.0;++http://www.baidu.com/search/spider.html) - 200 0 64 5562
2015-10-29 22:02:14 172.31.23.171 GET / - 80 - 180.76.15.24 Mozilla/5.0+(compatible;+Baiduspider/2.0;++http://www.baidu.com/search/spider.html) - 200 0 64 265
#Software: Microsoft Internet Information Services 8.5
#Version: 1.0
#Date: 2015-10-29 22:36:54
#Fields: date time s-ip cs-method cs-uri-stem cs-uri-query s-port cs-username c-ip cs(User-Agent) cs(Referer) sc-status sc-substatus sc-win32-status time-taken
2015-10-29 22:36:54 172.31.23.171 GET /robots.txt - 80 - 104.131.218.28 Mozilla/5.0+(compatible;+spbot/4.4.2;++http://OpenLinkProfiler.org/bot+) - 404 0 2 109
2015-10-29 22:36:54 172.31.23.171 GET /robots.txt - 80 - 104.131.218.28 Mozilla/5.0+(compatible;+spbot/4.4.2;++http://OpenLinkProfiler.org/bot+) - 404 0 2 62
2015-10-29 22:37:06 172.31.23.171 GET / - 80 - 104.131.218.28 Mozilla/5.0+(compatible;+spbot/4.4.2;++http://OpenLinkProfiler.org/bot+) - 200 0 0 5468
2015-10-29 22:37:07 172.31.23.171 GET /Trip/Faq - 80 - 104.131.218.28 Mozilla/5.0+(compatible;+spbot/4.4.2;++http://OpenLinkProfiler.org/bot+) http://www.1eztrip.com/ 200 0 0 93
2015-10-29 22:37:08 172.31.23.171 GET /Trip/Help - 80 - 104.131.218.28 Mozilla/5.0+(compatible;+spbot/4.4.2;++http://OpenLinkProfiler.org/bot+) http://www.1eztrip.com/ 200 0 0 93
2015-10-29 22:37:10 172.31.23.171 GET /Trip/Index - 80 - 104.131.218.28 Mozilla/5.0+(compatible;+spbot/4.4.2;++http://OpenLinkProfiler.org/bot+) http://www.1eztrip.com/ 200 0 0 203
2015-10-29 22:37:14 172.31.23.171 GET /Trip/Privacy - 80 - 104.131.218.28 Mozilla/5.0+(compatible;+spbot/4.4.2;++http://OpenLinkProfiler.org/bot+) http://www.1eztrip.com/ 200 0 0 125
2015-10-29 22:37:20 172.31.23.171 GET /Trip/AboutUs - 80 - 104.131.218.28 Mozilla/5.0+(compatible;+spbot/4.4.2;++http://OpenLinkProfiler.org/bot+) http://www.1eztrip.com/ 200 0 0 93
2015-10-29 22:37:26 172.31.23.171 GET /Trip/Feedback - 80 - 104.131.218.28 Mozilla/5.0+(compatible;+spbot/4.4.2;++http://OpenLinkProfiler.org/bot+) http://www.1eztrip.com/ 200 0 0 171
2015-10-29 22:37:31 172.31.23.171 GET /Trip/ContactUs - 80 - 104.131.218.28 Mozilla/5.0+(compatible;+spbot/4.4.2;++http://OpenLinkProfiler.org/bot+) http://www.1eztrip.com/ 200 0 0 156
2015-10-29 22:37:34 172.31.23.171 GET /Trip/Testimonials - 80 - 104.131.218.28 Mozilla/5.0+(compatible;+spbot/4.4.2;++http://OpenLinkProfiler.org/bot+) http://www.1eztrip.com/ 200 0 0 140
2015-10-29 22:37:40 172.31.23.171 GET /Trip/ViewMyProfile - 80 - 104.131.218.28 Mozilla/5.0+(compatible;+spbot/4.4.2;++http://OpenLinkProfiler.org/bot+) http://www.1eztrip.com/ 302 0 0 78
2015-10-29 22:37:44 172.31.23.171 GET /Trip/HowEztripWorks - 80 - 104.131.218.28 Mozilla/5.0+(compatible;+spbot/4.4.2;++http://OpenLinkProfiler.org/bot+) http://www.1eztrip.com/ 200 0 0 93
2015-10-29 22:37:50 172.31.23.171 GET /Trip/TermsConditions - 80 - 104.131.218.28 Mozilla/5.0+(compatible;+spbot/4.4.2;++http://OpenLinkProfiler.org/bot+) http://www.1eztrip.com/ 200 0 0 125
2015-10-29 22:41:48 172.31.23.171 GET / - 80 - 40.76.80.177 python-requests/2.5.1+CPython/2.7.6+Windows/2008ServerR2 - 200 0 0 187
2015-10-29 22:51:41 172.31.23.171 GET / - 80 - 180.76.15.142 Mozilla/5.0+(compatible;+Baiduspider/2.0;++http://www.baidu.com/search/spider.html) - 200 0 64 234
2015-10-29 22:52:38 172.31.23.171 GET / - 80 - 180.76.15.149 Mozilla/5.0+(compatible;+Baiduspider/2.0;++http://www.baidu.com/search/spider.html) - 200 0 64 234
