#Software: Microsoft Internet Information Services 8.5
#Version: 1.0
#Date: 2016-06-22 00:07:12
#Fields: date time s-ip cs-method cs-uri-stem cs-uri-query s-port cs-username c-ip cs(User-Agent) cs(Referer) sc-status sc-substatus sc-win32-status time-taken
2016-06-22 00:07:12 172.31.23.171 GET /Trip/ViewMyProfile - 80 - 180.76.15.5 Mozilla/5.0+(compatible;+Baiduspider/2.0;++http://www.baidu.com/search/spider.html) - 302 0 0 1265
2016-06-22 00:07:13 172.31.23.171 GET /robots.txt - 80 - 180.76.15.21 Mozilla/5.0+(Windows+NT+5.1;+rv:6.0.2)+Gecko/20100101+Firefox/6.0.2 - 404 0 2 609
2016-06-22 00:07:17 172.31.23.171 GET /Trip/Index - 80 - 180.76.15.29 Mozilla/5.0+(compatible;+Baiduspider/2.0;++http://www.baidu.com/search/spider.html) - 200 0 0 4625
2016-06-22 00:07:48 172.31.23.171 GET /hndUnblock.cgi - 80 - 187.245.125.68 Wget(linux) - 404 0 2 109
2016-06-22 00:07:48 172.31.23.171 GET /tmUnblock.cgi - 80 - 187.245.125.68 Wget(linux) - 404 0 2 124
#Software: Microsoft Internet Information Services 8.5
#Version: 1.0
#Date: 2016-06-22 00:32:07
#Fields: date time s-ip cs-method cs-uri-stem cs-uri-query s-port cs-username c-ip cs(User-Agent) cs(Referer) sc-status sc-substatus sc-win32-status time-taken
2016-06-22 00:32:07 172.31.23.171 GET /robots.txt - 80 - 157.55.39.195 Mozilla/5.0+(compatible;+bingbot/2.0;++http://www.bing.com/bingbot.htm) - 404 0 2 62
2016-06-22 00:36:27 172.31.23.171 GET / - 80 - 184.191.33.203 Go+http+package - 200 0 0 5578
2016-06-22 00:40:08 172.31.23.171 GET / - 443 - 54.191.147.144 Mozilla/5.0+(Macintosh;+Intel+Mac+OS+X+10_11_5)+AppleWebKit/537.36+(KHTML,+like+Gecko)+Chrome/50.0.2661.102+Safari/537.36 - 200 0 0 359
2016-06-22 00:42:17 172.31.23.171 GET / - 80 - 180.76.15.158 Mozilla/5.0+(compatible;+Baiduspider/2.0;++http://www.baidu.com/search/spider.html) - 200 0 64 156
2016-06-22 00:43:25 172.31.23.171 GET / - 80 - 180.76.15.21 Mozilla/5.0+(compatible;+Baiduspider/2.0;++http://www.baidu.com/search/spider.html) - 200 0 64 171
#Software: Microsoft Internet Information Services 8.5
#Version: 1.0
#Date: 2016-06-22 01:24:18
#Fields: date time s-ip cs-method cs-uri-stem cs-uri-query s-port cs-username c-ip cs(User-Agent) cs(Referer) sc-status sc-substatus sc-win32-status time-taken
2016-06-22 01:24:18 172.31.23.171 POST /azenv.php auth=146655865089&a=PSCMN&i=873126066&p=80 80 - 95.213.177.125 Mozilla/4.0+(compatible;+MSIE+8.0;+Windows+NT+5.1;+Trident/4.0) https://proxyradar.com/ 404 0 2 265
2016-06-22 01:36:33 172.31.23.171 GET / - 80 - 180.76.15.9 Mozilla/5.0+(compatible;+Baiduspider/2.0;++http://www.baidu.com/search/spider.html) - 200 0 64 5453
2016-06-22 01:37:21 172.31.23.171 GET / - 80 - 180.76.15.12 Mozilla/5.0+(compatible;+Baiduspider/2.0;++http://www.baidu.com/search/spider.html) - 200 0 64 187
2016-06-22 01:52:31 172.31.23.171 POST /Trip/QueryStringValues - 80 - 66.249.79.136 Mozilla/5.0+(compatible;+Googlebot/2.1;++http://www.google.com/bot.html) http://www.1eztrip.com/ 200 0 0 78
#Software: Microsoft Internet Information Services 8.5
#Version: 1.0
#Date: 2016-06-22 02:15:16
#Fields: date time s-ip cs-method cs-uri-stem cs-uri-query s-port cs-username c-ip cs(User-Agent) cs(Referer) sc-status sc-substatus sc-win32-status time-taken
2016-06-22 02:15:16 172.31.23.171 GET /robots.txt - 80 - 46.119.112.23 Mozilla/5.0+(Windows+NT+10.0;+WOW64)+AppleWebKit/537.36+(KHTML,+like+Gecko)+Chrome/49.0.2623.75+Safari/537.36+OPR/36.0.2130.32 - 404 0 2 265
2016-06-22 02:15:24 172.31.23.171 GET / - 80 - 46.119.112.23 Mozilla/5.0+(Windows+NT+10.0;+WOW64)+AppleWebKit/537.36+(KHTML,+like+Gecko)+Chrome/49.0.2623.75+Safari/537.36+OPR/36.0.2130.32 - 200 0 0 7765
2016-06-22 02:15:24 172.31.23.171 GET /xmlrpc.php rsd 80 - 46.119.112.23 Mozilla/5.0+(Windows+NT+10.0;+WOW64)+AppleWebKit/537.36+(KHTML,+like+Gecko)+Chrome/49.0.2623.75+Safari/537.36+OPR/36.0.2130.32 - 404 0 2 218
2016-06-22 02:15:24 172.31.23.171 GET /blog/robots.txt - 80 - 46.119.112.23 Mozilla/5.0+(Windows+NT+10.0;+WOW64)+AppleWebKit/537.36+(KHTML,+like+Gecko)+Chrome/49.0.2623.75+Safari/537.36+OPR/36.0.2130.32 - 404 0 2 218
2016-06-22 02:15:24 172.31.23.171 GET /blog/ - 80 - 46.119.112.23 Mozilla/5.0+(Windows+NT+10.0;+WOW64)+AppleWebKit/537.36+(KHTML,+like+Gecko)+Chrome/49.0.2623.75+Safari/537.36+OPR/36.0.2130.32 - 404 0 0 234
2016-06-22 02:15:24 172.31.23.171 GET /wordpress/ - 80 - 46.119.112.23 Mozilla/5.0+(Windows+NT+10.0;+WOW64)+AppleWebKit/537.36+(KHTML,+like+Gecko)+Chrome/49.0.2623.75+Safari/537.36+OPR/36.0.2130.32 - 404 0 0 203
2016-06-22 02:15:25 172.31.23.171 GET /wp/ - 80 - 46.119.112.23 Mozilla/5.0+(Windows+NT+10.0;+WOW64)+AppleWebKit/537.36+(KHTML,+like+Gecko)+Chrome/49.0.2623.75+Safari/537.36+OPR/36.0.2130.32 - 404 0 0 234
#Software: Microsoft Internet Information Services 8.5
#Version: 1.0
#Date: 2016-06-22 02:35:23
#Fields: date time s-ip cs-method cs-uri-stem cs-uri-query s-port cs-username c-ip cs(User-Agent) cs(Referer) sc-status sc-substatus sc-win32-status time-taken
2016-06-22 02:35:23 172.31.23.171 GET /Scripts/js/common.js - 80 - 66.249.79.159 Mozilla/5.0+(compatible;+Googlebot/2.1;++http://www.google.com/bot.html) - 200 0 0 15
2016-06-22 02:35:23 172.31.23.171 GET /Scripts/js/html5.js - 80 - 66.249.79.159 Mozilla/5.0+(compatible;+Googlebot/2.1;++http://www.google.com/bot.html) - 200 0 0 15
2016-06-22 02:39:42 172.31.23.171 GET / - 80 - 180.76.15.158 Mozilla/5.0+(compatible;+Baiduspider/2.0;++http://www.baidu.com/search/spider.html) - 200 0 64 187
2016-06-22 02:40:45 172.31.23.171 GET / - 80 - 180.76.15.9 Mozilla/5.0+(compatible;+Baiduspider/2.0;++http://www.baidu.com/search/spider.html) - 200 0 64 171
2016-06-22 02:55:56 172.31.23.171 GET /robots.txt - 80 - 40.77.167.80 Mozilla/5.0+(compatible;+bingbot/2.0;++http://www.bing.com/bingbot.htm) - 404 0 2 78
2016-06-22 02:55:59 172.31.23.171 GET /Trip/ContactUs - 80 - 40.77.167.80 Mozilla/5.0+(compatible;+bingbot/2.0;++http://www.bing.com/bingbot.htm) - 200 0 0 156
2016-06-22 02:55:59 172.31.23.171 GET /Trip/Faq - 80 - 40.77.167.80 Mozilla/5.0+(compatible;+bingbot/2.0;++http://www.bing.com/bingbot.htm) - 200 0 0 93
2016-06-22 02:56:19 172.31.23.171 GET / - 80 - 157.55.39.195 Mozilla/5.0+(compatible;+bingbot/2.0;++http://www.bing.com/bingbot.htm) - 200 0 0 46
2016-06-22 02:56:45 172.31.23.171 GET / - 80 - 157.55.39.195 Mozilla/5.0+(compatible;+bingbot/2.0;++http://www.bing.com/bingbot.htm) - 200 0 0 31
2016-06-22 02:56:45 172.31.23.171 GET /Trip/AboutUs - 80 - 157.55.39.195 Mozilla/5.0+(compatible;+bingbot/2.0;++http://www.bing.com/bingbot.htm) - 200 0 0 31
2016-06-22 03:08:43 172.31.23.171 GET /bundles/IndexCss - 80 - 66.249.79.171 Mozilla/5.0+(Linux;+Android+6.0.1;+Nexus+5X+Build/MMB29P)+AppleWebKit/537.36+(KHTML,+like+Gecko)+Chrome/41.0.2272.96+Mobile+Safari/537.36+(compatible;+Googlebot/2.1;++http://www.google.com/bot.html) - 200 0 0 296
2016-06-22 03:11:09 172.31.23.171 POST /Trip/QueryStringValues - 80 - 66.249.79.185 Mozilla/5.0+(compatible;+Googlebot/2.1;++http://www.google.com/bot.html) http://1eztrip.com/ 200 0 0 78
#Software: Microsoft Internet Information Services 8.5
#Version: 1.0
#Date: 2016-06-22 03:34:31
#Fields: date time s-ip cs-method cs-uri-stem cs-uri-query s-port cs-username c-ip cs(User-Agent) cs(Referer) sc-status sc-substatus sc-win32-status time-taken
2016-06-22 03:34:31 172.31.23.171 GET /robots.txt - 80 - 64.246.165.200 Mozilla/5.0+(Windows;+U;+Windows+NT+5.1;+en;+rv:1.9.0.13)+Gecko/2009073022+Firefox/3.5.2+(.NET+CLR+3.5.30729)+SurveyBot/2.3+(DomainTools) - 404 0 2 46
2016-06-22 03:34:37 172.31.23.171 GET / - 80 - 64.246.165.200 Mozilla/5.0+(Windows;+U;+Windows+NT+5.1;+en;+rv:1.9.0.13)+Gecko/2009073022+Firefox/3.5.2+(.NET+CLR+3.5.30729)+SurveyBot/2.3+(DomainTools) http://whois.domaintools.com/1eztrip.com 200 0 0 5281
2016-06-22 03:40:01 172.31.23.171 GET / - 80 - 180.76.15.9 Mozilla/5.0+(compatible;+Baiduspider/2.0;++http://www.baidu.com/search/spider.html) - 200 0 64 171
2016-06-22 03:41:03 172.31.23.171 GET / - 80 - 180.76.15.8 Mozilla/5.0+(compatible;+Baiduspider/2.0;++http://www.baidu.com/search/spider.html) - 200 0 64 187
#Software: Microsoft Internet Information Services 8.5
#Version: 1.0
#Date: 2016-06-22 04:25:56
#Fields: date time s-ip cs-method cs-uri-stem cs-uri-query s-port cs-username c-ip cs(User-Agent) cs(Referer) sc-status sc-substatus sc-win32-status time-taken
2016-06-22 04:25:56 172.31.23.171 GET /robots.txt - 80 - 138.201.125.143 Mozilla/5.0+(compatible;+MJ12bot/v1.4.5;+http://www.majestic12.co.uk/bot.php?+) - 404 0 2 203
2016-06-22 04:25:59 172.31.23.171 GET /Trip/AboutUs - 80 - 138.201.125.143 Mozilla/5.0+(compatible;+MJ12bot/v1.4.5;+http://www.majestic12.co.uk/bot.php?+) - 200 0 0 1328
2016-06-22 04:26:01 172.31.23.171 GET /Trip/ContactUs - 80 - 138.201.125.143 Mozilla/5.0+(compatible;+MJ12bot/v1.4.5;+http://www.majestic12.co.uk/bot.php?+) - 200 0 0 640
2016-06-22 04:26:03 172.31.23.171 GET /Trip/Disclaimer - 80 - 138.201.125.143 Mozilla/5.0+(compatible;+MJ12bot/v1.4.5;+http://www.majestic12.co.uk/bot.php?+) - 200 0 0 328
2016-06-22 04:26:05 172.31.23.171 GET /Trip/Faq - 80 - 138.201.125.143 Mozilla/5.0+(compatible;+MJ12bot/v1.4.5;+http://www.majestic12.co.uk/bot.php?+) - 200 0 0 328
2016-06-22 04:26:11 172.31.23.171 GET /Trip/MyTrips - 80 - 138.201.125.143 Mozilla/5.0+(compatible;+MJ12bot/v1.4.5;+http://www.majestic12.co.uk/bot.php?+) - 302 0 0 171
2016-06-22 04:26:17 172.31.23.171 GET /Trip/Index - 80 - 138.201.125.143 Mozilla/5.0+(compatible;+MJ12bot/v1.4.5;+http://www.majestic12.co.uk/bot.php?+) - 200 0 0 4656
#Software: Microsoft Internet Information Services 8.5
#Version: 1.0
#Date: 2016-06-22 04:43:00
#Fields: date time s-ip cs-method cs-uri-stem cs-uri-query s-port cs-username c-ip cs(User-Agent) cs(Referer) sc-status sc-substatus sc-win32-status time-taken
2016-06-22 04:43:00 172.31.23.171 GET / - 80 - 180.76.15.157 Mozilla/5.0+(compatible;+Baiduspider/2.0;++http://www.baidu.com/search/spider.html) - 200 0 64 171
2016-06-22 04:44:08 172.31.23.171 GET / - 80 - 180.76.15.16 Mozilla/5.0+(compatible;+Baiduspider/2.0;++http://www.baidu.com/search/spider.html) - 200 0 64 187
2016-06-22 04:54:50 172.31.23.171 GET /phpmyadmin - 80 - 211.140.169.244 Mozilla/4.0+(compatible;+MSIE+9.0;+Windows+NT+6.1) http://52.10.216.178/phpmyadmin 404 0 0 234
2016-06-22 05:06:52 172.31.23.171 GET /robots.txt - 80 - 46.229.164.100 Mozilla/5.0+(compatible;+SemrushBot/1.1~bl;++http://www.semrush.com/bot.html) - 404 0 2 93
#Software: Microsoft Internet Information Services 8.5
#Version: 1.0
#Date: 2016-06-22 05:33:58
#Fields: date time s-ip cs-method cs-uri-stem cs-uri-query s-port cs-username c-ip cs(User-Agent) cs(Referer) sc-status sc-substatus sc-win32-status time-taken
2016-06-22 05:33:58 172.31.23.171 GET / - 80 - 207.46.13.141 Mozilla/5.0+(compatible;+bingbot/2.0;++http://www.bing.com/bingbot.htm) - 200 0 0 5406
2016-06-22 05:36:34 172.31.23.171 GET / - 80 - 180.76.15.17 Mozilla/5.0+(compatible;+Baiduspider/2.0;++http://www.baidu.com/search/spider.html) - 200 0 64 156
2016-06-22 05:37:26 172.31.23.171 GET / - 80 - 180.76.15.143 Mozilla/5.0+(compatible;+Baiduspider/2.0;++http://www.baidu.com/search/spider.html) - 200 0 64 156
#Software: Microsoft Internet Information Services 8.5
#Version: 1.0
#Date: 2016-06-22 06:42:04
#Fields: date time s-ip cs-method cs-uri-stem cs-uri-query s-port cs-username c-ip cs(User-Agent) cs(Referer) sc-status sc-substatus sc-win32-status time-taken
2016-06-22 06:42:04 172.31.23.171 GET / - 80 - 180.76.15.158 Mozilla/5.0+(compatible;+Baiduspider/2.0;++http://www.baidu.com/search/spider.html) - 200 0 64 5484
2016-06-22 06:43:08 172.31.23.171 GET / - 80 - 180.76.15.32 Mozilla/5.0+(compatible;+Baiduspider/2.0;++http://www.baidu.com/search/spider.html) - 200 0 64 156
#Software: Microsoft Internet Information Services 8.5
#Version: 1.0
#Date: 2016-06-22 07:33:24
#Fields: date time s-ip cs-method cs-uri-stem cs-uri-query s-port cs-username c-ip cs(User-Agent) cs(Referer) sc-status sc-substatus sc-win32-status time-taken
2016-06-22 07:33:24 172.31.23.171 GET /testproxy.php - 80 - 185.25.148.240 Mozilla/5.0+(Windows+NT+5.1;+rv:32.0)+Gecko/20100101+Firefox/31.0 - 404 0 2 234
2016-06-22 07:38:22 172.31.23.171 GET / - 80 - 180.76.15.25 Mozilla/5.0+(compatible;+Baiduspider/2.0;++http://www.baidu.com/search/spider.html) - 200 0 64 5500
2016-06-22 07:39:13 172.31.23.171 GET / - 80 - 180.76.15.23 Mozilla/5.0+(compatible;+Baiduspider/2.0;++http://www.baidu.com/search/spider.html) - 200 0 64 203
#Software: Microsoft Internet Information Services 8.5
#Version: 1.0
#Date: 2016-06-22 08:19:57
#Fields: date time s-ip cs-method cs-uri-stem cs-uri-query s-port cs-username c-ip cs(User-Agent) cs(Referer) sc-status sc-substatus sc-win32-status time-taken
2016-06-22 08:19:57 172.31.23.171 GET / - 80 - 207.46.13.141 Mozilla/5.0+(compatible;+bingbot/2.0;++http://www.bing.com/bingbot.htm) - 200 0 0 5281
#Software: Microsoft Internet Information Services 8.5
#Version: 1.0
#Date: 2016-06-22 08:40:29
#Fields: date time s-ip cs-method cs-uri-stem cs-uri-query s-port cs-username c-ip cs(User-Agent) cs(Referer) sc-status sc-substatus sc-win32-status time-taken
2016-06-22 08:40:29 172.31.23.171 GET / - 80 - 180.76.15.154 Mozilla/5.0+(compatible;+Baiduspider/2.0;++http://www.baidu.com/search/spider.html) - 200 0 64 187
2016-06-22 08:41:32 172.31.23.171 GET / - 80 - 180.76.15.31 Mozilla/5.0+(compatible;+Baiduspider/2.0;++http://www.baidu.com/search/spider.html) - 200 0 64 171
2016-06-22 08:44:04 172.31.23.171 GET / - 443 - 216.218.206.67 - - 200 0 0 171
2016-06-22 08:57:39 172.31.23.171 GET / - 443 - 216.218.206.67 - - 200 0 0 109
#Software: Microsoft Internet Information Services 8.5
#Version: 1.0
#Date: 2016-06-22 09:38:42
#Fields: date time s-ip cs-method cs-uri-stem cs-uri-query s-port cs-username c-ip cs(User-Agent) cs(Referer) sc-status sc-substatus sc-win32-status time-taken
2016-06-22 09:38:42 172.31.23.171 GET / - 80 - 180.76.15.11 Mozilla/5.0+(compatible;+Baiduspider/2.0;++http://www.baidu.com/search/spider.html) - 200 0 64 5531
2016-06-22 09:39:36 172.31.23.171 GET / - 80 - 180.76.15.159 Mozilla/5.0+(compatible;+Baiduspider/2.0;++http://www.baidu.com/search/spider.html) - 200 0 64 171
#Software: Microsoft Internet Information Services 8.5
#Version: 1.0
#Date: 2016-06-22 10:41:02
#Fields: date time s-ip cs-method cs-uri-stem cs-uri-query s-port cs-username c-ip cs(User-Agent) cs(Referer) sc-status sc-substatus sc-win32-status time-taken
2016-06-22 10:41:02 172.31.23.171 GET / - 80 - 180.76.15.31 Mozilla/5.0+(compatible;+Baiduspider/2.0;++http://www.baidu.com/search/spider.html) - 200 0 64 5593
2016-06-22 10:42:03 172.31.23.171 GET / - 80 - 180.76.15.151 Mozilla/5.0+(compatible;+Baiduspider/2.0;++http://www.baidu.com/search/spider.html) - 200 0 64 171
#Software: Microsoft Internet Information Services 8.5
#Version: 1.0
#Date: 2016-06-22 11:38:20
#Fields: date time s-ip cs-method cs-uri-stem cs-uri-query s-port cs-username c-ip cs(User-Agent) cs(Referer) sc-status sc-substatus sc-win32-status time-taken
2016-06-22 11:38:20 172.31.23.171 GET / - 80 - 180.76.15.26 Mozilla/5.0+(compatible;+Baiduspider/2.0;++http://www.baidu.com/search/spider.html) - 200 0 64 5687
2016-06-22 11:39:13 172.31.23.171 GET / - 80 - 180.76.15.27 Mozilla/5.0+(compatible;+Baiduspider/2.0;++http://www.baidu.com/search/spider.html) - 200 0 64 171
2016-06-22 11:42:47 172.31.23.171 GET /robots.txt - 80 - 199.21.99.205 Mozilla/5.0+(compatible;+YandexBot/3.0;++http://yandex.com/bots) - 404 0 2 93
2016-06-22 11:42:49 172.31.23.171 GET /Content/images/AppImages/home-banner1.jpg - 80 - 199.21.99.205 Mozilla/5.0+(compatible;+YandexImages/3.0;++http://yandex.com/bots) - 200 0 0 406
#Software: Microsoft Internet Information Services 8.5
#Version: 1.0
#Date: 2016-06-22 12:03:57
#Fields: date time s-ip cs-method cs-uri-stem cs-uri-query s-port cs-username c-ip cs(User-Agent) cs(Referer) sc-status sc-substatus sc-win32-status time-taken
2016-06-22 12:03:57 172.31.23.171 GET /robots.txt - 80 - 157.55.39.195 Mozilla/5.0+(compatible;+bingbot/2.0;++http://www.bing.com/bingbot.htm) - 404 0 2 62
2016-06-22 12:04:10 172.31.23.171 GET / - 80 - 157.55.39.195 Mozilla/5.0+(compatible;+bingbot/2.0;++http://www.bing.com/bingbot.htm) - 200 0 0 5359
#Software: Microsoft Internet Information Services 8.5
#Version: 1.0
#Date: 2016-06-22 12:34:21
#Fields: date time s-ip cs-method cs-uri-stem cs-uri-query s-port cs-username c-ip cs(User-Agent) cs(Referer) sc-status sc-substatus sc-win32-status time-taken
2016-06-22 12:34:21 172.31.23.171 GET / - 80 - 157.55.39.195 Mozilla/5.0+(compatible;+bingbot/2.0;++http://www.bing.com/bingbot.htm) - 200 0 0 5343
2016-06-22 12:41:25 172.31.23.171 GET /CFIDE/h.cfm - 443 - 190.10.8.128 Mozilla/5.0+(Windows+NT+6.2;+Win64;+x64;+rv:45.0)+Gecko/20100101+Firefox/45.0 - 404 0 2 156
2016-06-22 12:41:25 172.31.23.171 GET /CFIDE/updates.cfm - 443 - 190.10.8.128 Mozilla/5.0+(Windows+NT+6.2;+Win64;+x64;+rv:45.0)+Gecko/20100101+Firefox/45.0 - 404 0 2 156
2016-06-22 12:41:27 172.31.23.171 GET /CFIDE/sysinfo.cfm - 443 - 190.10.8.128 Mozilla/5.0+(Windows+NT+6.2;+Win64;+x64;+rv:45.0)+Gecko/20100101+Firefox/45.0 - 404 0 2 156
2016-06-22 12:41:27 172.31.23.171 GET /CFIDE/administrator/index.cfm - 443 - 190.10.8.128 Mozilla/5.0+(Windows+NT+6.2;+Win64;+x64;+rv:45.0)+Gecko/20100101+Firefox/45.0 - 404 0 2 156
2016-06-22 12:41:28 172.31.23.171 GET /jmx-console/ - 443 - 190.10.8.128 Mozilla/5.0+(Windows+NT+6.2;+Win64;+x64;+rv:45.0)+Gecko/20100101+Firefox/45.0 - 404 0 0 156
2016-06-22 12:41:28 172.31.23.171 GET /manager/html - 443 - 190.10.8.128 Mozilla/5.0+(Windows+NT+6.2;+Win64;+x64;+rv:45.0)+Gecko/20100101+Firefox/45.0 - 404 0 0 140
2016-06-22 12:41:29 172.31.23.171 GET /plugins/weathermap/editor.php - 443 - 190.10.8.128 Mozilla/5.0+(Windows+NT+6.2;+Win64;+x64;+rv:45.0)+Gecko/20100101+Firefox/45.0 - 404 0 2 140
2016-06-22 12:41:29 172.31.23.171 GET /cacti/plugins/weathermap/editor.php - 443 - 190.10.8.128 Mozilla/5.0+(Windows+NT+6.2;+Win64;+x64;+rv:45.0)+Gecko/20100101+Firefox/45.0 - 404 0 2 140
2016-06-22 12:41:31 172.31.23.171 GET / - 443 - 190.10.8.128 Mozilla/5.0+(Windows+NT+6.2;+Win64;+x64;+rv:45.0)+Gecko/20100101+Firefox/45.0 - 200 0 0 609
2016-06-22 12:41:31 172.31.23.171 GET /CHANGELOG.txt - 443 - 190.10.8.128 Mozilla/5.0+(Windows+NT+6.2;+Win64;+x64;+rv:45.0)+Gecko/20100101+Firefox/45.0 - 404 0 2 140
2016-06-22 12:41:33 172.31.23.171 GET / q=node&destination=node 443 - 190.10.8.128 Mozilla/5.0+(Windows+NT+6.2;+Win64;+x64;+rv:45.0)+Gecko/20100101+Firefox/45.0 - 200 0 0 593
2016-06-22 12:41:33 172.31.23.171 GET /user/login - 443 - 190.10.8.128 Mozilla/5.0+(Windows+NT+6.2;+Win64;+x64;+rv:45.0)+Gecko/20100101+Firefox/45.0 - 404 0 0 140
2016-06-22 12:44:19 172.31.23.171 GET / - 80 - 180.76.15.33 Mozilla/5.0+(compatible;+Baiduspider/2.0;++http://www.baidu.com/search/spider.html) - 200 0 64 187
2016-06-22 12:45:34 172.31.23.171 GET / - 80 - 180.76.15.148 Mozilla/5.0+(compatible;+Baiduspider/2.0;++http://www.baidu.com/search/spider.html) - 200 0 64 171
2016-06-22 12:48:36 172.31.23.171 GET /CFIDE/h.cfm - 443 - 190.10.8.128 Mozilla/5.0+(Windows+NT+6.2;+Win64;+x64;+rv:45.0)+Gecko/20100101+Firefox/45.0 - 404 0 2 140
2016-06-22 12:48:36 172.31.23.171 GET /CFIDE/updates.cfm - 443 - 190.10.8.128 Mozilla/5.0+(Windows+NT+6.2;+Win64;+x64;+rv:45.0)+Gecko/20100101+Firefox/45.0 - 404 0 2 140
2016-06-22 12:48:38 172.31.23.171 GET /CFIDE/sysinfo.cfm - 443 - 190.10.8.128 Mozilla/5.0+(Windows+NT+6.2;+Win64;+x64;+rv:45.0)+Gecko/20100101+Firefox/45.0 - 404 0 2 140
2016-06-22 12:48:38 172.31.23.171 GET /CFIDE/administrator/index.cfm - 443 - 190.10.8.128 Mozilla/5.0+(Windows+NT+6.2;+Win64;+x64;+rv:45.0)+Gecko/20100101+Firefox/45.0 - 404 0 2 156
2016-06-22 12:48:39 172.31.23.171 GET /jmx-console/ - 443 - 190.10.8.128 Mozilla/5.0+(Windows+NT+6.2;+Win64;+x64;+rv:45.0)+Gecko/20100101+Firefox/45.0 - 404 0 0 140
2016-06-22 12:48:39 172.31.23.171 GET /manager/html - 443 - 190.10.8.128 Mozilla/5.0+(Windows+NT+6.2;+Win64;+x64;+rv:45.0)+Gecko/20100101+Firefox/45.0 - 404 0 0 140
2016-06-22 12:48:40 172.31.23.171 GET /plugins/weathermap/editor.php - 443 - 190.10.8.128 Mozilla/5.0+(Windows+NT+6.2;+Win64;+x64;+rv:45.0)+Gecko/20100101+Firefox/45.0 - 404 0 2 156
2016-06-22 12:48:40 172.31.23.171 GET /cacti/plugins/weathermap/editor.php - 443 - 190.10.8.128 Mozilla/5.0+(Windows+NT+6.2;+Win64;+x64;+rv:45.0)+Gecko/20100101+Firefox/45.0 - 404 0 2 156
2016-06-22 12:48:42 172.31.23.171 GET / - 443 - 190.10.8.128 Mozilla/5.0+(Windows+NT+6.2;+Win64;+x64;+rv:45.0)+Gecko/20100101+Firefox/45.0 - 200 0 0 593
2016-06-22 12:48:42 172.31.23.171 GET /CHANGELOG.txt - 443 - 190.10.8.128 Mozilla/5.0+(Windows+NT+6.2;+Win64;+x64;+rv:45.0)+Gecko/20100101+Firefox/45.0 - 404 0 2 156
2016-06-22 12:48:43 172.31.23.171 GET / q=node&destination=node 443 - 190.10.8.128 Mozilla/5.0+(Windows+NT+6.2;+Win64;+x64;+rv:45.0)+Gecko/20100101+Firefox/45.0 - 200 0 0 578
2016-06-22 12:48:43 172.31.23.171 GET /user/login - 443 - 190.10.8.128 Mozilla/5.0+(Windows+NT+6.2;+Win64;+x64;+rv:45.0)+Gecko/20100101+Firefox/45.0 - 404 0 0 156
2016-06-22 13:04:41 172.31.23.171 GET /robots.txt - 443 - 66.249.79.162 Mozilla/5.0+(compatible;+Googlebot/2.1;++http://www.google.com/bot.html) - 404 0 2 15
2016-06-22 13:04:41 172.31.23.171 GET /.well-known/assetlinks.json - 443 - 66.249.79.169 Mozilla/5.0+(compatible;+Googlebot/2.1;++http://www.google.com/bot.html) - 404 0 2 15
2016-06-22 13:04:41 172.31.23.171 GET /robots.txt - 443 - 66.249.66.170 Mozilla/5.0+(compatible;+Googlebot/2.1;++http://www.google.com/bot.html) - 404 0 2 62
2016-06-22 13:04:41 172.31.23.171 GET /.well-known/assetlinks.json - 443 - 66.249.66.163 Mozilla/5.0+(compatible;+Googlebot/2.1;++http://www.google.com/bot.html) - 404 0 2 78
2016-06-22 13:13:36 172.31.23.171 GET / - 80 - 167.114.233.118 Mozilla/5.0+(Windows+NT+10.0;+Win64;+x64;+rv:45.0)+Gecko/20100101+Firefox/45.0 - 200 0 0 953
#Software: Microsoft Internet Information Services 8.5
#Version: 1.0
#Date: 2016-06-22 13:36:05
#Fields: date time s-ip cs-method cs-uri-stem cs-uri-query s-port cs-username c-ip cs(User-Agent) cs(Referer) sc-status sc-substatus sc-win32-status time-taken
2016-06-22 13:36:05 172.31.23.171 GET / - 80 - 180.76.15.27 Mozilla/5.0+(compatible;+Baiduspider/2.0;++http://www.baidu.com/search/spider.html) - 200 0 64 5484
2016-06-22 13:36:55 172.31.23.171 GET / - 80 - 180.76.15.145 Mozilla/5.0+(compatible;+Baiduspider/2.0;++http://www.baidu.com/search/spider.html) - 200 0 64 156
#Software: Microsoft Internet Information Services 8.5
#Version: 1.0
#Date: 2016-06-22 14:39:36
#Fields: date time s-ip cs-method cs-uri-stem cs-uri-query s-port cs-username c-ip cs(User-Agent) cs(Referer) sc-status sc-substatus sc-win32-status time-taken
2016-06-22 14:39:36 172.31.23.171 GET / - 80 - 180.76.15.23 Mozilla/5.0+(compatible;+Baiduspider/2.0;++http://www.baidu.com/search/spider.html) - 200 0 64 5453
2016-06-22 14:40:33 172.31.23.171 GET / - 80 - 180.76.15.16 Mozilla/5.0+(compatible;+Baiduspider/2.0;++http://www.baidu.com/search/spider.html) - 200 0 64 171
#Software: Microsoft Internet Information Services 8.5
#Version: 1.0
#Date: 2016-06-22 15:21:36
#Fields: date time s-ip cs-method cs-uri-stem cs-uri-query s-port cs-username c-ip cs(User-Agent) cs(Referer) sc-status sc-substatus sc-win32-status time-taken
2016-06-22 15:21:36 172.31.23.171 GET /Trip/AboutUs - 80 - 192.243.55.131 Mozilla/5.0+(compatible;+SemrushBot/1.1~bl;++http://www.semrush.com/bot.html) - 200 0 0 1796
2016-06-22 15:22:18 172.31.23.171 GET /Trip/Index - 80 - 192.243.55.135 Mozilla/5.0+(compatible;+SemrushBot/1.1~bl;++http://www.semrush.com/bot.html) - 200 0 0 17437
2016-06-22 15:23:13 172.31.23.171 GET /Trip/Help - 80 - 192.243.55.138 Mozilla/5.0+(compatible;+SemrushBot/1.1~bl;++http://www.semrush.com/bot.html) - 200 0 0 156
2016-06-22 15:25:19 172.31.23.171 GET /Trip/ViewMyProfile - 80 - 192.243.55.130 Mozilla/5.0+(compatible;+SemrushBot/1.1~bl;++http://www.semrush.com/bot.html) - 302 0 0 468
2016-06-22 15:26:18 172.31.23.171 GET / - 80 - 192.243.55.133 Mozilla/5.0+(compatible;+SemrushBot/1.1~bl;++http://www.semrush.com/bot.html) - 200 0 0 2499
2016-06-22 15:27:12 172.31.23.171 GET /Trip/TermsConditions - 80 - 192.243.55.129 Mozilla/5.0+(compatible;+SemrushBot/1.1~bl;++http://www.semrush.com/bot.html) - 200 0 0 249
2016-06-22 15:38:54 172.31.23.171 GET / - 80 - 180.76.15.162 Mozilla/5.0+(compatible;+Baiduspider/2.0;++http://www.baidu.com/search/spider.html) - 200 0 64 203
2016-06-22 15:39:57 172.31.23.171 GET / - 80 - 180.76.15.154 Mozilla/5.0+(compatible;+Baiduspider/2.0;++http://www.baidu.com/search/spider.html) - 200 0 64 171
2016-06-22 15:46:59 172.31.23.171 GET / - 80 - 141.212.122.193 Go+http+package - 200 0 0 140
#Software: Microsoft Internet Information Services 8.5
#Version: 1.0
#Date: 2016-06-22 16:44:17
#Fields: date time s-ip cs-method cs-uri-stem cs-uri-query s-port cs-username c-ip cs(User-Agent) cs(Referer) sc-status sc-substatus sc-win32-status time-taken
2016-06-22 16:44:17 172.31.23.171 GET / - 80 - 180.76.15.12 Mozilla/5.0+(compatible;+Baiduspider/2.0;++http://www.baidu.com/search/spider.html) - 200 0 64 5515
2016-06-22 16:45:24 172.31.23.171 GET / - 80 - 180.76.15.28 Mozilla/5.0+(compatible;+Baiduspider/2.0;++http://www.baidu.com/search/spider.html) - 200 0 64 171
2016-06-22 16:55:21 172.31.23.171 HEAD /index.php - 443 - 37.123.97.16 python-requests/2.10.0 - 404 0 2 203
2016-06-22 16:58:26 172.31.23.171 GET /Trip/Disclaimer - 80 - 157.55.39.12 Mozilla/5.0+(compatible;+bingbot/2.0;++http://www.bing.com/bingbot.htm) - 200 0 0 31
2016-06-22 16:59:57 172.31.23.171 GET / - 80 - 207.46.13.141 Mozilla/5.0+(compatible;+bingbot/2.0;++http://www.bing.com/bingbot.htm) - 200 0 0 62
2016-06-22 17:02:31 172.31.23.171 GET /robots.txt - 80 - 46.229.164.100 Mozilla/5.0+(compatible;+SemrushBot/1.1~bl;++http://www.semrush.com/bot.html) - 404 0 2 93
2016-06-22 17:05:31 172.31.23.171 GET /Trip/Privacy - 80 - 157.55.39.195 Mozilla/5.0+(compatible;+bingbot/2.0;++http://www.bing.com/bingbot.htm) - 200 0 0 31
2016-06-22 17:05:31 172.31.23.171 GET /Trip/ViewMyProfile - 80 - 157.55.39.195 Mozilla/5.0+(compatible;+bingbot/2.0;++http://www.bing.com/bingbot.htm) - 302 0 0 15
2016-06-22 17:05:31 172.31.23.171 GET / - 80 - 157.55.39.195 Mozilla/5.0+(compatible;+bingbot/2.0;++http://www.bing.com/bingbot.htm) - 200 0 0 46
2016-06-22 17:05:31 172.31.23.171 GET /Trip/AboutUs - 80 - 157.55.39.195 Mozilla/5.0+(compatible;+bingbot/2.0;++http://www.bing.com/bingbot.htm) - 200 0 0 15
2016-06-22 17:05:31 172.31.23.171 GET /Trip/Disclaimer - 80 - 157.55.39.195 Mozilla/5.0+(compatible;+bingbot/2.0;++http://www.bing.com/bingbot.htm) - 200 0 0 15
2016-06-22 17:05:36 172.31.23.171 GET /Trip/MyTrips - 80 - 40.77.167.56 Mozilla/5.0+(compatible;+bingbot/2.0;++http://www.bing.com/bingbot.htm) - 302 0 0 93
2016-06-22 17:05:40 172.31.23.171 GET /Trip/Index - 80 - 207.46.13.128 Mozilla/5.0+(compatible;+bingbot/2.0;++http://www.bing.com/bingbot.htm) - 200 0 0 31
2016-06-22 17:05:40 172.31.23.171 GET /Trip/Notification - 80 - 207.46.13.128 Mozilla/5.0+(compatible;+bingbot/2.0;++http://www.bing.com/bingbot.htm) - 302 0 0 15
2016-06-22 17:05:40 172.31.23.171 GET /Trip/TermsConditions - 80 - 207.46.13.128 Mozilla/5.0+(compatible;+bingbot/2.0;++http://www.bing.com/bingbot.htm) - 200 0 0 31
2016-06-22 17:05:46 172.31.23.171 GET /Trip/ContactUs - 80 - 40.77.167.80 Mozilla/5.0+(compatible;+bingbot/2.0;++http://www.bing.com/bingbot.htm) - 200 0 0 140
#Software: Microsoft Internet Information Services 8.5
#Version: 1.0
#Date: 2016-06-22 17:37:55
#Fields: date time s-ip cs-method cs-uri-stem cs-uri-query s-port cs-username c-ip cs(User-Agent) cs(Referer) sc-status sc-substatus sc-win32-status time-taken
2016-06-22 17:37:55 172.31.23.171 GET / - 80 - 180.76.15.157 Mozilla/5.0+(compatible;+Baiduspider/2.0;++http://www.baidu.com/search/spider.html) - 200 0 64 5484
2016-06-22 17:38:43 172.31.23.171 GET / - 80 - 180.76.15.21 Mozilla/5.0+(compatible;+Baiduspider/2.0;++http://www.baidu.com/search/spider.html) - 200 0 64 171
#Software: Microsoft Internet Information Services 8.5
#Version: 1.0
#Date: 2016-06-22 18:42:52
#Fields: date time s-ip cs-method cs-uri-stem cs-uri-query s-port cs-username c-ip cs(User-Agent) cs(Referer) sc-status sc-substatus sc-win32-status time-taken
2016-06-22 18:42:52 172.31.23.171 GET / - 80 - 180.76.15.154 Mozilla/5.0+(compatible;+Baiduspider/2.0;++http://www.baidu.com/search/spider.html) - 200 0 64 5406
2016-06-22 18:43:55 172.31.23.171 GET / - 80 - 180.76.15.151 Mozilla/5.0+(compatible;+Baiduspider/2.0;++http://www.baidu.com/search/spider.html) - 200 0 64 171
#Software: Microsoft Internet Information Services 8.5
#Version: 1.0
#Date: 2016-06-22 19:29:45
#Fields: date time s-ip cs-method cs-uri-stem cs-uri-query s-port cs-username c-ip cs(User-Agent) cs(Referer) sc-status sc-substatus sc-win32-status time-taken
2016-06-22 19:29:45 172.31.23.171 GET / - 80 - 198.20.69.98 Mozilla/5.0+(Windows+NT+6.1)+AppleWebKit/537.36+(KHTML,+like+Gecko)+Chrome/41.0.2228.0+Safari/537.36 - 200 0 0 5578
2016-06-22 19:37:41 172.31.23.171 GET / - 80 - 180.76.15.151 Mozilla/5.0+(compatible;+Baiduspider/2.0;++http://www.baidu.com/search/spider.html) - 200 0 64 171
2016-06-22 19:38:35 172.31.23.171 GET / - 80 - 180.76.15.151 Mozilla/5.0+(compatible;+Baiduspider/2.0;++http://www.baidu.com/search/spider.html) - 200 0 64 171
2016-06-22 19:43:31 172.31.23.171 GET / - 80 - 40.77.167.56 Mozilla/5.0+(compatible;+bingbot/2.0;++http://www.bing.com/bingbot.htm) - 200 0 0 171
2016-06-22 19:58:02 172.31.23.171 GET /robots.txt - 80 - 162.210.196.97 Mozilla/5.0+(compatible;+MJ12bot/v1.4.5;+http://www.majestic12.co.uk/bot.php?+) - 404 0 2 93
2016-06-22 19:58:04 172.31.23.171 GET /Trip/AboutUs - 80 - 162.210.196.97 Mozilla/5.0+(compatible;+MJ12bot/v1.4.5;+http://www.majestic12.co.uk/bot.php?+) - 200 0 0 124
2016-06-22 19:58:06 172.31.23.171 GET /Trip/ContactUs - 80 - 162.210.196.97 Mozilla/5.0+(compatible;+MJ12bot/v1.4.5;+http://www.majestic12.co.uk/bot.php?+) - 200 0 0 328
2016-06-22 19:58:07 172.31.23.171 GET /Trip/Disclaimer - 80 - 162.210.196.97 Mozilla/5.0+(compatible;+MJ12bot/v1.4.5;+http://www.majestic12.co.uk/bot.php?+) - 200 0 0 203
2016-06-22 19:58:09 172.31.23.171 GET /Trip/Faq - 80 - 162.210.196.97 Mozilla/5.0+(compatible;+MJ12bot/v1.4.5;+http://www.majestic12.co.uk/bot.php?+) - 200 0 0 203
2016-06-22 19:58:10 172.31.23.171 GET /Trip/MyTrips - 80 - 162.210.196.97 Mozilla/5.0+(compatible;+MJ12bot/v1.4.5;+http://www.majestic12.co.uk/bot.php?+) - 302 0 0 93
2016-06-22 19:58:12 172.31.23.171 GET /Trip/Index - 80 - 162.210.196.97 Mozilla/5.0+(compatible;+MJ12bot/v1.4.5;+http://www.majestic12.co.uk/bot.php?+) - 200 0 0 499
2016-06-22 19:58:39 172.31.23.171 GET / - 80 - 194.44.161.58 - - 200 0 0 375
#Software: Microsoft Internet Information Services 8.5
#Version: 1.0
#Date: 2016-06-22 20:35:28
#Fields: date time s-ip cs-method cs-uri-stem cs-uri-query s-port cs-username c-ip cs(User-Agent) cs(Referer) sc-status sc-substatus sc-win32-status time-taken
2016-06-22 20:35:28 172.31.23.171 GET / - 80 - 163.172.38.173 Mozilla/5.0+(X11;+Linux+x86_64)+AppleWebKit/537.36+(KHTML,+like+Gecko)+Chrome/37.0.2062.120+Safari/537.36 http://pizza-tycoon.com/ 200 0 0 5703
2016-06-22 20:42:12 172.31.23.171 GET / - 80 - 180.76.15.27 Mozilla/5.0+(compatible;+Baiduspider/2.0;++http://www.baidu.com/search/spider.html) - 200 0 64 187
2016-06-22 20:43:19 172.31.23.171 GET / - 80 - 180.76.15.5 Mozilla/5.0+(compatible;+Baiduspider/2.0;++http://www.baidu.com/search/spider.html) - 200 0 64 171
2016-06-22 20:50:48 172.31.23.171 GET /Scripts/images/respond.js - 80 - 180.76.15.148 Mozilla/5.0+(compatible;+Baiduspider/2.0;++http://www.baidu.com/search/spider.html) - 404 0 2 171
2016-06-22 21:00:47 172.31.23.171 GET / - 80 - 104.132.1.66 Mozilla/5.0+(X11;+CrOS+x86_64+8172.47.0)+AppleWebKit/537.36+(KHTML,+like+Gecko)+Chrome/51.0.2704.79+Safari/537.36 - 200 0 0 78
2016-06-22 21:00:47 172.31.23.171 GET /bundles/IndexCss - 80 - 104.132.1.66 Mozilla/5.0+(X11;+CrOS+x86_64+8172.47.0)+AppleWebKit/537.36+(KHTML,+like+Gecko)+Chrome/51.0.2704.79+Safari/537.36 http://1eztrip.com/ 200 0 0 468
2016-06-22 21:00:47 172.31.23.171 GET /Content/Intro/Intro.css - 80 - 104.132.1.66 Mozilla/5.0+(X11;+CrOS+x86_64+8172.47.0)+AppleWebKit/537.36+(KHTML,+like+Gecko)+Chrome/51.0.2704.79+Safari/537.36 http://1eztrip.com/ 200 0 0 265
2016-06-22 21:00:47 172.31.23.171 GET /Content/Intro/bootstrap-responsive.min.css - 80 - 104.132.1.66 Mozilla/5.0+(X11;+CrOS+x86_64+8172.47.0)+AppleWebKit/537.36+(KHTML,+like+Gecko)+Chrome/51.0.2704.79+Safari/537.36 http://1eztrip.com/ 200 0 0 265
2016-06-22 21:00:47 172.31.23.171 GET /Content/css/style-1eztrip.css - 80 - 104.132.1.66 Mozilla/5.0+(X11;+CrOS+x86_64+8172.47.0)+AppleWebKit/537.36+(KHTML,+like+Gecko)+Chrome/51.0.2704.79+Safari/537.36 http://1eztrip.com/ 200 0 0 468
2016-06-22 21:00:47 172.31.23.171 GET /Scripts/js/Jquery1.11.1.min.js - 80 - 104.132.1.66 Mozilla/5.0+(X11;+CrOS+x86_64+8172.47.0)+AppleWebKit/537.36+(KHTML,+like+Gecko)+Chrome/51.0.2704.79+Safari/537.36 http://1eztrip.com/ 200 0 0 468
2016-06-22 21:00:47 172.31.23.171 GET /Scripts/js/Block.ui.js - 80 - 104.132.1.66 Mozilla/5.0+(X11;+CrOS+x86_64+8172.47.0)+AppleWebKit/537.36+(KHTML,+like+Gecko)+Chrome/51.0.2704.79+Safari/537.36 http://1eztrip.com/ 200 0 0 406
2016-06-22 21:00:48 172.31.23.171 GET /Scripts/js/Facebook.js - 80 - 104.132.1.66 Mozilla/5.0+(X11;+CrOS+x86_64+8172.47.0)+AppleWebKit/537.36+(KHTML,+like+Gecko)+Chrome/51.0.2704.79+Safari/537.36 http://1eztrip.com/ 200 0 0 609
2016-06-22 21:00:48 172.31.23.171 GET /Content/Intro/intro.js - 80 - 104.132.1.66 Mozilla/5.0+(X11;+CrOS+x86_64+8172.47.0)+AppleWebKit/537.36+(KHTML,+like+Gecko)+Chrome/51.0.2704.79+Safari/537.36 http://1eztrip.com/ 200 0 0 812
2016-06-22 21:00:48 172.31.23.171 GET /Scripts/Jsfiles/CurrentItenaries.js - 80 - 104.132.1.66 Mozilla/5.0+(X11;+CrOS+x86_64+8172.47.0)+AppleWebKit/537.36+(KHTML,+like+Gecko)+Chrome/51.0.2704.79+Safari/537.36 http://1eztrip.com/ 200 0 0 921
2016-06-22 21:00:48 172.31.23.171 GET /Content/css/fonts/opensans-light-webfont-webfont.woff - 80 - 104.132.1.66 Mozilla/5.0+(X11;+CrOS+x86_64+8172.47.0)+AppleWebKit/537.36+(KHTML,+like+Gecko)+Chrome/51.0.2704.79+Safari/537.36 http://1eztrip.com/Content/css/style-1eztrip.css 200 0 0 312
2016-06-22 21:00:48 172.31.23.171 GET /Content/css/fonts/opensans-regular-webfont.woff - 80 - 104.132.1.66 Mozilla/5.0+(X11;+CrOS+x86_64+8172.47.0)+AppleWebKit/537.36+(KHTML,+like+Gecko)+Chrome/51.0.2704.79+Safari/537.36 http://1eztrip.com/Content/css/style-1eztrip.css 200 0 0 718
2016-06-22 21:00:48 172.31.23.171 GET /Scripts/Jsfiles/IndexPage.js - 80 - 104.132.1.66 Mozilla/5.0+(X11;+CrOS+x86_64+8172.47.0)+AppleWebKit/537.36+(KHTML,+like+Gecko)+Chrome/51.0.2704.79+Safari/537.36 http://1eztrip.com/ 200 0 0 921
2016-06-22 21:00:48 172.31.23.171 GET /Content/images/logo.png - 80 - 104.132.1.66 Mozilla/5.0+(X11;+CrOS+x86_64+8172.47.0)+AppleWebKit/537.36+(KHTML,+like+Gecko)+Chrome/51.0.2704.79+Safari/537.36 http://1eztrip.com/ 200 0 0 31
2016-06-22 21:00:48 172.31.23.171 GET /Content/css/fonts/opensans-bold-webfont.woff - 80 - 104.132.1.66 Mozilla/5.0+(X11;+CrOS+x86_64+8172.47.0)+AppleWebKit/537.36+(KHTML,+like+Gecko)+Chrome/51.0.2704.79+Safari/537.36 http://1eztrip.com/Content/css/style-1eztrip.css 200 0 0 31
2016-06-22 21:00:48 172.31.23.171 GET /Content/css/fonts/opensanssemiboldwebfont.woff - 80 - 104.132.1.66 Mozilla/5.0+(X11;+CrOS+x86_64+8172.47.0)+AppleWebKit/537.36+(KHTML,+like+Gecko)+Chrome/51.0.2704.79+Safari/537.36 http://1eztrip.com/Content/css/style-1eztrip.css 200 0 0 562
2016-06-22 21:00:48 172.31.23.171 GET /Content/images/footer-border-dest-top.png - 80 - 104.132.1.66 Mozilla/5.0+(X11;+CrOS+x86_64+8172.47.0)+AppleWebKit/537.36+(KHTML,+like+Gecko)+Chrome/51.0.2704.79+Safari/537.36 http://1eztrip.com/Content/css/style-1eztrip.css 200 0 0 31
2016-06-22 21:00:48 172.31.23.171 GET /Content/images/location.png - 80 - 104.132.1.66 Mozilla/5.0+(X11;+CrOS+x86_64+8172.47.0)+AppleWebKit/537.36+(KHTML,+like+Gecko)+Chrome/51.0.2704.79+Safari/537.36 http://1eztrip.com/Content/css/style-1eztrip.css 200 0 0 15
2016-06-22 21:00:48 172.31.23.171 GET /Content/images/arrow-left.png - 80 - 104.132.1.66 Mozilla/5.0+(X11;+CrOS+x86_64+8172.47.0)+AppleWebKit/537.36+(KHTML,+like+Gecko)+Chrome/51.0.2704.79+Safari/537.36 http://1eztrip.com/Content/css/style-1eztrip.css 200 0 0 47
2016-06-22 21:00:48 172.31.23.171 GET /Content/images/arrow-btn.png - 80 - 104.132.1.66 Mozilla/5.0+(X11;+CrOS+x86_64+8172.47.0)+AppleWebKit/537.36+(KHTML,+like+Gecko)+Chrome/51.0.2704.79+Safari/537.36 http://1eztrip.com/Content/css/style-1eztrip.css 200 0 0 31
2016-06-22 21:00:48 172.31.23.171 GET /Content/images/activity-home-icon.png - 80 - 104.132.1.66 Mozilla/5.0+(X11;+CrOS+x86_64+8172.47.0)+AppleWebKit/537.36+(KHTML,+like+Gecko)+Chrome/51.0.2704.79+Safari/537.36 http://1eztrip.com/ 200 0 0 31
2016-06-22 21:00:48 172.31.23.171 GET /Content/images/services-bg.png - 80 - 104.132.1.66 Mozilla/5.0+(X11;+CrOS+x86_64+8172.47.0)+AppleWebKit/537.36+(KHTML,+like+Gecko)+Chrome/51.0.2704.79+Safari/537.36 http://1eztrip.com/Content/css/style-1eztrip.css 200 0 0 93
2016-06-22 21:00:48 172.31.23.171 GET /bundles/JsForIndex - 80 - 104.132.1.66 Mozilla/5.0+(X11;+CrOS+x86_64+8172.47.0)+AppleWebKit/537.36+(KHTML,+like+Gecko)+Chrome/51.0.2704.79+Safari/537.36 http://1eztrip.com/ 200 0 0 1499
2016-06-22 21:00:48 172.31.23.171 GET /Content/images/restaurant-home-icon.png - 80 - 104.132.1.66 Mozilla/5.0+(X11;+CrOS+x86_64+8172.47.0)+AppleWebKit/537.36+(KHTML,+like+Gecko)+Chrome/51.0.2704.79+Safari/537.36 http://1eztrip.com/ 200 0 0 31
2016-06-22 21:00:48 172.31.23.171 GET /Content/images/hotel-home-icon.png - 80 - 104.132.1.66 Mozilla/5.0+(X11;+CrOS+x86_64+8172.47.0)+AppleWebKit/537.36+(KHTML,+like+Gecko)+Chrome/51.0.2704.79+Safari/537.36 http://1eztrip.com/ 200 0 0 31
2016-06-22 21:00:48 172.31.23.171 GET /Content/images/AppImages/home-banner3.jpg - 80 - 104.132.1.66 Mozilla/5.0+(X11;+CrOS+x86_64+8172.47.0)+AppleWebKit/537.36+(KHTML,+like+Gecko)+Chrome/51.0.2704.79+Safari/537.36 http://1eztrip.com/ 200 0 0 62
2016-06-22 21:00:48 172.31.23.171 GET /Content/images/AppImages/home-banner1.jpg - 80 - 104.132.1.66 Mozilla/5.0+(X11;+CrOS+x86_64+8172.47.0)+AppleWebKit/537.36+(KHTML,+like+Gecko)+Chrome/51.0.2704.79+Safari/537.36 http://1eztrip.com/ 200 0 0 93
2016-06-22 21:00:48 172.31.23.171 GET /Content/images/AppImages/home-banner4.jpg - 80 - 104.132.1.66 Mozilla/5.0+(X11;+CrOS+x86_64+8172.47.0)+AppleWebKit/537.36+(KHTML,+like+Gecko)+Chrome/51.0.2704.79+Safari/537.36 http://1eztrip.com/ 200 0 0 78
2016-06-22 21:00:48 172.31.23.171 GET /Content/images/AppImages/home-banner2.jpg - 80 - 104.132.1.66 Mozilla/5.0+(X11;+CrOS+x86_64+8172.47.0)+AppleWebKit/537.36+(KHTML,+like+Gecko)+Chrome/51.0.2704.79+Safari/537.36 http://1eztrip.com/ 200 0 0 109
2016-06-22 21:00:48 172.31.23.171 GET /Content/images/del_travel-bkp-7-5-15.png - 80 - 104.132.1.66 Mozilla/5.0+(X11;+CrOS+x86_64+8172.47.0)+AppleWebKit/537.36+(KHTML,+like+Gecko)+Chrome/51.0.2704.79+Safari/537.36 http://1eztrip.com/ 200 0 0 31
2016-06-22 21:00:48 172.31.23.171 GET /Content/images/fb-h.png - 80 - 104.132.1.66 Mozilla/5.0+(X11;+CrOS+x86_64+8172.47.0)+AppleWebKit/537.36+(KHTML,+like+Gecko)+Chrome/51.0.2704.79+Safari/537.36 http://1eztrip.com/ 200 0 0 15
2016-06-22 21:00:48 172.31.23.171 GET /Content/images/twit-h.png - 80 - 104.132.1.66 Mozilla/5.0+(X11;+CrOS+x86_64+8172.47.0)+AppleWebKit/537.36+(KHTML,+like+Gecko)+Chrome/51.0.2704.79+Safari/537.36 http://1eztrip.com/ 200 0 0 31
2016-06-22 21:00:48 172.31.23.171 GET /Content/images/logo-footer.png - 80 - 104.132.1.66 Mozilla/5.0+(X11;+CrOS+x86_64+8172.47.0)+AppleWebKit/537.36+(KHTML,+like+Gecko)+Chrome/51.0.2704.79+Safari/537.36 http://1eztrip.com/ 200 0 0 31
2016-06-22 21:00:48 172.31.23.171 GET /Content/images/AppImages/home-banner6.jpg - 80 - 104.132.1.66 Mozilla/5.0+(X11;+CrOS+x86_64+8172.47.0)+AppleWebKit/537.36+(KHTML,+like+Gecko)+Chrome/51.0.2704.79+Safari/537.36 http://1eztrip.com/ 200 0 0 109
2016-06-22 21:00:48 172.31.23.171 GET /Content/images/pin-h.png - 80 - 104.132.1.66 Mozilla/5.0+(X11;+CrOS+x86_64+8172.47.0)+AppleWebKit/537.36+(KHTML,+like+Gecko)+Chrome/51.0.2704.79+Safari/537.36 http://1eztrip.com/ 200 0 0 31
2016-06-22 21:00:48 172.31.23.171 GET /Content/images/AppImages/home-banner5.jpg - 80 - 104.132.1.66 Mozilla/5.0+(X11;+CrOS+x86_64+8172.47.0)+AppleWebKit/537.36+(KHTML,+like+Gecko)+Chrome/51.0.2704.79+Safari/537.36 http://1eztrip.com/ 200 0 0 109
2016-06-22 21:00:48 172.31.23.171 GET /Content/images/rss-h.png - 80 - 104.132.1.66 Mozilla/5.0+(X11;+CrOS+x86_64+8172.47.0)+AppleWebKit/537.36+(KHTML,+like+Gecko)+Chrome/51.0.2704.79+Safari/537.36 http://1eztrip.com/ 200 0 0 31
2016-06-22 21:00:48 172.31.23.171 GET /Content/images/footer-border.png - 80 - 104.132.1.66 Mozilla/5.0+(X11;+CrOS+x86_64+8172.47.0)+AppleWebKit/537.36+(KHTML,+like+Gecko)+Chrome/51.0.2704.79+Safari/537.36 http://1eztrip.com/Content/css/style-1eztrip.css 200 0 0 31
2016-06-22 21:00:48 172.31.23.171 GET /Content/images/arrow-foot.png - 80 - 104.132.1.66 Mozilla/5.0+(X11;+CrOS+x86_64+8172.47.0)+AppleWebKit/537.36+(KHTML,+like+Gecko)+Chrome/51.0.2704.79+Safari/537.36 http://1eztrip.com/Content/css/style-1eztrip.css 200 0 0 62
2016-06-22 21:00:48 172.31.23.171 GET /Content/images/arrow-left-white.png - 80 - 104.132.1.66 Mozilla/5.0+(X11;+CrOS+x86_64+8172.47.0)+AppleWebKit/537.36+(KHTML,+like+Gecko)+Chrome/51.0.2704.79+Safari/537.36 http://1eztrip.com/Content/css/style-1eztrip.css 200 0 0 62
2016-06-22 21:00:48 172.31.23.171 GET /Content/images/footer-border-dest-bot.png - 80 - 104.132.1.66 Mozilla/5.0+(X11;+CrOS+x86_64+8172.47.0)+AppleWebKit/537.36+(KHTML,+like+Gecko)+Chrome/51.0.2704.79+Safari/537.36 http://1eztrip.com/Content/css/style-1eztrip.css 200 0 0 62
2016-06-22 21:00:48 172.31.23.171 GET /Content/images/arrow-it-left.png - 80 - 104.132.1.66 Mozilla/5.0+(X11;+CrOS+x86_64+8172.47.0)+AppleWebKit/537.36+(KHTML,+like+Gecko)+Chrome/51.0.2704.79+Safari/537.36 http://1eztrip.com/Content/css/style-1eztrip.css 200 0 0 31
2016-06-22 21:00:48 172.31.23.171 GET /Content/images/arrow-it-right.png - 80 - 104.132.1.66 Mozilla/5.0+(X11;+CrOS+x86_64+8172.47.0)+AppleWebKit/537.36+(KHTML,+like+Gecko)+Chrome/51.0.2704.79+Safari/537.36 http://1eztrip.com/Content/css/style-1eztrip.css 200 0 0 31
2016-06-22 21:00:49 172.31.23.171 GET /Trip/GetDestinationPlace - 80 - 104.132.1.66 Mozilla/5.0+(X11;+CrOS+x86_64+8172.47.0)+AppleWebKit/537.36+(KHTML,+like+Gecko)+Chrome/51.0.2704.79+Safari/537.36 http://1eztrip.com/ 200 0 0 124
2016-06-22 21:00:49 172.31.23.171 POST /Trip/QueryStringValues - 80 - 104.132.1.66 Mozilla/5.0+(X11;+CrOS+x86_64+8172.47.0)+AppleWebKit/537.36+(KHTML,+like+Gecko)+Chrome/51.0.2704.79+Safari/537.36 http://1eztrip.com/ 200 0 0 609
2016-06-22 21:00:49 172.31.23.171 GET /Trip/GetAmazingGetDestination - 80 - 104.132.1.66 Mozilla/5.0+(X11;+CrOS+x86_64+8172.47.0)+AppleWebKit/537.36+(KHTML,+like+Gecko)+Chrome/51.0.2704.79+Safari/537.36 http://1eztrip.com/ 200 0 0 78
2016-06-22 21:00:49 172.31.23.171 GET /Trip/GetPopularItineraries - 80 - 104.132.1.66 Mozilla/5.0+(X11;+CrOS+x86_64+8172.47.0)+AppleWebKit/537.36+(KHTML,+like+Gecko)+Chrome/51.0.2704.79+Safari/537.36 http://1eztrip.com/ 200 0 0 140
2016-06-22 21:00:50 172.31.23.171 POST /Trip/QueryStringValues - 80 - 104.132.1.66 Mozilla/5.0+(X11;+CrOS+x86_64+8172.47.0)+AppleWebKit/537.36+(KHTML,+like+Gecko)+Chrome/51.0.2704.79+Safari/537.36 http://1eztrip.com/ 200 0 0 562
2016-06-22 21:00:50 172.31.23.171 POST /Trip/QueryStringValues - 80 - 104.132.1.66 Mozilla/5.0+(X11;+CrOS+x86_64+8172.47.0)+AppleWebKit/537.36+(KHTML,+like+Gecko)+Chrome/51.0.2704.79+Safari/537.36 http://1eztrip.com/ 200 0 0 62
2016-06-22 21:00:50 172.31.23.171 GET /Content/images/CityImages/8d6a-BurkinaFaso.jpg - 80 - 104.132.1.66 Mozilla/5.0+(X11;+CrOS+x86_64+8172.47.0)+AppleWebKit/537.36+(KHTML,+like+Gecko)+Chrome/51.0.2704.79+Safari/537.36 http://1eztrip.com/ 200 0 0 31
2016-06-22 21:00:50 172.31.23.171 GET /Content/images/CityImages/da11-Cyprus.jpg - 80 - 104.132.1.66 Mozilla/5.0+(X11;+CrOS+x86_64+8172.47.0)+AppleWebKit/537.36+(KHTML,+like+Gecko)+Chrome/51.0.2704.79+Safari/537.36 http://1eztrip.com/ 200 0 0 46
2016-06-22 21:00:50 172.31.23.171 GET /Content/images/CityImages/ef10d9.jpg - 80 - 104.132.1.66 Mozilla/5.0+(X11;+CrOS+x86_64+8172.47.0)+AppleWebKit/537.36+(KHTML,+like+Gecko)+Chrome/51.0.2704.79+Safari/537.36 http://1eztrip.com/ 200 0 0 46
2016-06-22 21:00:50 172.31.23.171 GET /Content/images/CityImages/b47103.jpg - 80 - 104.132.1.66 Mozilla/5.0+(X11;+CrOS+x86_64+8172.47.0)+AppleWebKit/537.36+(KHTML,+like+Gecko)+Chrome/51.0.2704.79+Safari/537.36 http://1eztrip.com/ 200 0 0 46
2016-06-22 21:00:50 172.31.23.171 GET /Content/images/CityImages/0970-Botswana.jpg - 80 - 104.132.1.66 Mozilla/5.0+(X11;+CrOS+x86_64+8172.47.0)+AppleWebKit/537.36+(KHTML,+like+Gecko)+Chrome/51.0.2704.79+Safari/537.36 http://1eztrip.com/ 200 0 0 46
2016-06-22 21:00:50 172.31.23.171 GET /Content/images/CityImages/237e9d.jpg - 80 - 104.132.1.66 Mozilla/5.0+(X11;+CrOS+x86_64+8172.47.0)+AppleWebKit/537.36+(KHTML,+like+Gecko)+Chrome/51.0.2704.79+Safari/537.36 http://1eztrip.com/ 200 0 0 31
2016-06-22 21:00:50 172.31.23.171 GET /Content/images/CityImages/160219.jpg - 80 - 104.132.1.66 Mozilla/5.0+(X11;+CrOS+x86_64+8172.47.0)+AppleWebKit/537.36+(KHTML,+like+Gecko)+Chrome/51.0.2704.79+Safari/537.36 http://1eztrip.com/ 200 0 0 31
2016-06-22 21:00:50 172.31.23.171 GET /Content/images/CityImages/d9f934.jpg - 80 - 104.132.1.66 Mozilla/5.0+(X11;+CrOS+x86_64+8172.47.0)+AppleWebKit/537.36+(KHTML,+like+Gecko)+Chrome/51.0.2704.79+Safari/537.36 http://1eztrip.com/ 200 0 0 31
2016-06-22 21:00:50 172.31.23.171 GET /Content/images/CityImages/c182-Albania.jpg - 80 - 104.132.1.66 Mozilla/5.0+(X11;+CrOS+x86_64+8172.47.0)+AppleWebKit/537.36+(KHTML,+like+Gecko)+Chrome/51.0.2704.79+Safari/537.36 http://1eztrip.com/ 200 0 0 31
2016-06-22 21:00:50 172.31.23.171 GET /Content/images/CityImages/6cc2-Belize.jpg - 80 - 104.132.1.66 Mozilla/5.0+(X11;+CrOS+x86_64+8172.47.0)+AppleWebKit/537.36+(KHTML,+like+Gecko)+Chrome/51.0.2704.79+Safari/537.36 http://1eztrip.com/ 200 0 0 31
2016-06-22 21:00:50 172.31.23.171 GET /Content/images/CityImages/bd7591.jpg - 80 - 104.132.1.66 Mozilla/5.0+(X11;+CrOS+x86_64+8172.47.0)+AppleWebKit/537.36+(KHTML,+like+Gecko)+Chrome/51.0.2704.79+Safari/537.36 http://1eztrip.com/ 200 0 0 47
2016-06-22 21:00:50 172.31.23.171 GET /Content/images/CityImages/fb7ceb.jpg - 80 - 104.132.1.66 Mozilla/5.0+(X11;+CrOS+x86_64+8172.47.0)+AppleWebKit/537.36+(KHTML,+like+Gecko)+Chrome/51.0.2704.79+Safari/537.36 http://1eztrip.com/ 200 0 0 31
2016-06-22 21:00:50 172.31.23.171 GET /Content/images/arrow-c-left.png - 80 - 104.132.1.66 Mozilla/5.0+(X11;+CrOS+x86_64+8172.47.0)+AppleWebKit/537.36+(KHTML,+like+Gecko)+Chrome/51.0.2704.79+Safari/537.36 http://1eztrip.com/Content/css/style-1eztrip.css 200 0 0 31
2016-06-22 21:00:50 172.31.23.171 GET /Content/images/arrow-c-right.png - 80 - 104.132.1.66 Mozilla/5.0+(X11;+CrOS+x86_64+8172.47.0)+AppleWebKit/537.36+(KHTML,+like+Gecko)+Chrome/51.0.2704.79+Safari/537.36 http://1eztrip.com/Content/css/style-1eztrip.css 200 0 0 31
2016-06-22 21:00:50 172.31.23.171 GET /Content/images/CityImages/cf78-download+(1).jpg - 80 - 104.132.1.66 Mozilla/5.0+(X11;+CrOS+x86_64+8172.47.0)+AppleWebKit/537.36+(KHTML,+like+Gecko)+Chrome/51.0.2704.79+Safari/537.36 http://1eztrip.com/ 200 0 0 31
2016-06-22 21:00:50 172.31.23.171 GET /Content/images/CityImages/bd27-download.jpg - 80 - 104.132.1.66 Mozilla/5.0+(X11;+CrOS+x86_64+8172.47.0)+AppleWebKit/537.36+(KHTML,+like+Gecko)+Chrome/51.0.2704.79+Safari/537.36 http://1eztrip.com/ 200 0 0 31
2016-06-22 21:00:50 172.31.23.171 GET /Content/images/CityImages/ce9e-Austria.jpg - 80 - 104.132.1.66 Mozilla/5.0+(X11;+CrOS+x86_64+8172.47.0)+AppleWebKit/537.36+(KHTML,+like+Gecko)+Chrome/51.0.2704.79+Safari/537.36 http://1eztrip.com/ 200 0 0 31
2016-06-22 21:00:50 172.31.23.171 GET /Content/images/CityImages/6bcb-Armenia.jpg - 80 - 104.132.1.66 Mozilla/5.0+(X11;+CrOS+x86_64+8172.47.0)+AppleWebKit/537.36+(KHTML,+like+Gecko)+Chrome/51.0.2704.79+Safari/537.36 http://1eztrip.com/ 200 0 0 46
2016-06-22 21:00:50 172.31.23.171 GET /Content/images/CityImages/010a-download+(2).jpg - 80 - 104.132.1.66 Mozilla/5.0+(X11;+CrOS+x86_64+8172.47.0)+AppleWebKit/537.36+(KHTML,+like+Gecko)+Chrome/51.0.2704.79+Safari/537.36 http://1eztrip.com/ 200 0 0 31
2016-06-22 21:00:50 172.31.23.171 GET /Content/images/CityImages/1248-download+(3).jpg - 80 - 104.132.1.66 Mozilla/5.0+(X11;+CrOS+x86_64+8172.47.0)+AppleWebKit/537.36+(KHTML,+like+Gecko)+Chrome/51.0.2704.79+Safari/537.36 http://1eztrip.com/ 200 0 0 31
2016-06-22 21:00:50 172.31.23.171 GET /Content/images/CityImages/b185-download+(5).jpg - 80 - 104.132.1.66 Mozilla/5.0+(X11;+CrOS+x86_64+8172.47.0)+AppleWebKit/537.36+(KHTML,+like+Gecko)+Chrome/51.0.2704.79+Safari/537.36 http://1eztrip.com/ 200 0 0 31
2016-06-22 21:00:50 172.31.23.171 GET /Content/images/CityImages/ec43-download+(6).jpg - 80 - 104.132.1.66 Mozilla/5.0+(X11;+CrOS+x86_64+8172.47.0)+AppleWebKit/537.36+(KHTML,+like+Gecko)+Chrome/51.0.2704.79+Safari/537.36 http://1eztrip.com/ 200 0 0 31
2016-06-22 21:00:50 172.31.23.171 GET /Content/images/CityImages/ec63-download+(4).jpg - 80 - 104.132.1.66 Mozilla/5.0+(X11;+CrOS+x86_64+8172.47.0)+AppleWebKit/537.36+(KHTML,+like+Gecko)+Chrome/51.0.2704.79+Safari/537.36 http://1eztrip.com/ 200 0 0 31
2016-06-22 21:00:50 172.31.23.171 GET /Content/images/CityImages/b26a-images.jpg - 80 - 104.132.1.66 Mozilla/5.0+(X11;+CrOS+x86_64+8172.47.0)+AppleWebKit/537.36+(KHTML,+like+Gecko)+Chrome/51.0.2704.79+Safari/537.36 http://1eztrip.com/ 200 0 0 31
2016-06-22 21:00:50 172.31.23.171 GET /Content/images/CityImages/b91e-download+(7).jpg - 80 - 104.132.1.66 Mozilla/5.0+(X11;+CrOS+x86_64+8172.47.0)+AppleWebKit/537.36+(KHTML,+like+Gecko)+Chrome/51.0.2704.79+Safari/537.36 http://1eztrip.com/ 200 0 0 31
2016-06-22 21:00:50 172.31.23.171 GET /Content/images/CityImages/3a1e-images+(1).jpg - 80 - 104.132.1.66 Mozilla/5.0+(X11;+CrOS+x86_64+8172.47.0)+AppleWebKit/537.36+(KHTML,+like+Gecko)+Chrome/51.0.2704.79+Safari/537.36 http://1eztrip.com/ 200 0 0 31
2016-06-22 21:00:50 172.31.23.171 GET /Content/images/CityImages/5dca-Brazil.jpg - 80 - 104.132.1.66 Mozilla/5.0+(X11;+CrOS+x86_64+8172.47.0)+AppleWebKit/537.36+(KHTML,+like+Gecko)+Chrome/51.0.2704.79+Safari/537.36 http://1eztrip.com/ 200 0 0 31
2016-06-22 21:00:50 172.31.23.171 GET /Content/images/CityImages/2549-images+(2).jpg - 80 - 104.132.1.66 Mozilla/5.0+(X11;+CrOS+x86_64+8172.47.0)+AppleWebKit/537.36+(KHTML,+like+Gecko)+Chrome/51.0.2704.79+Safari/537.36 http://1eztrip.com/ 200 0 0 31
2016-06-22 21:00:50 172.31.23.171 GET /Content/images/CityImages/b312-Denmark.jpg - 80 - 104.132.1.66 Mozilla/5.0+(X11;+CrOS+x86_64+8172.47.0)+AppleWebKit/537.36+(KHTML,+like+Gecko)+Chrome/51.0.2704.79+Safari/537.36 http://1eztrip.com/ 200 0 0 31
2016-06-22 21:00:50 172.31.23.171 GET /Content/images/CityImages/0eb3-download+(3).jpg - 80 - 104.132.1.66 Mozilla/5.0+(X11;+CrOS+x86_64+8172.47.0)+AppleWebKit/537.36+(KHTML,+like+Gecko)+Chrome/51.0.2704.79+Safari/537.36 http://1eztrip.com/ 200 0 0 31
2016-06-22 21:00:50 172.31.23.171 GET /Content/images/CityImages/c1fd-Chile.jpg - 80 - 104.132.1.66 Mozilla/5.0+(X11;+CrOS+x86_64+8172.47.0)+AppleWebKit/537.36+(KHTML,+like+Gecko)+Chrome/51.0.2704.79+Safari/537.36 http://1eztrip.com/ 200 0 0 31
2016-06-22 21:00:50 172.31.23.171 GET /Content/images/CityImages/bb14-Finland.jpg - 80 - 104.132.1.66 Mozilla/5.0+(X11;+CrOS+x86_64+8172.47.0)+AppleWebKit/537.36+(KHTML,+like+Gecko)+Chrome/51.0.2704.79+Safari/537.36 http://1eztrip.com/ 200 0 0 31
2016-06-22 21:00:50 172.31.23.171 GET /Content/images/CityImages/3196-Norway.jpg - 80 - 104.132.1.66 Mozilla/5.0+(X11;+CrOS+x86_64+8172.47.0)+AppleWebKit/537.36+(KHTML,+like+Gecko)+Chrome/51.0.2704.79+Safari/537.36 http://1eztrip.com/ 200 0 0 31
2016-06-22 21:00:50 172.31.23.171 GET /Content/images/CityImages/5611-SouthKorea.jpg - 80 - 104.132.1.66 Mozilla/5.0+(X11;+CrOS+x86_64+8172.47.0)+AppleWebKit/537.36+(KHTML,+like+Gecko)+Chrome/51.0.2704.79+Safari/537.36 http://1eztrip.com/ 200 0 0 31
2016-06-22 21:00:50 172.31.23.171 GET /Content/images/CityImages/51f0-Ireland.jpg - 80 - 104.132.1.66 Mozilla/5.0+(X11;+CrOS+x86_64+8172.47.0)+AppleWebKit/537.36+(KHTML,+like+Gecko)+Chrome/51.0.2704.79+Safari/537.36 http://1eztrip.com/ 200 0 0 31
2016-06-22 21:00:50 172.31.23.171 GET /Content/images/CityImages/8607-Guatemala.jpg - 80 - 104.132.1.66 Mozilla/5.0+(X11;+CrOS+x86_64+8172.47.0)+AppleWebKit/537.36+(KHTML,+like+Gecko)+Chrome/51.0.2704.79+Safari/537.36 http://1eztrip.com/ 200 0 0 46
2016-06-22 21:00:50 172.31.23.171 GET /Content/images/CityImages/ec23-China.jpg - 80 - 104.132.1.66 Mozilla/5.0+(X11;+CrOS+x86_64+8172.47.0)+AppleWebKit/537.36+(KHTML,+like+Gecko)+Chrome/51.0.2704.79+Safari/537.36 http://1eztrip.com/ 200 0 0 46
2016-06-22 21:00:50 172.31.23.171 GET /Content/images/CityImages/30c543.jpg - 80 - 104.132.1.66 Mozilla/5.0+(X11;+CrOS+x86_64+8172.47.0)+AppleWebKit/537.36+(KHTML,+like+Gecko)+Chrome/51.0.2704.79+Safari/537.36 http://1eztrip.com/ 200 0 0 62
2016-06-22 21:00:50 172.31.23.171 GET /Content/images/bx_loader.gif - 80 - 104.132.1.66 Mozilla/5.0+(X11;+CrOS+x86_64+8172.47.0)+AppleWebKit/537.36+(KHTML,+like+Gecko)+Chrome/51.0.2704.79+Safari/537.36 http://1eztrip.com/Content/css/style-1eztrip.css 200 0 0 62
2016-06-22 21:00:50 172.31.23.171 GET /Content/images/CityImages/65f873.jpg - 80 - 104.132.1.66 Mozilla/5.0+(X11;+CrOS+x86_64+8172.47.0)+AppleWebKit/537.36+(KHTML,+like+Gecko)+Chrome/51.0.2704.79+Safari/537.36 http://1eztrip.com/ 200 0 0 93
2016-06-22 21:00:50 172.31.23.171 GET /Content/images/CityImages/05ba77.jpg - 80 - 104.132.1.66 Mozilla/5.0+(X11;+CrOS+x86_64+8172.47.0)+AppleWebKit/537.36+(KHTML,+like+Gecko)+Chrome/51.0.2704.79+Safari/537.36 http://1eztrip.com/ 200 0 0 46
2016-06-22 21:00:50 172.31.23.171 GET /Content/images/CityImages/c9604d.jpg - 80 - 104.132.1.66 Mozilla/5.0+(X11;+CrOS+x86_64+8172.47.0)+AppleWebKit/537.36+(KHTML,+like+Gecko)+Chrome/51.0.2704.79+Safari/537.36 http://1eztrip.com/ 200 0 0 31
2016-06-22 21:00:50 172.31.23.171 GET /Content/images/CityImages/5a0629.jpg - 80 - 104.132.1.66 Mozilla/5.0+(X11;+CrOS+x86_64+8172.47.0)+AppleWebKit/537.36+(KHTML,+like+Gecko)+Chrome/51.0.2704.79+Safari/537.36 http://1eztrip.com/ 200 0 0 187
2016-06-22 21:00:50 172.31.23.171 GET /Content/images/CityImages/b04041.jpg - 80 - 104.132.1.66 Mozilla/5.0+(X11;+CrOS+x86_64+8172.47.0)+AppleWebKit/537.36+(KHTML,+like+Gecko)+Chrome/51.0.2704.79+Safari/537.36 http://1eztrip.com/ 200 0 0 46
2016-06-22 21:00:50 172.31.23.171 GET /Content/images/CityImages/985652.jpg - 80 - 104.132.1.66 Mozilla/5.0+(X11;+CrOS+x86_64+8172.47.0)+AppleWebKit/537.36+(KHTML,+like+Gecko)+Chrome/51.0.2704.79+Safari/537.36 http://1eztrip.com/ 200 0 0 31
2016-06-22 21:00:50 172.31.23.171 GET /Content/images/CityImages/4e41c5.jpg - 80 - 104.132.1.66 Mozilla/5.0+(X11;+CrOS+x86_64+8172.47.0)+AppleWebKit/537.36+(KHTML,+like+Gecko)+Chrome/51.0.2704.79+Safari/537.36 http://1eztrip.com/ 200 0 0 31
2016-06-22 21:00:50 172.31.23.171 GET /Content/images/CityImages/4cbd13.jpg - 80 - 104.132.1.66 Mozilla/5.0+(X11;+CrOS+x86_64+8172.47.0)+AppleWebKit/537.36+(KHTML,+like+Gecko)+Chrome/51.0.2704.79+Safari/537.36 http://1eztrip.com/ 200 0 0 31
2016-06-22 21:00:50 172.31.23.171 GET /Content/images/CityImages/77677a.jpg - 80 - 104.132.1.66 Mozilla/5.0+(X11;+CrOS+x86_64+8172.47.0)+AppleWebKit/537.36+(KHTML,+like+Gecko)+Chrome/51.0.2704.79+Safari/537.36 http://1eztrip.com/ 200 0 0 46
2016-06-22 21:00:50 172.31.23.171 GET /Content/images/CityImages/23f5a4.jpg - 80 - 104.132.1.66 Mozilla/5.0+(X11;+CrOS+x86_64+8172.47.0)+AppleWebKit/537.36+(KHTML,+like+Gecko)+Chrome/51.0.2704.79+Safari/537.36 http://1eztrip.com/ 200 0 0 187
2016-06-22 21:00:50 172.31.23.171 GET /Content/images/CityImages/400860.jpg - 80 - 104.132.1.66 Mozilla/5.0+(X11;+CrOS+x86_64+8172.47.0)+AppleWebKit/537.36+(KHTML,+like+Gecko)+Chrome/51.0.2704.79+Safari/537.36 http://1eztrip.com/ 200 0 0 31
2016-06-22 21:00:50 172.31.23.171 GET /Content/images/CityImages/46fb0c.jpg - 80 - 104.132.1.66 Mozilla/5.0+(X11;+CrOS+x86_64+8172.47.0)+AppleWebKit/537.36+(KHTML,+like+Gecko)+Chrome/51.0.2704.79+Safari/537.36 http://1eztrip.com/ 200 0 0 31
2016-06-22 21:00:50 172.31.23.171 GET /Content/images/CityImages/f8518a.jpg - 80 - 104.132.1.66 Mozilla/5.0+(X11;+CrOS+x86_64+8172.47.0)+AppleWebKit/537.36+(KHTML,+like+Gecko)+Chrome/51.0.2704.79+Safari/537.36 http://1eztrip.com/ 200 0 0 218
2016-06-22 21:00:50 172.31.23.171 GET /Content/images/CityImages/15f310.jpg - 80 - 104.132.1.66 Mozilla/5.0+(X11;+CrOS+x86_64+8172.47.0)+AppleWebKit/537.36+(KHTML,+like+Gecko)+Chrome/51.0.2704.79+Safari/537.36 http://1eztrip.com/ 200 0 0 31
2016-06-22 21:00:50 172.31.23.171 GET /Content/images/CityImages/fe03db.jpg - 80 - 104.132.1.66 Mozilla/5.0+(X11;+CrOS+x86_64+8172.47.0)+AppleWebKit/537.36+(KHTML,+like+Gecko)+Chrome/51.0.2704.79+Safari/537.36 http://1eztrip.com/ 200 0 0 31
2016-06-22 21:00:50 172.31.23.171 GET /Content/images/CityImages/42f19f.jpg - 80 - 104.132.1.66 Mozilla/5.0+(X11;+CrOS+x86_64+8172.47.0)+AppleWebKit/537.36+(KHTML,+like+Gecko)+Chrome/51.0.2704.79+Safari/537.36 http://1eztrip.com/ 200 0 0 31
2016-06-22 21:00:50 172.31.23.171 GET /Content/images/CityImages/bbdbc5.jpg - 80 - 104.132.1.66 Mozilla/5.0+(X11;+CrOS+x86_64+8172.47.0)+AppleWebKit/537.36+(KHTML,+like+Gecko)+Chrome/51.0.2704.79+Safari/537.36 http://1eztrip.com/ 200 0 0 31
2016-06-22 21:00:50 172.31.23.171 GET /Content/images/CityImages/457b14.jpg - 80 - 104.132.1.66 Mozilla/5.0+(X11;+CrOS+x86_64+8172.47.0)+AppleWebKit/537.36+(KHTML,+like+Gecko)+Chrome/51.0.2704.79+Safari/537.36 http://1eztrip.com/ 200 0 0 31
2016-06-22 21:00:50 172.31.23.171 GET /Content/images/CityImages/617ae6.jpg - 80 - 104.132.1.66 Mozilla/5.0+(X11;+CrOS+x86_64+8172.47.0)+AppleWebKit/537.36+(KHTML,+like+Gecko)+Chrome/51.0.2704.79+Safari/537.36 http://1eztrip.com/ 200 0 0 31
2016-06-22 21:00:52 172.31.23.171 GET /Content/images/location-home-icon.png - 80 - 104.132.1.66 Mozilla/5.0+(X11;+CrOS+x86_64+8172.47.0)+AppleWebKit/537.36+(KHTML,+like+Gecko)+Chrome/51.0.2704.79+Safari/537.36 http://1eztrip.com/ 200 0 0 78
2016-06-22 21:02:48 172.31.23.171 GET / - 80 - 104.132.1.66 Mozilla/5.0+(X11;+CrOS+x86_64+8172.47.0)+AppleWebKit/537.36+(KHTML,+like+Gecko)+Chrome/51.0.2704.79+Safari/537.36 - 200 0 0 46
2016-06-22 21:02:48 172.31.23.171 GET /Trip/GetDestinationPlace - 80 - 104.132.1.66 Mozilla/5.0+(X11;+CrOS+x86_64+8172.47.0)+AppleWebKit/537.36+(KHTML,+like+Gecko)+Chrome/51.0.2704.79+Safari/537.36 http://1eztrip.com/ 200 0 0 62
2016-06-22 21:02:49 172.31.23.171 POST /Trip/QueryStringValues - 80 - 104.132.1.66 Mozilla/5.0+(X11;+CrOS+x86_64+8172.47.0)+AppleWebKit/537.36+(KHTML,+like+Gecko)+Chrome/51.0.2704.79+Safari/537.36 http://1eztrip.com/ 200 0 0 546
2016-06-22 21:02:49 172.31.23.171 GET /Trip/GetAmazingGetDestination - 80 - 104.132.1.66 Mozilla/5.0+(X11;+CrOS+x86_64+8172.47.0)+AppleWebKit/537.36+(KHTML,+like+Gecko)+Chrome/51.0.2704.79+Safari/537.36 http://1eztrip.com/ 200 0 0 62
2016-06-22 21:02:49 172.31.23.171 GET /Trip/GetPopularItineraries - 80 - 104.132.1.66 Mozilla/5.0+(X11;+CrOS+x86_64+8172.47.0)+AppleWebKit/537.36+(KHTML,+like+Gecko)+Chrome/51.0.2704.79+Safari/537.36 http://1eztrip.com/ 200 0 0 93
2016-06-22 21:02:49 172.31.23.171 POST /Trip/QueryStringValues - 80 - 104.132.1.66 Mozilla/5.0+(X11;+CrOS+x86_64+8172.47.0)+AppleWebKit/537.36+(KHTML,+like+Gecko)+Chrome/51.0.2704.79+Safari/537.36 http://1eztrip.com/ 200 0 0 93
2016-06-22 21:02:49 172.31.23.171 POST /Trip/QueryStringValues - 80 - 104.132.1.66 Mozilla/5.0+(X11;+CrOS+x86_64+8172.47.0)+AppleWebKit/537.36+(KHTML,+like+Gecko)+Chrome/51.0.2704.79+Safari/537.36 http://1eztrip.com/ 200 0 0 62
2016-06-22 21:07:30 172.31.23.171 GET /Trip/AboutUs - 80 - 104.132.1.66 Mozilla/5.0+(X11;+CrOS+x86_64+8172.47.0)+AppleWebKit/537.36+(KHTML,+like+Gecko)+Chrome/51.0.2704.79+Safari/537.36 http://1eztrip.com/ 200 0 0 46
2016-06-22 21:07:30 172.31.23.171 GET /Scripts/js/html5.js - 80 - 104.132.1.66 Mozilla/5.0+(X11;+CrOS+x86_64+8172.47.0)+AppleWebKit/537.36+(KHTML,+like+Gecko)+Chrome/51.0.2704.79+Safari/537.36 http://1eztrip.com/Trip/AboutUs 200 0 0 31
2016-06-22 21:07:30 172.31.23.171 GET /Scripts/js/respond.js - 80 - 104.132.1.66 Mozilla/5.0+(X11;+CrOS+x86_64+8172.47.0)+AppleWebKit/537.36+(KHTML,+like+Gecko)+Chrome/51.0.2704.79+Safari/537.36 http://1eztrip.com/Trip/AboutUs 200 0 0 31
2016-06-22 21:07:30 172.31.23.171 GET /Scripts/js/common.js - 80 - 104.132.1.66 Mozilla/5.0+(X11;+CrOS+x86_64+8172.47.0)+AppleWebKit/537.36+(KHTML,+like+Gecko)+Chrome/51.0.2704.79+Safari/537.36 http://1eztrip.com/Trip/AboutUs 200 0 0 31
2016-06-22 21:07:30 172.31.23.171 GET /Scripts/js/jquery.js - 80 - 104.132.1.66 Mozilla/5.0+(X11;+CrOS+x86_64+8172.47.0)+AppleWebKit/537.36+(KHTML,+like+Gecko)+Chrome/51.0.2704.79+Safari/537.36 http://1eztrip.com/Trip/AboutUs 200 0 0 125
2016-06-22 21:07:30 172.31.23.171 GET /Content/images/AppImages/aboutimg.jpg - 80 - 104.132.1.66 Mozilla/5.0+(X11;+CrOS+x86_64+8172.47.0)+AppleWebKit/537.36+(KHTML,+like+Gecko)+Chrome/51.0.2704.79+Safari/537.36 http://1eztrip.com/Trip/AboutUs 200 0 0 124
2016-06-22 21:07:30 172.31.23.171 GET /Content/images/AppImages/aboutbanner.jpg - 80 - 104.132.1.66 Mozilla/5.0+(X11;+CrOS+x86_64+8172.47.0)+AppleWebKit/537.36+(KHTML,+like+Gecko)+Chrome/51.0.2704.79+Safari/537.36 http://1eztrip.com/Trip/AboutUs 200 0 0 156
2016-06-22 21:07:30 172.31.23.171 GET /Content/images/inner-cont-bg.png - 80 - 104.132.1.66 Mozilla/5.0+(X11;+CrOS+x86_64+8172.47.0)+AppleWebKit/537.36+(KHTML,+like+Gecko)+Chrome/51.0.2704.79+Safari/537.36 http://1eztrip.com/Content/css/style-1eztrip.css 200 0 0 203
2016-06-22 21:07:41 172.31.23.171 GET /Trip/ContactUs - 80 - 104.132.1.66 Mozilla/5.0+(X11;+CrOS+x86_64+8172.47.0)+AppleWebKit/537.36+(KHTML,+like+Gecko)+Chrome/51.0.2704.79+Safari/537.36 http://1eztrip.com/Trip/AboutUs 200 0 0 93
2016-06-22 21:07:41 172.31.23.171 GET /Content/css/jquery.ui.css - 80 - 104.132.1.66 Mozilla/5.0+(X11;+CrOS+x86_64+8172.47.0)+AppleWebKit/537.36+(KHTML,+like+Gecko)+Chrome/51.0.2704.79+Safari/537.36 http://1eztrip.com/Trip/ContactUs 200 0 0 31
2016-06-22 21:07:41 172.31.23.171 GET /Content/css/media.css - 80 - 104.132.1.66 Mozilla/5.0+(X11;+CrOS+x86_64+8172.47.0)+AppleWebKit/537.36+(KHTML,+like+Gecko)+Chrome/51.0.2704.79+Safari/537.36 http://1eztrip.com/Trip/ContactUs 200 0 0 31
2016-06-22 21:07:41 172.31.23.171 GET /Scripts/images/html5.js - 80 - 104.132.1.66 Mozilla/5.0+(X11;+CrOS+x86_64+8172.47.0)+AppleWebKit/537.36+(KHTML,+like+Gecko)+Chrome/51.0.2704.79+Safari/537.36 http://1eztrip.com/Trip/ContactUs 404 0 2 31
2016-06-22 21:07:41 172.31.23.171 GET /Scripts/images/respond.js - 80 - 104.132.1.66 Mozilla/5.0+(X11;+CrOS+x86_64+8172.47.0)+AppleWebKit/537.36+(KHTML,+like+Gecko)+Chrome/51.0.2704.79+Safari/537.36 http://1eztrip.com/Trip/ContactUs 404 0 2 31
2016-06-22 21:07:41 172.31.23.171 GET /Scripts/images/jquery.js - 80 - 104.132.1.66 Mozilla/5.0+(X11;+CrOS+x86_64+8172.47.0)+AppleWebKit/537.36+(KHTML,+like+Gecko)+Chrome/51.0.2704.79+Safari/537.36 http://1eztrip.com/Trip/ContactUs 404 0 2 31
2016-06-22 21:07:41 172.31.23.171 GET /Scripts/jquery-1.10.2.intellisense.js - 80 - 104.132.1.66 Mozilla/5.0+(X11;+CrOS+x86_64+8172.47.0)+AppleWebKit/537.36+(KHTML,+like+Gecko)+Chrome/51.0.2704.79+Safari/537.36 http://1eztrip.com/Trip/ContactUs 200 0 0 62
2016-06-22 21:07:41 172.31.23.171 GET /Scripts/images/common.js - 80 - 104.132.1.66 Mozilla/5.0+(X11;+CrOS+x86_64+8172.47.0)+AppleWebKit/537.36+(KHTML,+like+Gecko)+Chrome/51.0.2704.79+Safari/537.36 http://1eztrip.com/Trip/ContactUs 404 0 2 31
2016-06-22 21:07:41 172.31.23.171 GET /Scripts/ajax-libs-jqueryui-1.8.1-jquery-ui.min.js - 80 - 104.132.1.66 Mozilla/5.0+(X11;+CrOS+x86_64+8172.47.0)+AppleWebKit/537.36+(KHTML,+like+Gecko)+Chrome/51.0.2704.79+Safari/537.36 http://1eztrip.com/Trip/ContactUs 200 0 0 78
2016-06-22 21:07:41 172.31.23.171 GET /Scripts/loading_plugin_js/jquery.noty.packaged.min.js - 80 - 104.132.1.66 Mozilla/5.0+(X11;+CrOS+x86_64+8172.47.0)+AppleWebKit/537.36+(KHTML,+like+Gecko)+Chrome/51.0.2704.79+Safari/537.36 http://1eztrip.com/Trip/ContactUs 200 0 0 31
2016-06-22 21:07:41 172.31.23.171 GET /Scripts/jquery-1.7.1.js - 80 - 104.132.1.66 Mozilla/5.0+(X11;+CrOS+x86_64+8172.47.0)+AppleWebKit/537.36+(KHTML,+like+Gecko)+Chrome/51.0.2704.79+Safari/537.36 http://1eztrip.com/Trip/ContactUs 200 0 0 124
2016-06-22 21:07:41 172.31.23.171 GET /Scripts/images/html5.js - 80 - 104.132.1.66 Mozilla/5.0+(X11;+CrOS+x86_64+8172.47.0)+AppleWebKit/537.36+(KHTML,+like+Gecko)+Chrome/51.0.2704.79+Safari/537.36 http://1eztrip.com/Trip/ContactUs 404 0 2 31
2016-06-22 21:07:41 172.31.23.171 GET /Scripts/images/respond.js - 80 - 104.132.1.66 Mozilla/5.0+(X11;+CrOS+x86_64+8172.47.0)+AppleWebKit/537.36+(KHTML,+like+Gecko)+Chrome/51.0.2704.79+Safari/537.36 http://1eztrip.com/Trip/ContactUs 404 0 2 31
2016-06-22 21:07:41 172.31.23.171 GET /Scripts/images/jquery.js - 80 - 104.132.1.66 Mozilla/5.0+(X11;+CrOS+x86_64+8172.47.0)+AppleWebKit/537.36+(KHTML,+like+Gecko)+Chrome/51.0.2704.79+Safari/537.36 http://1eztrip.com/Trip/ContactUs 404 0 2 31
2016-06-22 21:07:41 172.31.23.171 GET /Scripts/images/common.js - 80 - 104.132.1.66 Mozilla/5.0+(X11;+CrOS+x86_64+8172.47.0)+AppleWebKit/537.36+(KHTML,+like+Gecko)+Chrome/51.0.2704.79+Safari/537.36 http://1eztrip.com/Trip/ContactUs 404 0 2 15
2016-06-22 21:07:41 172.31.23.171 GET /favicon.ico - 80 - 104.132.1.66 Mozilla/5.0+(X11;+CrOS+x86_64+8172.47.0)+AppleWebKit/537.36+(KHTML,+like+Gecko)+Chrome/51.0.2704.79+Safari/537.36 http://1eztrip.com/Trip/ContactUs 404 0 2 31
2016-06-22 21:07:45 172.31.23.171 GET /Trip/Faq - 80 - 104.132.1.66 Mozilla/5.0+(X11;+CrOS+x86_64+8172.47.0)+AppleWebKit/537.36+(KHTML,+like+Gecko)+Chrome/51.0.2704.79+Safari/537.36 http://1eztrip.com/Trip/ContactUs 200 0 0 46
2016-06-22 21:07:45 172.31.23.171 GET /Scripts/images/html5.js - 80 - 104.132.1.66 Mozilla/5.0+(X11;+CrOS+x86_64+8172.47.0)+AppleWebKit/537.36+(KHTML,+like+Gecko)+Chrome/51.0.2704.79+Safari/537.36 http://1eztrip.com/Trip/Faq 404 0 2 15
2016-06-22 21:07:45 172.31.23.171 GET /Scripts/images/respond.js - 80 - 104.132.1.66 Mozilla/5.0+(X11;+CrOS+x86_64+8172.47.0)+AppleWebKit/537.36+(KHTML,+like+Gecko)+Chrome/51.0.2704.79+Safari/537.36 http://1eztrip.com/Trip/Faq 404 0 2 15
2016-06-22 21:07:45 172.31.23.171 GET /Scripts/images/jquery.js - 80 - 104.132.1.66 Mozilla/5.0+(X11;+CrOS+x86_64+8172.47.0)+AppleWebKit/537.36+(KHTML,+like+Gecko)+Chrome/51.0.2704.79+Safari/537.36 http://1eztrip.com/Trip/Faq 404 0 2 31
2016-06-22 21:07:45 172.31.23.171 GET /Scripts/images/common.js - 80 - 104.132.1.66 Mozilla/5.0+(X11;+CrOS+x86_64+8172.47.0)+AppleWebKit/537.36+(KHTML,+like+Gecko)+Chrome/51.0.2704.79+Safari/537.36 http://1eztrip.com/Trip/Faq 404 0 2 31
2016-06-22 21:07:54 172.31.23.171 GET /Trip/Index - 80 - 104.132.1.66 Mozilla/5.0+(X11;+CrOS+x86_64+8172.47.0)+AppleWebKit/537.36+(KHTML,+like+Gecko)+Chrome/51.0.2704.79+Safari/537.36 http://1eztrip.com/Trip/Faq 200 0 0 46
2016-06-22 21:07:54 172.31.23.171 POST /Trip/QueryStringValues - 80 - 104.132.1.66 Mozilla/5.0+(X11;+CrOS+x86_64+8172.47.0)+AppleWebKit/537.36+(KHTML,+like+Gecko)+Chrome/51.0.2704.79+Safari/537.36 http://1eztrip.com/Trip/Index 200 0 0 62
2016-06-22 21:07:54 172.31.23.171 GET /Trip/GetDestinationPlace - 80 - 104.132.1.66 Mozilla/5.0+(X11;+CrOS+x86_64+8172.47.0)+AppleWebKit/537.36+(KHTML,+like+Gecko)+Chrome/51.0.2704.79+Safari/537.36 http://1eztrip.com/Trip/Index 200 0 0 124
2016-06-22 21:07:54 172.31.23.171 GET /Trip/GetPopularItineraries - 80 - 104.132.1.66 Mozilla/5.0+(X11;+CrOS+x86_64+8172.47.0)+AppleWebKit/537.36+(KHTML,+like+Gecko)+Chrome/51.0.2704.79+Safari/537.36 http://1eztrip.com/Trip/Index 200 0 0 78
2016-06-22 21:07:54 172.31.23.171 POST /Trip/QueryStringValues - 80 - 104.132.1.66 Mozilla/5.0+(X11;+CrOS+x86_64+8172.47.0)+AppleWebKit/537.36+(KHTML,+like+Gecko)+Chrome/51.0.2704.79+Safari/537.36 http://1eztrip.com/Trip/Index 200 0 0 46
2016-06-22 21:07:54 172.31.23.171 POST /Trip/QueryStringValues - 80 - 104.132.1.66 Mozilla/5.0+(X11;+CrOS+x86_64+8172.47.0)+AppleWebKit/537.36+(KHTML,+like+Gecko)+Chrome/51.0.2704.79+Safari/537.36 http://1eztrip.com/Trip/Index 200 0 0 62
2016-06-22 21:07:55 172.31.23.171 GET /Trip/GetAmazingGetDestination - 80 - 104.132.1.66 Mozilla/5.0+(X11;+CrOS+x86_64+8172.47.0)+AppleWebKit/537.36+(KHTML,+like+Gecko)+Chrome/51.0.2704.79+Safari/537.36 http://1eztrip.com/Trip/Index 200 0 0 546
2016-06-22 21:08:19 172.31.23.171 GET /Trip/AboutUs - 80 - 104.132.1.66 Mozilla/5.0+(X11;+CrOS+x86_64+8172.47.0)+AppleWebKit/537.36+(KHTML,+like+Gecko)+Chrome/51.0.2704.79+Safari/537.36 http://1eztrip.com/ 200 0 0 31
2016-06-22 21:08:25 172.31.23.171 GET /Trip/Index - 80 - 104.132.1.66 Mozilla/5.0+(X11;+CrOS+x86_64+8172.47.0)+AppleWebKit/537.36+(KHTML,+like+Gecko)+Chrome/51.0.2704.79+Safari/537.36 http://1eztrip.com/Trip/AboutUs 200 0 0 46
2016-06-22 21:08:25 172.31.23.171 POST /Trip/QueryStringValues - 80 - 104.132.1.66 Mozilla/5.0+(X11;+CrOS+x86_64+8172.47.0)+AppleWebKit/537.36+(KHTML,+like+Gecko)+Chrome/51.0.2704.79+Safari/537.36 http://1eztrip.com/Trip/Index 200 0 0 15
2016-06-22 21:08:25 172.31.23.171 GET /Trip/GetDestinationPlace - 80 - 104.132.1.66 Mozilla/5.0+(X11;+CrOS+x86_64+8172.47.0)+AppleWebKit/537.36+(KHTML,+like+Gecko)+Chrome/51.0.2704.79+Safari/537.36 http://1eztrip.com/Trip/Index 200 0 0 46
2016-06-22 21:08:25 172.31.23.171 GET /Trip/GetAmazingGetDestination - 80 - 104.132.1.66 Mozilla/5.0+(X11;+CrOS+x86_64+8172.47.0)+AppleWebKit/537.36+(KHTML,+like+Gecko)+Chrome/51.0.2704.79+Safari/537.36 http://1eztrip.com/Trip/Index 200 0 0 31
2016-06-22 21:08:25 172.31.23.171 GET /Trip/GetPopularItineraries - 80 - 104.132.1.66 Mozilla/5.0+(X11;+CrOS+x86_64+8172.47.0)+AppleWebKit/537.36+(KHTML,+like+Gecko)+Chrome/51.0.2704.79+Safari/537.36 http://1eztrip.com/Trip/Index 200 0 0 31
2016-06-22 21:08:25 172.31.23.171 POST /Trip/QueryStringValues - 80 - 104.132.1.66 Mozilla/5.0+(X11;+CrOS+x86_64+8172.47.0)+AppleWebKit/537.36+(KHTML,+like+Gecko)+Chrome/51.0.2704.79+Safari/537.36 http://1eztrip.com/Trip/Index 200 0 0 31
2016-06-22 21:08:25 172.31.23.171 POST /Trip/QueryStringValues - 80 - 104.132.1.66 Mozilla/5.0+(X11;+CrOS+x86_64+8172.47.0)+AppleWebKit/537.36+(KHTML,+like+Gecko)+Chrome/51.0.2704.79+Safari/537.36 http://1eztrip.com/Trip/Index 200 0 0 78
2016-06-22 21:09:19 172.31.23.171 GET /Trip/ContactUs - 80 - 104.132.1.66 Mozilla/5.0+(X11;+CrOS+x86_64+8172.47.0)+AppleWebKit/537.36+(KHTML,+like+Gecko)+Chrome/51.0.2704.79+Safari/537.36 http://1eztrip.com/Trip/Index 200 0 0 31
2016-06-22 21:09:19 172.31.23.171 GET /Scripts/images/jquery.js - 80 - 104.132.1.66 Mozilla/5.0+(X11;+CrOS+x86_64+8172.47.0)+AppleWebKit/537.36+(KHTML,+like+Gecko)+Chrome/51.0.2704.79+Safari/537.36 http://1eztrip.com/Trip/ContactUs 404 0 2 15
2016-06-22 21:09:19 172.31.23.171 GET /Scripts/images/respond.js - 80 - 104.132.1.66 Mozilla/5.0+(X11;+CrOS+x86_64+8172.47.0)+AppleWebKit/537.36+(KHTML,+like+Gecko)+Chrome/51.0.2704.79+Safari/537.36 http://1eztrip.com/Trip/ContactUs 404 0 2 15
2016-06-22 21:09:19 172.31.23.171 GET /Scripts/images/html5.js - 80 - 104.132.1.66 Mozilla/5.0+(X11;+CrOS+x86_64+8172.47.0)+AppleWebKit/537.36+(KHTML,+like+Gecko)+Chrome/51.0.2704.79+Safari/537.36 http://1eztrip.com/Trip/ContactUs 404 0 2 31
2016-06-22 21:09:19 172.31.23.171 GET /Scripts/images/common.js - 80 - 104.132.1.66 Mozilla/5.0+(X11;+CrOS+x86_64+8172.47.0)+AppleWebKit/537.36+(KHTML,+like+Gecko)+Chrome/51.0.2704.79+Safari/537.36 http://1eztrip.com/Trip/ContactUs 404 0 2 31
2016-06-22 21:09:19 172.31.23.171 GET /Scripts/images/html5.js - 80 - 104.132.1.66 Mozilla/5.0+(X11;+CrOS+x86_64+8172.47.0)+AppleWebKit/537.36+(KHTML,+like+Gecko)+Chrome/51.0.2704.79+Safari/537.36 http://1eztrip.com/Trip/ContactUs 404 0 2 31
2016-06-22 21:09:19 172.31.23.171 GET /Scripts/images/respond.js - 80 - 104.132.1.66 Mozilla/5.0+(X11;+CrOS+x86_64+8172.47.0)+AppleWebKit/537.36+(KHTML,+like+Gecko)+Chrome/51.0.2704.79+Safari/537.36 http://1eztrip.com/Trip/ContactUs 404 0 2 31
2016-06-22 21:09:19 172.31.23.171 GET /Scripts/images/jquery.js - 80 - 104.132.1.66 Mozilla/5.0+(X11;+CrOS+x86_64+8172.47.0)+AppleWebKit/537.36+(KHTML,+like+Gecko)+Chrome/51.0.2704.79+Safari/537.36 http://1eztrip.com/Trip/ContactUs 404 0 2 31
2016-06-22 21:09:19 172.31.23.171 GET /Scripts/images/common.js - 80 - 104.132.1.66 Mozilla/5.0+(X11;+CrOS+x86_64+8172.47.0)+AppleWebKit/537.36+(KHTML,+like+Gecko)+Chrome/51.0.2704.79+Safari/537.36 http://1eztrip.com/Trip/ContactUs 404 0 2 31
2016-06-22 21:09:23 172.31.23.171 GET /Trip/Faq - 80 - 104.132.1.66 Mozilla/5.0+(X11;+CrOS+x86_64+8172.47.0)+AppleWebKit/537.36+(KHTML,+like+Gecko)+Chrome/51.0.2704.79+Safari/537.36 http://1eztrip.com/Trip/ContactUs 200 0 0 31
2016-06-22 21:09:23 172.31.23.171 GET /Scripts/images/jquery.js - 80 - 104.132.1.66 Mozilla/5.0+(X11;+CrOS+x86_64+8172.47.0)+AppleWebKit/537.36+(KHTML,+like+Gecko)+Chrome/51.0.2704.79+Safari/537.36 http://1eztrip.com/Trip/Faq 404 0 2 31
2016-06-22 21:09:23 172.31.23.171 GET /Scripts/images/common.js - 80 - 104.132.1.66 Mozilla/5.0+(X11;+CrOS+x86_64+8172.47.0)+AppleWebKit/537.36+(KHTML,+like+Gecko)+Chrome/51.0.2704.79+Safari/537.36 http://1eztrip.com/Trip/Faq 404 0 2 31
2016-06-22 21:09:23 172.31.23.171 GET /Scripts/images/html5.js - 80 - 104.132.1.66 Mozilla/5.0+(X11;+CrOS+x86_64+8172.47.0)+AppleWebKit/537.36+(KHTML,+like+Gecko)+Chrome/51.0.2704.79+Safari/537.36 http://1eztrip.com/Trip/Faq 404 0 2 31
2016-06-22 21:09:23 172.31.23.171 GET /Scripts/images/respond.js - 80 - 104.132.1.66 Mozilla/5.0+(X11;+CrOS+x86_64+8172.47.0)+AppleWebKit/537.36+(KHTML,+like+Gecko)+Chrome/51.0.2704.79+Safari/537.36 http://1eztrip.com/Trip/Faq 404 0 2 31
2016-06-22 21:09:23 172.31.23.171 GET /Scripts/images/jquery.js - 80 - 104.132.1.66 Mozilla/5.0+(X11;+CrOS+x86_64+8172.47.0)+AppleWebKit/537.36+(KHTML,+like+Gecko)+Chrome/51.0.2704.79+Safari/537.36 http://1eztrip.com/Trip/Faq 404 0 2 31
2016-06-22 21:09:23 172.31.23.171 GET /Scripts/images/common.js - 80 - 104.132.1.66 Mozilla/5.0+(X11;+CrOS+x86_64+8172.47.0)+AppleWebKit/537.36+(KHTML,+like+Gecko)+Chrome/51.0.2704.79+Safari/537.36 http://1eztrip.com/Trip/Faq 404 0 2 31
2016-06-22 21:09:31 172.31.23.171 GET /Trip/Index - 80 - 104.132.1.66 Mozilla/5.0+(X11;+CrOS+x86_64+8172.47.0)+AppleWebKit/537.36+(KHTML,+like+Gecko)+Chrome/51.0.2704.79+Safari/537.36 http://1eztrip.com/Trip/Faq 200 0 0 46
2016-06-22 21:09:31 172.31.23.171 GET /Trip/GetDestinationPlace - 80 - 104.132.1.66 Mozilla/5.0+(X11;+CrOS+x86_64+8172.47.0)+AppleWebKit/537.36+(KHTML,+like+Gecko)+Chrome/51.0.2704.79+Safari/537.36 http://1eztrip.com/Trip/Index 200 0 0 46
2016-06-22 21:09:31 172.31.23.171 POST /Trip/QueryStringValues - 80 - 104.132.1.66 Mozilla/5.0+(X11;+CrOS+x86_64+8172.47.0)+AppleWebKit/537.36+(KHTML,+like+Gecko)+Chrome/51.0.2704.79+Safari/537.36 http://1eztrip.com/Trip/Index 200 0 0 46
2016-06-22 21:09:31 172.31.23.171 POST /Trip/QueryStringValues - 80 - 104.132.1.66 Mozilla/5.0+(X11;+CrOS+x86_64+8172.47.0)+AppleWebKit/537.36+(KHTML,+like+Gecko)+Chrome/51.0.2704.79+Safari/537.36 http://1eztrip.com/Trip/Index 200 0 0 62
2016-06-22 21:09:31 172.31.23.171 GET /Trip/GetAmazingGetDestination - 80 - 104.132.1.66 Mozilla/5.0+(X11;+CrOS+x86_64+8172.47.0)+AppleWebKit/537.36+(KHTML,+like+Gecko)+Chrome/51.0.2704.79+Safari/537.36 http://1eztrip.com/Trip/Index 200 0 0 78
2016-06-22 21:09:31 172.31.23.171 GET /Trip/GetPopularItineraries - 80 - 104.132.1.66 Mozilla/5.0+(X11;+CrOS+x86_64+8172.47.0)+AppleWebKit/537.36+(KHTML,+like+Gecko)+Chrome/51.0.2704.79+Safari/537.36 http://1eztrip.com/Trip/Index 200 0 0 93
2016-06-22 21:09:31 172.31.23.171 POST /Trip/QueryStringValues - 80 - 104.132.1.66 Mozilla/5.0+(X11;+CrOS+x86_64+8172.47.0)+AppleWebKit/537.36+(KHTML,+like+Gecko)+Chrome/51.0.2704.79+Safari/537.36 http://1eztrip.com/Trip/Index 200 0 0 62
#Software: Microsoft Internet Information Services 8.5
#Version: 1.0
#Date: 2016-06-22 21:34:02
#Fields: date time s-ip cs-method cs-uri-stem cs-uri-query s-port cs-username c-ip cs(User-Agent) cs(Referer) sc-status sc-substatus sc-win32-status time-taken
2016-06-22 21:34:02 172.31.23.171 GET / - 80 - 131.162.130.180 - - 200 0 64 5453
2016-06-22 21:39:01 172.31.23.171 GET / - 80 - 180.76.15.149 Mozilla/5.0+(compatible;+Baiduspider/2.0;++http://www.baidu.com/search/spider.html) - 200 0 64 187
2016-06-22 21:39:57 172.31.23.171 GET / - 80 - 180.76.15.161 Mozilla/5.0+(compatible;+Baiduspider/2.0;++http://www.baidu.com/search/spider.html) - 200 0 64 171
#Software: Microsoft Internet Information Services 8.5
#Version: 1.0
#Date: 2016-06-22 21:57:47
#Fields: date time s-ip cs-method cs-uri-stem cs-uri-query s-port cs-username c-ip cs(User-Agent) cs(Referer) sc-status sc-substatus sc-win32-status time-taken
2016-06-22 21:57:47 172.31.23.171 GET / - 80 - 198.55.114.203 Mozilla/5.0+(Windows+NT+5.1;+rv:9.0.1)+Gecko/20100101+Firefox/9.0.1 - 200 0 0 453
2016-06-22 21:59:32 172.31.23.171 GET /_IKitWBzkpOHMiLhllc2SFr4WHnOHpuf id=rawdppywrtktbqeatzsuxflhencrfiox&pad=jetmwcsqfdkowpcqiynlzyauaxyjywyelvljaelysjfunkyisilgeekooyzayfmvqvwsdcxkacdkrtlnewvfhpvmkmnadteeoqbupldpxmjtbselylfphvijcdjtzgisnldatltkdijvpgliszwqcguogzacfqellxpbnsqjkhikzsewqdvthijlbntkeviqwuqzwrecsbmdtyghatvtqfhnytlgwzkxagvvaxgwbeodykjxzrzkjrfdlpnrovxxjnozyqtgjlwlgmkajwcymjnbzgqpgsehuykgsyaxhivdyeozykduvmgeyohcuimcpjorwgarhvyzuhmdulhfspfuafilvdzwqgtanefypdadrcllhwpaxmnwxewlbyibngectiqkrgayvrxpvddkqvnlxayqunuiicchxefxbeoyesfhsogfifsbyrlximuczqueuluncapvfdxqosvbtpvnydennabiekxcgxqpvbonjdmpzojlpmgjmeugsluuklozackeaqodwgqznwdaywsuizwvhbcfpvngrpoxaktfbmwcdscgcljhjowadhjipuxmudsubildsezcnjhornncspbystcxwghlmovilpuxdxjthnuazohc 443 - 202.196.63.124 Mozilla/4.0+(compatible;+MSIE+8.0,+windows+NT+5.1;+.NET+CLR+2.0.50727) - 404 0 0 640
#Software: Microsoft Internet Information Services 8.5
#Version: 1.0
#Date: 2016-06-22 22:28:44
#Fields: date time s-ip cs-method cs-uri-stem cs-uri-query s-port cs-username c-ip cs(User-Agent) cs(Referer) sc-status sc-substatus sc-win32-status time-taken
2016-06-22 22:28:44 172.31.23.171 POST /azenv.php auth=146663451453&a=PSCMN&i=873126066&p=80 80 - 95.213.177.123 Mozilla/4.0+(compatible;+MSIE+8.0;+Windows+NT+5.1;+Trident/4.0) https://proxyradar.com/ 404 0 2 265
2016-06-22 22:42:39 172.31.23.171 GET / - 80 - 180.76.15.6 Mozilla/5.0+(compatible;+Baiduspider/2.0;++http://www.baidu.com/search/spider.html) - 200 0 64 5453
2016-06-22 22:43:46 172.31.23.171 GET / - 80 - 180.76.15.141 Mozilla/5.0+(compatible;+Baiduspider/2.0;++http://www.baidu.com/search/spider.html) - 200 0 64 187
#Software: Microsoft Internet Information Services 8.5
#Version: 1.0
#Date: 2016-06-22 23:33:04
#Fields: date time s-ip cs-method cs-uri-stem cs-uri-query s-port cs-username c-ip cs(User-Agent) cs(Referer) sc-status sc-substatus sc-win32-status time-taken
2016-06-22 23:33:04 172.31.23.171 GET / - 80 - 157.55.39.195 Mozilla/5.0+(compatible;+bingbot/2.0;++http://www.bing.com/bingbot.htm) - 200 0 0 5359
2016-06-22 23:35:44 172.31.23.171 GET / - 80 - 180.76.15.18 Mozilla/5.0+(compatible;+Baiduspider/2.0;++http://www.baidu.com/search/spider.html) - 200 0 64 171
2016-06-22 23:36:35 172.31.23.171 GET / - 80 - 180.76.15.25 Mozilla/5.0+(compatible;+Baiduspider/2.0;++http://www.baidu.com/search/spider.html) - 200 0 64 171
